[2021-12-06T13:02:00.757+0200][gc] Using G1
[2021-12-06T13:02:00.764+0200][gc,init] Version: 17.0.1+0 (release)
[2021-12-06T13:02:00.764+0200][gc,init] CPUs: 16 total, 16 available
[2021-12-06T13:02:00.764+0200][gc,init] Memory: 16384M
[2021-12-06T13:02:00.764+0200][gc,init] Large Page Support: Disabled
[2021-12-06T13:02:00.764+0200][gc,init] NUMA Support: Disabled
[2021-12-06T13:02:00.764+0200][gc,init] Compressed Oops: Enabled (Zero based)
[2021-12-06T13:02:00.764+0200][gc,init] Heap Region Size: 1M
[2021-12-06T13:02:00.764+0200][gc,init] Heap Min Capacity: 1G
[2021-12-06T13:02:00.764+0200][gc,init] Heap Initial Capacity: 1G
[2021-12-06T13:02:00.764+0200][gc,init] Heap Max Capacity: 1G
[2021-12-06T13:02:00.764+0200][gc,init] Pre-touch: Disabled
[2021-12-06T13:02:00.764+0200][gc,init] Parallel Workers: 13
[2021-12-06T13:02:00.764+0200][gc,init] Concurrent Workers: 3
[2021-12-06T13:02:00.764+0200][gc,init] Concurrent Refinement Workers: 13
[2021-12-06T13:02:00.764+0200][gc,init] Periodic GC: Disabled
[2021-12-06T13:02:00.764+0200][gc,metaspace] CDS archive(s) mapped at: [0x0000000800000000-0x0000000800bd0000-0x0000000800bd0000), size 12386304, SharedBaseAddress: 0x0000000800000000, ArchiveRelocationMode: 0.
[2021-12-06T13:02:00.764+0200][gc,metaspace] Compressed class space mapped at: 0x0000000800c00000-0x0000000840c00000, reserved size: 1073741824
[2021-12-06T13:02:00.764+0200][gc,metaspace] Narrow klass base: 0x0000000800000000, Narrow klass shift: 0, Narrow klass range: 0x100000000
[2021-12-06T13:02:02.235+0200][gc,start    ] GC(0) Pause Young (Normal) (G1 Evacuation Pause)
[2021-12-06T13:02:02.236+0200][gc,task     ] GC(0) Using 13 workers of 13 for evacuation
[2021-12-06T13:02:02.243+0200][gc,phases   ] GC(0)   Pre Evacuate Collection Set: 0.1ms
[2021-12-06T13:02:02.243+0200][gc,phases   ] GC(0)   Merge Heap Roots: 0.0ms
[2021-12-06T13:02:02.243+0200][gc,phases   ] GC(0)   Evacuate Collection Set: 5.5ms
[2021-12-06T13:02:02.243+0200][gc,phases   ] GC(0)   Post Evacuate Collection Set: 1.0ms
[2021-12-06T13:02:02.243+0200][gc,phases   ] GC(0)   Other: 1.2ms
[2021-12-06T13:02:02.243+0200][gc,heap     ] GC(0) Eden regions: 51->0(44)
[2021-12-06T13:02:02.243+0200][gc,heap     ] GC(0) Survivor regions: 0->7(7)
[2021-12-06T13:02:02.243+0200][gc,heap     ] GC(0) Old regions: 0->1
[2021-12-06T13:02:02.243+0200][gc,heap     ] GC(0) Archive regions: 2->2
[2021-12-06T13:02:02.243+0200][gc,heap     ] GC(0) Humongous regions: 0->0
[2021-12-06T13:02:02.243+0200][gc,metaspace] GC(0) Metaspace: 18855K(19008K)->18855K(19008K) NonClass: 16357K(16448K)->16357K(16448K) Class: 2497K(2560K)->2497K(2560K)
[2021-12-06T13:02:02.243+0200][gc          ] GC(0) Pause Young (Normal) (G1 Evacuation Pause) 51M->8M(1024M) 7.969ms
[2021-12-06T13:02:02.243+0200][gc,cpu      ] GC(0) User=0.03s Sys=0.03s Real=0.01s
[2021-12-06T13:02:02.525+0200][gc,start    ] GC(1) Pause Young (Concurrent Start) (Metadata GC Threshold)
[2021-12-06T13:02:02.525+0200][gc,task     ] GC(1) Using 13 workers of 13 for evacuation
[2021-12-06T13:02:02.532+0200][gc,phases   ] GC(1)   Pre Evacuate Collection Set: 0.1ms
[2021-12-06T13:02:02.533+0200][gc,phases   ] GC(1)   Merge Heap Roots: 0.0ms
[2021-12-06T13:02:02.533+0200][gc,phases   ] GC(1)   Evacuate Collection Set: 6.8ms
[2021-12-06T13:02:02.533+0200][gc,phases   ] GC(1)   Post Evacuate Collection Set: 0.6ms
[2021-12-06T13:02:02.533+0200][gc,phases   ] GC(1)   Other: 0.3ms
[2021-12-06T13:02:02.533+0200][gc,heap     ] GC(1) Eden regions: 9->0(49)
[2021-12-06T13:02:02.533+0200][gc,heap     ] GC(1) Survivor regions: 7->2(7)
[2021-12-06T13:02:02.533+0200][gc,heap     ] GC(1) Old regions: 1->8
[2021-12-06T13:02:02.533+0200][gc,heap     ] GC(1) Archive regions: 2->2
[2021-12-06T13:02:02.533+0200][gc,heap     ] GC(1) Humongous regions: 0->0
[2021-12-06T13:02:02.533+0200][gc,metaspace] GC(1) Metaspace: 21272K(21504K)->21272K(21504K) NonClass: 18468K(18560K)->18468K(18560K) Class: 2804K(2944K)->2804K(2944K)
[2021-12-06T13:02:02.533+0200][gc          ] GC(1) Pause Young (Concurrent Start) (Metadata GC Threshold) 16M->9M(1024M) 8.007ms
[2021-12-06T13:02:02.533+0200][gc,cpu      ] GC(1) User=0.03s Sys=0.04s Real=0.01s
[2021-12-06T13:02:02.533+0200][gc          ] GC(2) Concurrent Mark Cycle
[2021-12-06T13:02:02.533+0200][gc,marking  ] GC(2) Concurrent Clear Claimed Marks
[2021-12-06T13:02:02.533+0200][gc,marking  ] GC(2) Concurrent Clear Claimed Marks 0.018ms
[2021-12-06T13:02:02.533+0200][gc,marking  ] GC(2) Concurrent Scan Root Regions
[2021-12-06T13:02:02.534+0200][gc,marking  ] GC(2) Concurrent Scan Root Regions 1.566ms
[2021-12-06T13:02:02.534+0200][gc,marking  ] GC(2) Concurrent Mark
[2021-12-06T13:02:02.534+0200][gc,marking  ] GC(2) Concurrent Mark From Roots
[2021-12-06T13:02:02.534+0200][gc,task     ] GC(2) Using 3 workers of 3 for marking
[2021-12-06T13:02:02.537+0200][gc,marking  ] GC(2) Concurrent Mark From Roots 2.459ms
[2021-12-06T13:02:02.537+0200][gc,marking  ] GC(2) Concurrent Preclean
[2021-12-06T13:02:02.537+0200][gc,marking  ] GC(2) Concurrent Preclean 0.033ms
[2021-12-06T13:02:02.537+0200][gc,start    ] GC(2) Pause Remark
[2021-12-06T13:02:02.538+0200][gc          ] GC(2) Pause Remark 9M->9M(1024M) 1.249ms
[2021-12-06T13:02:02.538+0200][gc,cpu      ] GC(2) User=0.01s Sys=0.00s Real=0.00s
[2021-12-06T13:02:02.538+0200][gc,marking  ] GC(2) Concurrent Mark 3.935ms
[2021-12-06T13:02:02.538+0200][gc,marking  ] GC(2) Concurrent Rebuild Remembered Sets
[2021-12-06T13:02:02.541+0200][gc,marking  ] GC(2) Concurrent Rebuild Remembered Sets 2.168ms
[2021-12-06T13:02:02.541+0200][gc,start    ] GC(2) Pause Cleanup
[2021-12-06T13:02:02.541+0200][gc          ] GC(2) Pause Cleanup 9M->9M(1024M) 0.134ms
[2021-12-06T13:02:02.541+0200][gc,cpu      ] GC(2) User=0.00s Sys=0.00s Real=0.00s
[2021-12-06T13:02:02.541+0200][gc,marking  ] GC(2) Concurrent Cleanup for Next Mark
[2021-12-06T13:02:02.546+0200][gc,marking  ] GC(2) Concurrent Cleanup for Next Mark 5.007ms
[2021-12-06T13:02:02.546+0200][gc          ] GC(2) Concurrent Mark Cycle 13.172ms
[2021-12-06T13:02:03.432+0200][gc,start    ] GC(3) Pause Young (Normal) (G1 Evacuation Pause)
[2021-12-06T13:02:03.432+0200][gc,task     ] GC(3) Using 13 workers of 13 for evacuation
[2021-12-06T13:02:03.434+0200][gc,phases   ] GC(3)   Pre Evacuate Collection Set: 0.1ms
[2021-12-06T13:02:03.434+0200][gc,phases   ] GC(3)   Merge Heap Roots: 0.1ms
[2021-12-06T13:02:03.434+0200][gc,phases   ] GC(3)   Evacuate Collection Set: 1.9ms
[2021-12-06T13:02:03.434+0200][gc,phases   ] GC(3)   Post Evacuate Collection Set: 0.4ms
[2021-12-06T13:02:03.434+0200][gc,phases   ] GC(3)   Other: 0.1ms
[2021-12-06T13:02:03.434+0200][gc,heap     ] GC(3) Eden regions: 49->0(46)
[2021-12-06T13:02:03.435+0200][gc,heap     ] GC(3) Survivor regions: 2->5(7)
[2021-12-06T13:02:03.435+0200][gc,heap     ] GC(3) Old regions: 8->8
[2021-12-06T13:02:03.435+0200][gc,heap     ] GC(3) Archive regions: 2->2
[2021-12-06T13:02:03.435+0200][gc,heap     ] GC(3) Humongous regions: 129->129
[2021-12-06T13:02:03.435+0200][gc,metaspace] GC(3) Metaspace: 31580K(31808K)->31580K(31808K) NonClass: 27838K(27968K)->27838K(27968K) Class: 3742K(3840K)->3742K(3840K)
[2021-12-06T13:02:03.435+0200][gc          ] GC(3) Pause Young (Normal) (G1 Evacuation Pause) 187M->141M(1024M) 2.759ms
[2021-12-06T13:02:03.435+0200][gc,cpu      ] GC(3) User=0.03s Sys=0.00s Real=0.00s
[2021-12-06T13:43:47.032+0200][gc,start    ] GC(4) Pause Young (Concurrent Start) (Metadata GC Threshold)
[2021-12-06T13:43:47.033+0200][gc,task     ] GC(4) Using 13 workers of 13 for evacuation
[2021-12-06T13:43:47.055+0200][gc,mmu      ] GC(4) MMU target violated: 21.0ms (20.0ms/21.0ms)
[2021-12-06T13:43:47.055+0200][gc,phases   ] GC(4)   Pre Evacuate Collection Set: 2.4ms
[2021-12-06T13:43:47.055+0200][gc,phases   ] GC(4)   Merge Heap Roots: 0.1ms
[2021-12-06T13:43:47.055+0200][gc,phases   ] GC(4)   Evacuate Collection Set: 17.7ms
[2021-12-06T13:43:47.055+0200][gc,phases   ] GC(4)   Post Evacuate Collection Set: 0.5ms
[2021-12-06T13:43:47.055+0200][gc,phases   ] GC(4)   Other: 2.4ms
[2021-12-06T13:43:47.055+0200][gc,heap     ] GC(4) Eden regions: 37->0(49)
[2021-12-06T13:43:47.055+0200][gc,heap     ] GC(4) Survivor regions: 5->2(7)
[2021-12-06T13:43:47.055+0200][gc,heap     ] GC(4) Old regions: 8->13
[2021-12-06T13:43:47.055+0200][gc,heap     ] GC(4) Archive regions: 2->2
[2021-12-06T13:43:47.055+0200][gc,heap     ] GC(4) Humongous regions: 129->129
[2021-12-06T13:43:47.055+0200][gc,metaspace] GC(4) Metaspace: 35750K(35968K)->35750K(35968K) NonClass: 31364K(31488K)->31364K(31488K) Class: 4386K(4480K)->4386K(4480K)
[2021-12-06T13:43:47.055+0200][gc          ] GC(4) Pause Young (Concurrent Start) (Metadata GC Threshold) 178M->143M(1024M) 23.250ms
[2021-12-06T13:43:47.055+0200][gc,cpu      ] GC(4) User=0.05s Sys=0.11s Real=0.02s
[2021-12-06T13:43:47.055+0200][gc          ] GC(5) Concurrent Mark Cycle
[2021-12-06T13:43:47.055+0200][gc,marking  ] GC(5) Concurrent Clear Claimed Marks
[2021-12-06T13:43:47.055+0200][gc,marking  ] GC(5) Concurrent Clear Claimed Marks 0.047ms
[2021-12-06T13:43:47.055+0200][gc,marking  ] GC(5) Concurrent Scan Root Regions
[2021-12-06T13:43:47.057+0200][gc,marking  ] GC(5) Concurrent Scan Root Regions 2.020ms
[2021-12-06T13:43:47.058+0200][gc,marking  ] GC(5) Concurrent Mark
[2021-12-06T13:43:47.058+0200][gc,marking  ] GC(5) Concurrent Mark From Roots
[2021-12-06T13:43:47.058+0200][gc,task     ] GC(5) Using 3 workers of 3 for marking
[2021-12-06T13:43:47.065+0200][gc,marking  ] GC(5) Concurrent Mark From Roots 7.211ms
[2021-12-06T13:43:47.065+0200][gc,marking  ] GC(5) Concurrent Preclean
[2021-12-06T13:43:47.065+0200][gc,marking  ] GC(5) Concurrent Preclean 0.238ms
[2021-12-06T13:43:47.065+0200][gc,start    ] GC(5) Pause Remark
[2021-12-06T13:43:47.081+0200][gc          ] GC(5) Pause Remark 144M->144M(1024M) 16.181ms
[2021-12-06T13:43:47.081+0200][gc,cpu      ] GC(5) User=0.03s Sys=0.08s Real=0.02s
[2021-12-06T13:43:47.081+0200][gc,marking  ] GC(5) Concurrent Mark 23.896ms
[2021-12-06T13:43:47.081+0200][gc,marking  ] GC(5) Concurrent Rebuild Remembered Sets
[2021-12-06T13:43:47.086+0200][gc,marking  ] GC(5) Concurrent Rebuild Remembered Sets 4.740ms
[2021-12-06T13:43:47.087+0200][gc,start    ] GC(5) Pause Cleanup
[2021-12-06T13:43:47.087+0200][gc          ] GC(5) Pause Cleanup 144M->144M(1024M) 0.222ms
[2021-12-06T13:43:47.087+0200][gc,cpu      ] GC(5) User=0.00s Sys=0.00s Real=0.00s
[2021-12-06T13:43:47.087+0200][gc,marking  ] GC(5) Concurrent Cleanup for Next Mark
[2021-12-06T13:43:47.094+0200][gc,marking  ] GC(5) Concurrent Cleanup for Next Mark 7.249ms
[2021-12-06T13:43:47.094+0200][gc          ] GC(5) Concurrent Mark Cycle 38.871ms
[2021-12-06T14:04:54.704+0200][gc,start    ] GC(6) Pause Young (Normal) (G1 Evacuation Pause)
[2021-12-06T14:04:54.704+0200][gc,task     ] GC(6) Using 13 workers of 13 for evacuation
[2021-12-06T14:04:54.719+0200][gc,phases   ] GC(6)   Pre Evacuate Collection Set: 1.7ms
[2021-12-06T14:04:54.719+0200][gc,phases   ] GC(6)   Merge Heap Roots: 0.1ms
[2021-12-06T14:04:54.719+0200][gc,phases   ] GC(6)   Evacuate Collection Set: 12.7ms
[2021-12-06T14:04:54.719+0200][gc,phases   ] GC(6)   Post Evacuate Collection Set: 0.5ms
[2021-12-06T14:04:54.719+0200][gc,phases   ] GC(6)   Other: 0.7ms
[2021-12-06T14:04:54.719+0200][gc,heap     ] GC(6) Eden regions: 49->0(48)
[2021-12-06T14:04:54.719+0200][gc,heap     ] GC(6) Survivor regions: 2->3(7)
[2021-12-06T14:04:54.719+0200][gc,heap     ] GC(6) Old regions: 13->13
[2021-12-06T14:04:54.719+0200][gc,heap     ] GC(6) Archive regions: 2->2
[2021-12-06T14:04:54.719+0200][gc,heap     ] GC(6) Humongous regions: 129->129
[2021-12-06T14:04:54.719+0200][gc,metaspace] GC(6) Metaspace: 37788K(38208K)->37788K(38208K) NonClass: 33190K(33408K)->33190K(33408K) Class: 4598K(4800K)->4598K(4800K)
[2021-12-06T14:04:54.720+0200][gc          ] GC(6) Pause Young (Normal) (G1 Evacuation Pause) 192M->144M(1024M) 15.729ms
[2021-12-06T14:04:54.720+0200][gc,cpu      ] GC(6) User=0.02s Sys=0.08s Real=0.02s
[2021-12-06T14:21:41.795+0200][gc,start    ] GC(7) Pause Young (Normal) (G1 Evacuation Pause)
[2021-12-06T14:21:41.795+0200][gc,task     ] GC(7) Using 13 workers of 13 for evacuation
[2021-12-06T14:21:41.814+0200][gc,phases   ] GC(7)   Pre Evacuate Collection Set: 0.3ms
[2021-12-06T14:21:41.814+0200][gc,phases   ] GC(7)   Merge Heap Roots: 0.1ms
[2021-12-06T14:21:41.814+0200][gc,phases   ] GC(7)   Evacuate Collection Set: 17.2ms
[2021-12-06T14:21:41.814+0200][gc,phases   ] GC(7)   Post Evacuate Collection Set: 0.5ms
[2021-12-06T14:21:41.814+0200][gc,phases   ] GC(7)   Other: 1.0ms
[2021-12-06T14:21:41.814+0200][gc,heap     ] GC(7) Eden regions: 48->0(46)
[2021-12-06T14:21:41.814+0200][gc,heap     ] GC(7) Survivor regions: 3->5(7)
[2021-12-06T14:21:41.814+0200][gc,heap     ] GC(7) Old regions: 13->13
[2021-12-06T14:21:41.814+0200][gc,heap     ] GC(7) Archive regions: 2->2
[2021-12-06T14:21:41.814+0200][gc,heap     ] GC(7) Humongous regions: 129->129
[2021-12-06T14:21:41.814+0200][gc,metaspace] GC(7) Metaspace: 39907K(40448K)->39907K(40448K) NonClass: 35035K(35328K)->35035K(35328K) Class: 4871K(5120K)->4871K(5120K)
[2021-12-06T14:21:41.814+0200][gc          ] GC(7) Pause Young (Normal) (G1 Evacuation Pause) 192M->146M(1024M) 19.294ms
[2021-12-06T14:21:41.814+0200][gc,cpu      ] GC(7) User=0.04s Sys=0.09s Real=0.02s
[2021-12-06T14:33:09.240+0200][gc,start    ] GC(8) Pause Young (Normal) (G1 Evacuation Pause)
[2021-12-06T14:33:09.241+0200][gc,task     ] GC(8) Using 13 workers of 13 for evacuation
[2021-12-06T14:33:09.257+0200][gc,phases   ] GC(8)   Pre Evacuate Collection Set: 2.9ms
[2021-12-06T14:33:09.257+0200][gc,phases   ] GC(8)   Merge Heap Roots: 0.2ms
[2021-12-06T14:33:09.257+0200][gc,phases   ] GC(8)   Evacuate Collection Set: 11.6ms
[2021-12-06T14:33:09.257+0200][gc,phases   ] GC(8)   Post Evacuate Collection Set: 1.2ms
[2021-12-06T14:33:09.257+0200][gc,phases   ] GC(8)   Other: 1.7ms
[2021-12-06T14:33:09.257+0200][gc,heap     ] GC(8) Eden regions: 46->0(47)
[2021-12-06T14:33:09.257+0200][gc,heap     ] GC(8) Survivor regions: 5->4(7)
[2021-12-06T14:33:09.257+0200][gc,heap     ] GC(8) Old regions: 13->13
[2021-12-06T14:33:09.257+0200][gc,heap     ] GC(8) Archive regions: 2->2
[2021-12-06T14:33:09.257+0200][gc,heap     ] GC(8) Humongous regions: 129->129
[2021-12-06T14:33:09.257+0200][gc,metaspace] GC(8) Metaspace: 40142K(40640K)->40142K(40640K) NonClass: 35260K(35520K)->35260K(35520K) Class: 4881K(5120K)->4881K(5120K)
[2021-12-06T14:33:09.257+0200][gc          ] GC(8) Pause Young (Normal) (G1 Evacuation Pause) 192M->146M(1024M) 16.919ms
[2021-12-06T14:33:09.257+0200][gc,cpu      ] GC(8) User=0.03s Sys=0.06s Real=0.01s
[2021-12-06T14:44:06.861+0200][gc,start    ] GC(9) Pause Young (Normal) (G1 Evacuation Pause)
[2021-12-06T14:44:06.861+0200][gc,task     ] GC(9) Using 13 workers of 13 for evacuation
[2021-12-06T14:44:06.876+0200][gc,phases   ] GC(9)   Pre Evacuate Collection Set: 1.4ms
[2021-12-06T14:44:06.876+0200][gc,phases   ] GC(9)   Merge Heap Roots: 0.2ms
[2021-12-06T14:44:06.876+0200][gc,phases   ] GC(9)   Evacuate Collection Set: 12.5ms
[2021-12-06T14:44:06.876+0200][gc,phases   ] GC(9)   Post Evacuate Collection Set: 0.6ms
[2021-12-06T14:44:06.876+0200][gc,phases   ] GC(9)   Other: 0.8ms
[2021-12-06T14:44:06.876+0200][gc,heap     ] GC(9) Eden regions: 47->0(47)
[2021-12-06T14:44:06.876+0200][gc,heap     ] GC(9) Survivor regions: 4->4(7)
[2021-12-06T14:44:06.876+0200][gc,heap     ] GC(9) Old regions: 13->14
[2021-12-06T14:44:06.876+0200][gc,heap     ] GC(9) Archive regions: 2->2
[2021-12-06T14:44:06.876+0200][gc,heap     ] GC(9) Humongous regions: 129->129
[2021-12-06T14:44:06.876+0200][gc,metaspace] GC(9) Metaspace: 40195K(40704K)->40195K(40704K) NonClass: 35313K(35584K)->35313K(35584K) Class: 4881K(5120K)->4881K(5120K)
[2021-12-06T14:44:06.876+0200][gc          ] GC(9) Pause Young (Normal) (G1 Evacuation Pause) 193M->147M(1024M) 15.639ms
[2021-12-06T14:44:06.876+0200][gc,cpu      ] GC(9) User=0.03s Sys=0.08s Real=0.01s
[2021-12-06T14:55:23.439+0200][gc,start    ] GC(10) Pause Young (Normal) (G1 Evacuation Pause)
[2021-12-06T14:55:23.440+0200][gc,task     ] GC(10) Using 13 workers of 13 for evacuation
[2021-12-06T14:55:23.446+0200][gc,phases   ] GC(10)   Pre Evacuate Collection Set: 0.2ms
[2021-12-06T14:55:23.446+0200][gc,phases   ] GC(10)   Merge Heap Roots: 0.1ms
[2021-12-06T14:55:23.446+0200][gc,phases   ] GC(10)   Evacuate Collection Set: 5.3ms
[2021-12-06T14:55:23.446+0200][gc,phases   ] GC(10)   Post Evacuate Collection Set: 0.5ms
[2021-12-06T14:55:23.446+0200][gc,phases   ] GC(10)   Other: 1.0ms
[2021-12-06T14:55:23.446+0200][gc,heap     ] GC(10) Eden regions: 47->0(46)
[2021-12-06T14:55:23.446+0200][gc,heap     ] GC(10) Survivor regions: 4->5(7)
[2021-12-06T14:55:23.446+0200][gc,heap     ] GC(10) Old regions: 14->14
[2021-12-06T14:55:23.446+0200][gc,heap     ] GC(10) Archive regions: 2->2
[2021-12-06T14:55:23.446+0200][gc,heap     ] GC(10) Humongous regions: 129->129
[2021-12-06T14:55:23.446+0200][gc,metaspace] GC(10) Metaspace: 40239K(40704K)->40239K(40704K) NonClass: 35356K(35584K)->35356K(35584K) Class: 4882K(5120K)->4882K(5120K)
[2021-12-06T14:55:23.447+0200][gc          ] GC(10) Pause Young (Normal) (G1 Evacuation Pause) 194M->147M(1024M) 7.143ms
[2021-12-06T14:55:23.447+0200][gc,cpu      ] GC(10) User=0.02s Sys=0.02s Real=0.01s
[2021-12-06T15:16:43.236+0200][gc,start    ] GC(11) Pause Young (Normal) (G1 Evacuation Pause)
[2021-12-06T15:16:43.237+0200][gc,task     ] GC(11) Using 13 workers of 13 for evacuation
[2021-12-06T15:16:43.273+0200][gc,mmu      ] GC(11) MMU target violated: 21.0ms (20.0ms/21.0ms)
[2021-12-06T15:16:43.273+0200][gc,phases   ] GC(11)   Pre Evacuate Collection Set: 4.4ms
[2021-12-06T15:16:43.273+0200][gc,phases   ] GC(11)   Merge Heap Roots: 0.3ms
[2021-12-06T15:16:43.273+0200][gc,phases   ] GC(11)   Evacuate Collection Set: 30.5ms
[2021-12-06T15:16:43.273+0200][gc,phases   ] GC(11)   Post Evacuate Collection Set: 0.8ms
[2021-12-06T15:16:43.273+0200][gc,phases   ] GC(11)   Other: 1.2ms
[2021-12-06T15:16:43.273+0200][gc,heap     ] GC(11) Eden regions: 46->0(47)
[2021-12-06T15:16:43.273+0200][gc,heap     ] GC(11) Survivor regions: 5->4(7)
[2021-12-06T15:16:43.273+0200][gc,heap     ] GC(11) Old regions: 14->15
[2021-12-06T15:16:43.273+0200][gc,heap     ] GC(11) Archive regions: 2->2
[2021-12-06T15:16:43.273+0200][gc,heap     ] GC(11) Humongous regions: 129->129
[2021-12-06T15:16:43.273+0200][gc,metaspace] GC(11) Metaspace: 40905K(41408K)->40905K(41408K) NonClass: 35863K(36160K)->35863K(36160K) Class: 5042K(5248K)->5042K(5248K)
[2021-12-06T15:16:43.273+0200][gc          ] GC(11) Pause Young (Normal) (G1 Evacuation Pause) 193M->148M(1024M) 37.136ms
[2021-12-06T15:16:43.273+0200][gc,cpu      ] GC(11) User=0.04s Sys=0.17s Real=0.04s
[2021-12-06T15:28:58.846+0200][gc,start    ] GC(12) Pause Young (Normal) (G1 Evacuation Pause)
[2021-12-06T15:28:58.846+0200][gc,task     ] GC(12) Using 13 workers of 13 for evacuation
[2021-12-06T15:28:58.870+0200][gc,mmu      ] GC(12) MMU target violated: 21.0ms (20.0ms/21.0ms)
[2021-12-06T15:28:58.870+0200][gc,phases   ] GC(12)   Pre Evacuate Collection Set: 2.0ms
[2021-12-06T15:28:58.870+0200][gc,phases   ] GC(12)   Merge Heap Roots: 0.7ms
[2021-12-06T15:28:58.870+0200][gc,phases   ] GC(12)   Evacuate Collection Set: 19.6ms
[2021-12-06T15:28:58.870+0200][gc,phases   ] GC(12)   Post Evacuate Collection Set: 0.6ms
[2021-12-06T15:28:58.870+0200][gc,phases   ] GC(12)   Other: 0.6ms
[2021-12-06T15:28:58.870+0200][gc,heap     ] GC(12) Eden regions: 47->0(46)
[2021-12-06T15:28:58.870+0200][gc,heap     ] GC(12) Survivor regions: 4->5(7)
[2021-12-06T15:28:58.870+0200][gc,heap     ] GC(12) Old regions: 15->15
[2021-12-06T15:28:58.870+0200][gc,heap     ] GC(12) Archive regions: 2->2
[2021-12-06T15:28:58.870+0200][gc,heap     ] GC(12) Humongous regions: 129->129
[2021-12-06T15:28:58.870+0200][gc,metaspace] GC(12) Metaspace: 40993K(41472K)->40993K(41472K) NonClass: 35949K(36224K)->35949K(36224K) Class: 5043K(5248K)->5043K(5248K)
[2021-12-06T15:28:58.870+0200][gc          ] GC(12) Pause Young (Normal) (G1 Evacuation Pause) 195M->149M(1024M) 24.083ms
[2021-12-06T15:28:58.870+0200][gc,cpu      ] GC(12) User=0.03s Sys=0.11s Real=0.03s
[2021-12-06T15:35:37.337+0200][gc,start    ] GC(13) Pause Young (Normal) (G1 Evacuation Pause)
[2021-12-06T15:35:37.337+0200][gc,task     ] GC(13) Using 13 workers of 13 for evacuation
[2021-12-06T15:35:37.365+0200][gc,mmu      ] GC(13) MMU target violated: 21.0ms (20.0ms/21.0ms)
[2021-12-06T15:35:37.365+0200][gc,phases   ] GC(13)   Pre Evacuate Collection Set: 6.9ms
[2021-12-06T15:35:37.365+0200][gc,phases   ] GC(13)   Merge Heap Roots: 0.2ms
[2021-12-06T15:35:37.365+0200][gc,phases   ] GC(13)   Evacuate Collection Set: 18.9ms
[2021-12-06T15:35:37.365+0200][gc,phases   ] GC(13)   Post Evacuate Collection Set: 1.2ms
[2021-12-06T15:35:37.365+0200][gc,phases   ] GC(13)   Other: 0.8ms
[2021-12-06T15:35:37.365+0200][gc,heap     ] GC(13) Eden regions: 46->0(47)
[2021-12-06T15:35:37.365+0200][gc,heap     ] GC(13) Survivor regions: 5->4(7)
[2021-12-06T15:35:37.365+0200][gc,heap     ] GC(13) Old regions: 15->16
[2021-12-06T15:35:37.365+0200][gc,heap     ] GC(13) Archive regions: 2->2
[2021-12-06T15:35:37.365+0200][gc,heap     ] GC(13) Humongous regions: 129->129
[2021-12-06T15:35:37.365+0200][gc,metaspace] GC(13) Metaspace: 41000K(41472K)->41000K(41472K) NonClass: 35956K(36224K)->35956K(36224K) Class: 5043K(5248K)->5043K(5248K)
[2021-12-06T15:35:37.365+0200][gc          ] GC(13) Pause Young (Normal) (G1 Evacuation Pause) 195M->149M(1024M) 27.985ms
[2021-12-06T15:35:37.365+0200][gc,cpu      ] GC(13) User=0.03s Sys=0.12s Real=0.03s
[2021-12-06T15:47:07.187+0200][gc,start    ] GC(14) Pause Young (Normal) (G1 Evacuation Pause)
[2021-12-06T15:47:07.188+0200][gc,task     ] GC(14) Using 13 workers of 13 for evacuation
[2021-12-06T15:47:07.241+0200][gc,mmu      ] GC(14) MMU target violated: 21.0ms (20.0ms/21.0ms)
[2021-12-06T15:47:07.242+0200][gc,phases   ] GC(14)   Pre Evacuate Collection Set: 8.9ms
[2021-12-06T15:47:07.242+0200][gc,phases   ] GC(14)   Merge Heap Roots: 1.8ms
[2021-12-06T15:47:07.242+0200][gc,phases   ] GC(14)   Evacuate Collection Set: 37.9ms
[2021-12-06T15:47:07.242+0200][gc,phases   ] GC(14)   Post Evacuate Collection Set: 1.9ms
[2021-12-06T15:47:07.242+0200][gc,phases   ] GC(14)   Other: 4.2ms
[2021-12-06T15:47:07.242+0200][gc,heap     ] GC(14) Eden regions: 47->0(47)
[2021-12-06T15:47:07.242+0200][gc,heap     ] GC(14) Survivor regions: 4->4(7)
[2021-12-06T15:47:07.242+0200][gc,heap     ] GC(14) Old regions: 16->16
[2021-12-06T15:47:07.242+0200][gc,heap     ] GC(14) Archive regions: 2->2
[2021-12-06T15:47:07.242+0200][gc,heap     ] GC(14) Humongous regions: 129->129
[2021-12-06T15:47:07.242+0200][gc,metaspace] GC(14) Metaspace: 41003K(41472K)->41003K(41472K) NonClass: 35959K(36224K)->35959K(36224K) Class: 5043K(5248K)->5043K(5248K)
[2021-12-06T15:47:07.242+0200][gc          ] GC(14) Pause Young (Normal) (G1 Evacuation Pause) 196M->149M(1024M) 54.765ms
[2021-12-06T15:47:07.242+0200][gc,cpu      ] GC(14) User=0.02s Sys=0.18s Real=0.06s
[2021-12-06T15:58:06.231+0200][gc,start    ] GC(15) Pause Young (Normal) (G1 Evacuation Pause)
[2021-12-06T15:58:06.232+0200][gc,task     ] GC(15) Using 13 workers of 13 for evacuation
[2021-12-06T15:58:06.263+0200][gc,mmu      ] GC(15) MMU target violated: 21.0ms (20.0ms/21.0ms)
[2021-12-06T15:58:06.263+0200][gc,phases   ] GC(15)   Pre Evacuate Collection Set: 4.2ms
[2021-12-06T15:58:06.263+0200][gc,phases   ] GC(15)   Merge Heap Roots: 0.1ms
[2021-12-06T15:58:06.263+0200][gc,phases   ] GC(15)   Evacuate Collection Set: 24.9ms
[2021-12-06T15:58:06.264+0200][gc,phases   ] GC(15)   Post Evacuate Collection Set: 1.4ms
[2021-12-06T15:58:06.264+0200][gc,phases   ] GC(15)   Other: 2.2ms
[2021-12-06T15:58:06.264+0200][gc,heap     ] GC(15) Eden regions: 47->0(47)
[2021-12-06T15:58:06.264+0200][gc,heap     ] GC(15) Survivor regions: 4->4(7)
[2021-12-06T15:58:06.264+0200][gc,heap     ] GC(15) Old regions: 16->16
[2021-12-06T15:58:06.264+0200][gc,heap     ] GC(15) Archive regions: 2->2
[2021-12-06T15:58:06.264+0200][gc,heap     ] GC(15) Humongous regions: 129->129
[2021-12-06T15:58:06.264+0200][gc,metaspace] GC(15) Metaspace: 41006K(41472K)->41006K(41472K) NonClass: 35963K(36224K)->35963K(36224K) Class: 5043K(5248K)->5043K(5248K)
[2021-12-06T15:58:06.264+0200][gc          ] GC(15) Pause Young (Normal) (G1 Evacuation Pause) 196M->149M(1024M) 32.186ms
[2021-12-06T15:58:06.264+0200][gc,cpu      ] GC(15) User=0.03s Sys=0.11s Real=0.03s
[2021-12-06T16:01:40.193+0200][gc,start    ] GC(16) Pause Young (Normal) (G1 Evacuation Pause)
[2021-12-06T16:01:40.193+0200][gc,task     ] GC(16) Using 13 workers of 13 for evacuation
[2021-12-06T16:01:40.293+0200][gc,mmu      ] GC(16) MMU target violated: 21.0ms (20.0ms/21.0ms)
[2021-12-06T16:01:40.294+0200][gc,phases   ] GC(16)   Pre Evacuate Collection Set: 3.0ms
[2021-12-06T16:01:40.294+0200][gc,phases   ] GC(16)   Merge Heap Roots: 0.4ms
[2021-12-06T16:01:40.294+0200][gc,phases   ] GC(16)   Evacuate Collection Set: 95.0ms
[2021-12-06T16:01:40.294+0200][gc,phases   ] GC(16)   Post Evacuate Collection Set: 1.5ms
[2021-12-06T16:01:40.294+0200][gc,phases   ] GC(16)   Other: 1.0ms
[2021-12-06T16:01:40.294+0200][gc,heap     ] GC(16) Eden regions: 47->0(47)
[2021-12-06T16:01:40.294+0200][gc,heap     ] GC(16) Survivor regions: 4->4(7)
[2021-12-06T16:01:40.294+0200][gc,heap     ] GC(16) Old regions: 16->16
[2021-12-06T16:01:40.294+0200][gc,heap     ] GC(16) Archive regions: 2->2
[2021-12-06T16:01:40.294+0200][gc,heap     ] GC(16) Humongous regions: 129->129
[2021-12-06T16:01:40.294+0200][gc,metaspace] GC(16) Metaspace: 41137K(41600K)->41137K(41600K) NonClass: 36086K(36352K)->36086K(36352K) Class: 5051K(5248K)->5051K(5248K)
[2021-12-06T16:01:40.294+0200][gc          ] GC(16) Pause Young (Normal) (G1 Evacuation Pause) 196M->149M(1024M) 101.060ms
[2021-12-06T16:01:40.294+0200][gc,cpu      ] GC(16) User=0.07s Sys=0.17s Real=0.10s
[2021-12-06T16:01:41.542+0200][gc,start    ] GC(17) Pause Young (Normal) (G1 Evacuation Pause)
[2021-12-06T16:01:41.543+0200][gc,task     ] GC(17) Using 13 workers of 13 for evacuation
[2021-12-06T16:01:41.551+0200][gc,phases   ] GC(17)   Pre Evacuate Collection Set: 0.5ms
[2021-12-06T16:01:41.551+0200][gc,phases   ] GC(17)   Merge Heap Roots: 1.9ms
[2021-12-06T16:01:41.552+0200][gc,phases   ] GC(17)   Evacuate Collection Set: 4.7ms
[2021-12-06T16:01:41.552+0200][gc,phases   ] GC(17)   Post Evacuate Collection Set: 1.0ms
[2021-12-06T16:01:41.552+0200][gc,phases   ] GC(17)   Other: 1.3ms
[2021-12-06T16:01:41.552+0200][gc,heap     ] GC(17) Eden regions: 47->0(47)
[2021-12-06T16:01:41.552+0200][gc,heap     ] GC(17) Survivor regions: 4->4(7)
[2021-12-06T16:01:41.552+0200][gc,heap     ] GC(17) Old regions: 16->17
[2021-12-06T16:01:41.552+0200][gc,heap     ] GC(17) Archive regions: 2->2
[2021-12-06T16:01:41.552+0200][gc,heap     ] GC(17) Humongous regions: 129->129
[2021-12-06T16:01:41.552+0200][gc,metaspace] GC(17) Metaspace: 41137K(41600K)->41137K(41600K) NonClass: 36086K(36352K)->36086K(36352K) Class: 5051K(5248K)->5051K(5248K)
[2021-12-06T16:01:41.552+0200][gc          ] GC(17) Pause Young (Normal) (G1 Evacuation Pause) 196M->149M(1024M) 9.665ms
[2021-12-06T16:01:41.552+0200][gc,cpu      ] GC(17) User=0.05s Sys=0.01s Real=0.01s
[2021-12-06T16:01:42.496+0200][gc,start    ] GC(18) Pause Young (Normal) (G1 Evacuation Pause)
[2021-12-06T16:01:42.496+0200][gc,task     ] GC(18) Using 13 workers of 13 for evacuation
[2021-12-06T16:01:42.499+0200][gc,phases   ] GC(18)   Pre Evacuate Collection Set: 0.1ms
[2021-12-06T16:01:42.499+0200][gc,phases   ] GC(18)   Merge Heap Roots: 0.1ms
[2021-12-06T16:01:42.499+0200][gc,phases   ] GC(18)   Evacuate Collection Set: 1.6ms
[2021-12-06T16:01:42.499+0200][gc,phases   ] GC(18)   Post Evacuate Collection Set: 1.2ms
[2021-12-06T16:01:42.499+0200][gc,phases   ] GC(18)   Other: 0.2ms
[2021-12-06T16:01:42.499+0200][gc,heap     ] GC(18) Eden regions: 47->0(47)
[2021-12-06T16:01:42.499+0200][gc,heap     ] GC(18) Survivor regions: 4->4(7)
[2021-12-06T16:01:42.499+0200][gc,heap     ] GC(18) Old regions: 17->17
[2021-12-06T16:01:42.499+0200][gc,heap     ] GC(18) Archive regions: 2->2
[2021-12-06T16:01:42.499+0200][gc,heap     ] GC(18) Humongous regions: 129->129
[2021-12-06T16:01:42.499+0200][gc,metaspace] GC(18) Metaspace: 41137K(41600K)->41137K(41600K) NonClass: 36086K(36352K)->36086K(36352K) Class: 5051K(5248K)->5051K(5248K)
[2021-12-06T16:01:42.500+0200][gc          ] GC(18) Pause Young (Normal) (G1 Evacuation Pause) 196M->149M(1024M) 4.005ms
[2021-12-06T16:01:42.500+0200][gc,cpu      ] GC(18) User=0.02s Sys=0.00s Real=0.01s
[2021-12-06T16:01:43.852+0200][gc,start    ] GC(19) Pause Young (Normal) (G1 Evacuation Pause)
[2021-12-06T16:01:43.852+0200][gc,task     ] GC(19) Using 13 workers of 13 for evacuation
[2021-12-06T16:01:43.855+0200][gc,phases   ] GC(19)   Pre Evacuate Collection Set: 0.1ms
[2021-12-06T16:01:43.855+0200][gc,phases   ] GC(19)   Merge Heap Roots: 0.1ms
[2021-12-06T16:01:43.855+0200][gc,phases   ] GC(19)   Evacuate Collection Set: 1.7ms
[2021-12-06T16:01:43.855+0200][gc,phases   ] GC(19)   Post Evacuate Collection Set: 0.4ms
[2021-12-06T16:01:43.855+0200][gc,phases   ] GC(19)   Other: 0.4ms
[2021-12-06T16:01:43.855+0200][gc,heap     ] GC(19) Eden regions: 47->0(48)
[2021-12-06T16:01:43.855+0200][gc,heap     ] GC(19) Survivor regions: 4->3(7)
[2021-12-06T16:01:43.855+0200][gc,heap     ] GC(19) Old regions: 17->17
[2021-12-06T16:01:43.855+0200][gc,heap     ] GC(19) Archive regions: 2->2
[2021-12-06T16:01:43.855+0200][gc,heap     ] GC(19) Humongous regions: 129->129
[2021-12-06T16:01:43.855+0200][gc,metaspace] GC(19) Metaspace: 41137K(41600K)->41137K(41600K) NonClass: 36086K(36352K)->36086K(36352K) Class: 5051K(5248K)->5051K(5248K)
[2021-12-06T16:01:43.855+0200][gc          ] GC(19) Pause Young (Normal) (G1 Evacuation Pause) 196M->149M(1024M) 3.024ms
[2021-12-06T16:01:43.855+0200][gc,cpu      ] GC(19) User=0.03s Sys=0.00s Real=0.00s
[2021-12-06T16:01:45.113+0200][gc,start    ] GC(20) Pause Young (Normal) (G1 Evacuation Pause)
[2021-12-06T16:01:45.113+0200][gc,task     ] GC(20) Using 13 workers of 13 for evacuation
[2021-12-06T16:01:45.116+0200][gc,phases   ] GC(20)   Pre Evacuate Collection Set: 0.2ms
[2021-12-06T16:01:45.116+0200][gc,phases   ] GC(20)   Merge Heap Roots: 0.1ms
[2021-12-06T16:01:45.116+0200][gc,phases   ] GC(20)   Evacuate Collection Set: 1.6ms
[2021-12-06T16:01:45.116+0200][gc,phases   ] GC(20)   Post Evacuate Collection Set: 0.9ms
[2021-12-06T16:01:45.116+0200][gc,phases   ] GC(20)   Other: 0.4ms
[2021-12-06T16:01:45.116+0200][gc,heap     ] GC(20) Eden regions: 48->0(47)
[2021-12-06T16:01:45.116+0200][gc,heap     ] GC(20) Survivor regions: 3->4(7)
[2021-12-06T16:01:45.116+0200][gc,heap     ] GC(20) Old regions: 17->17
[2021-12-06T16:01:45.116+0200][gc,heap     ] GC(20) Archive regions: 2->2
[2021-12-06T16:01:45.116+0200][gc,heap     ] GC(20) Humongous regions: 129->129
[2021-12-06T16:01:45.116+0200][gc,metaspace] GC(20) Metaspace: 41137K(41600K)->41137K(41600K) NonClass: 36086K(36352K)->36086K(36352K) Class: 5051K(5248K)->5051K(5248K)
[2021-12-06T16:01:45.116+0200][gc          ] GC(20) Pause Young (Normal) (G1 Evacuation Pause) 197M->149M(1024M) 3.294ms
[2021-12-06T16:01:45.116+0200][gc,cpu      ] GC(20) User=0.02s Sys=0.01s Real=0.00s
[2021-12-06T16:01:46.059+0200][gc,start    ] GC(21) Pause Young (Normal) (G1 Evacuation Pause)
[2021-12-06T16:01:46.059+0200][gc,task     ] GC(21) Using 13 workers of 13 for evacuation
[2021-12-06T16:01:46.064+0200][gc,phases   ] GC(21)   Pre Evacuate Collection Set: 1.0ms
[2021-12-06T16:01:46.064+0200][gc,phases   ] GC(21)   Merge Heap Roots: 0.9ms
[2021-12-06T16:01:46.064+0200][gc,phases   ] GC(21)   Evacuate Collection Set: 2.1ms
[2021-12-06T16:01:46.064+0200][gc,phases   ] GC(21)   Post Evacuate Collection Set: 0.4ms
[2021-12-06T16:01:46.064+0200][gc,phases   ] GC(21)   Other: 0.3ms
[2021-12-06T16:01:46.064+0200][gc,heap     ] GC(21) Eden regions: 47->0(95)
[2021-12-06T16:01:46.064+0200][gc,heap     ] GC(21) Survivor regions: 4->3(7)
[2021-12-06T16:01:46.064+0200][gc,heap     ] GC(21) Old regions: 17->17
[2021-12-06T16:01:46.064+0200][gc,heap     ] GC(21) Archive regions: 2->2
[2021-12-06T16:01:46.064+0200][gc,heap     ] GC(21) Humongous regions: 129->129
[2021-12-06T16:01:46.064+0200][gc,metaspace] GC(21) Metaspace: 41137K(41600K)->41137K(41600K) NonClass: 36086K(36352K)->36086K(36352K) Class: 5051K(5248K)->5051K(5248K)
[2021-12-06T16:01:46.064+0200][gc          ] GC(21) Pause Young (Normal) (G1 Evacuation Pause) 196M->149M(1024M) 4.828ms
[2021-12-06T16:01:46.064+0200][gc,cpu      ] GC(21) User=0.03s Sys=0.01s Real=0.01s
[2021-12-06T16:01:47.895+0200][gc,start    ] GC(22) Pause Young (Normal) (G1 Evacuation Pause)
[2021-12-06T16:01:47.895+0200][gc,task     ] GC(22) Using 13 workers of 13 for evacuation
[2021-12-06T16:01:47.900+0200][gc,phases   ] GC(22)   Pre Evacuate Collection Set: 0.1ms
[2021-12-06T16:01:47.900+0200][gc,phases   ] GC(22)   Merge Heap Roots: 0.1ms
[2021-12-06T16:01:47.900+0200][gc,phases   ] GC(22)   Evacuate Collection Set: 4.0ms
[2021-12-06T16:01:47.900+0200][gc,phases   ] GC(22)   Post Evacuate Collection Set: 0.5ms
[2021-12-06T16:01:47.900+0200][gc,phases   ] GC(22)   Other: 0.8ms
[2021-12-06T16:01:47.900+0200][gc,heap     ] GC(22) Eden regions: 95->0(222)
[2021-12-06T16:01:47.900+0200][gc,heap     ] GC(22) Survivor regions: 3->4(13)
[2021-12-06T16:01:47.900+0200][gc,heap     ] GC(22) Old regions: 17->17
[2021-12-06T16:01:47.900+0200][gc,heap     ] GC(22) Archive regions: 2->2
[2021-12-06T16:01:47.900+0200][gc,heap     ] GC(22) Humongous regions: 129->129
[2021-12-06T16:01:47.900+0200][gc,metaspace] GC(22) Metaspace: 41137K(41600K)->41137K(41600K) NonClass: 36086K(36352K)->36086K(36352K) Class: 5051K(5248K)->5051K(5248K)
[2021-12-06T16:01:47.900+0200][gc          ] GC(22) Pause Young (Normal) (G1 Evacuation Pause) 244M->149M(1024M) 5.044ms
[2021-12-06T16:01:47.900+0200][gc,cpu      ] GC(22) User=0.02s Sys=0.01s Real=0.01s
[2021-12-06T16:01:50.059+0200][gc,start    ] GC(23) Pause Young (Normal) (G1 Evacuation Pause)
[2021-12-06T16:01:50.059+0200][gc,task     ] GC(23) Using 13 workers of 13 for evacuation
[2021-12-06T16:01:50.062+0200][gc,phases   ] GC(23)   Pre Evacuate Collection Set: 0.1ms
[2021-12-06T16:01:50.062+0200][gc,phases   ] GC(23)   Merge Heap Roots: 0.1ms
[2021-12-06T16:01:50.062+0200][gc,phases   ] GC(23)   Evacuate Collection Set: 1.9ms
[2021-12-06T16:01:50.062+0200][gc,phases   ] GC(23)   Post Evacuate Collection Set: 0.4ms
[2021-12-06T16:01:50.062+0200][gc,phases   ] GC(23)   Other: 0.2ms
[2021-12-06T16:01:50.062+0200][gc,heap     ] GC(23) Eden regions: 222->0(463)
[2021-12-06T16:01:50.062+0200][gc,heap     ] GC(23) Survivor regions: 4->4(29)
[2021-12-06T16:01:50.062+0200][gc,heap     ] GC(23) Old regions: 17->17
[2021-12-06T16:01:50.062+0200][gc,heap     ] GC(23) Archive regions: 2->2
[2021-12-06T16:01:50.062+0200][gc,heap     ] GC(23) Humongous regions: 129->129
[2021-12-06T16:01:50.062+0200][gc,metaspace] GC(23) Metaspace: 41137K(41600K)->41137K(41600K) NonClass: 36086K(36352K)->36086K(36352K) Class: 5051K(5248K)->5051K(5248K)
[2021-12-06T16:01:50.062+0200][gc          ] GC(23) Pause Young (Normal) (G1 Evacuation Pause) 371M->149M(1024M) 2.693ms
[2021-12-06T16:01:50.062+0200][gc,cpu      ] GC(23) User=0.01s Sys=0.01s Real=0.01s
[2021-12-06T16:01:54.291+0200][gc,start    ] GC(24) Pause Young (Normal) (G1 Evacuation Pause)
[2021-12-06T16:01:54.292+0200][gc,task     ] GC(24) Using 13 workers of 13 for evacuation
[2021-12-06T16:01:54.298+0200][gc,phases   ] GC(24)   Pre Evacuate Collection Set: 0.3ms
[2021-12-06T16:01:54.298+0200][gc,phases   ] GC(24)   Merge Heap Roots: 0.2ms
[2021-12-06T16:01:54.298+0200][gc,phases   ] GC(24)   Evacuate Collection Set: 4.3ms
[2021-12-06T16:01:54.298+0200][gc,phases   ] GC(24)   Post Evacuate Collection Set: 1.0ms
[2021-12-06T16:01:54.298+0200][gc,phases   ] GC(24)   Other: 1.1ms
[2021-12-06T16:01:54.298+0200][gc,heap     ] GC(24) Eden regions: 463->0(610)
[2021-12-06T16:01:54.298+0200][gc,heap     ] GC(24) Survivor regions: 4->4(59)
[2021-12-06T16:01:54.298+0200][gc,heap     ] GC(24) Old regions: 17->17
[2021-12-06T16:01:54.298+0200][gc,heap     ] GC(24) Archive regions: 2->2
[2021-12-06T16:01:54.298+0200][gc,heap     ] GC(24) Humongous regions: 129->129
[2021-12-06T16:01:54.298+0200][gc,metaspace] GC(24) Metaspace: 41137K(41600K)->41137K(41600K) NonClass: 36086K(36352K)->36086K(36352K) Class: 5051K(5248K)->5051K(5248K)
[2021-12-06T16:01:54.298+0200][gc          ] GC(24) Pause Young (Normal) (G1 Evacuation Pause) 612M->149M(1024M) 6.971ms
[2021-12-06T16:01:54.298+0200][gc,cpu      ] GC(24) User=0.03s Sys=0.02s Real=0.00s
[2021-12-06T16:02:01.424+0200][gc,start    ] GC(25) Pause Young (Normal) (G1 Evacuation Pause)
[2021-12-06T16:02:01.425+0200][gc,task     ] GC(25) Using 13 workers of 13 for evacuation
[2021-12-06T16:02:01.443+0200][gc,phases   ] GC(25)   Pre Evacuate Collection Set: 0.5ms
[2021-12-06T16:02:01.443+0200][gc,phases   ] GC(25)   Merge Heap Roots: 0.2ms
[2021-12-06T16:02:01.443+0200][gc,phases   ] GC(25)   Evacuate Collection Set: 14.8ms
[2021-12-06T16:02:01.443+0200][gc,phases   ] GC(25)   Post Evacuate Collection Set: 1.3ms
[2021-12-06T16:02:01.443+0200][gc,phases   ] GC(25)   Other: 1.8ms
[2021-12-06T16:02:01.443+0200][gc,heap     ] GC(25) Eden regions: 610->0(610)
[2021-12-06T16:02:01.443+0200][gc,heap     ] GC(25) Survivor regions: 4->4(77)
[2021-12-06T16:02:01.443+0200][gc,heap     ] GC(25) Old regions: 17->17
[2021-12-06T16:02:01.443+0200][gc,heap     ] GC(25) Archive regions: 2->2
[2021-12-06T16:02:01.443+0200][gc,heap     ] GC(25) Humongous regions: 129->129
[2021-12-06T16:02:01.443+0200][gc,metaspace] GC(25) Metaspace: 41137K(41600K)->41137K(41600K) NonClass: 36086K(36352K)->36086K(36352K) Class: 5051K(5248K)->5051K(5248K)
[2021-12-06T16:02:01.443+0200][gc          ] GC(25) Pause Young (Normal) (G1 Evacuation Pause) 759M->149M(1024M) 18.867ms
[2021-12-06T16:02:01.443+0200][gc,cpu      ] GC(25) User=0.05s Sys=0.08s Real=0.02s
[2021-12-06T16:02:07.618+0200][gc,start    ] GC(26) Pause Young (Normal) (G1 Evacuation Pause)
[2021-12-06T16:02:07.618+0200][gc,task     ] GC(26) Using 13 workers of 13 for evacuation
[2021-12-06T16:02:07.624+0200][gc,phases   ] GC(26)   Pre Evacuate Collection Set: 1.2ms
[2021-12-06T16:02:07.624+0200][gc,phases   ] GC(26)   Merge Heap Roots: 0.2ms
[2021-12-06T16:02:07.624+0200][gc,phases   ] GC(26)   Evacuate Collection Set: 1.6ms
[2021-12-06T16:02:07.624+0200][gc,phases   ] GC(26)   Post Evacuate Collection Set: 0.6ms
[2021-12-06T16:02:07.624+0200][gc,phases   ] GC(26)   Other: 2.5ms
[2021-12-06T16:02:07.624+0200][gc,heap     ] GC(26) Eden regions: 610->0(611)
[2021-12-06T16:02:07.624+0200][gc,heap     ] GC(26) Survivor regions: 4->3(77)
[2021-12-06T16:02:07.624+0200][gc,heap     ] GC(26) Old regions: 17->17
[2021-12-06T16:02:07.624+0200][gc,heap     ] GC(26) Archive regions: 2->2
[2021-12-06T16:02:07.624+0200][gc,heap     ] GC(26) Humongous regions: 129->129
[2021-12-06T16:02:07.624+0200][gc,metaspace] GC(26) Metaspace: 41137K(41600K)->41137K(41600K) NonClass: 36086K(36352K)->36086K(36352K) Class: 5051K(5248K)->5051K(5248K)
[2021-12-06T16:02:07.624+0200][gc          ] GC(26) Pause Young (Normal) (G1 Evacuation Pause) 759M->149M(1024M) 6.069ms
[2021-12-06T16:02:07.624+0200][gc,cpu      ] GC(26) User=0.02s Sys=0.01s Real=0.01s
[2021-12-06T16:02:14.898+0200][gc,start    ] GC(27) Pause Young (Normal) (G1 Evacuation Pause)
[2021-12-06T16:02:14.899+0200][gc,task     ] GC(27) Using 13 workers of 13 for evacuation
[2021-12-06T16:02:14.902+0200][gc,phases   ] GC(27)   Pre Evacuate Collection Set: 0.2ms
[2021-12-06T16:02:14.902+0200][gc,phases   ] GC(27)   Merge Heap Roots: 0.2ms
[2021-12-06T16:02:14.902+0200][gc,phases   ] GC(27)   Evacuate Collection Set: 1.9ms
[2021-12-06T16:02:14.902+0200][gc,phases   ] GC(27)   Post Evacuate Collection Set: 0.9ms
[2021-12-06T16:02:14.903+0200][gc,phases   ] GC(27)   Other: 0.9ms
[2021-12-06T16:02:14.903+0200][gc,heap     ] GC(27) Eden regions: 611->0(610)
[2021-12-06T16:02:14.903+0200][gc,heap     ] GC(27) Survivor regions: 3->4(77)
[2021-12-06T16:02:14.903+0200][gc,heap     ] GC(27) Old regions: 17->17
[2021-12-06T16:02:14.903+0200][gc,heap     ] GC(27) Archive regions: 2->2
[2021-12-06T16:02:14.903+0200][gc,heap     ] GC(27) Humongous regions: 129->129
[2021-12-06T16:02:14.903+0200][gc,metaspace] GC(27) Metaspace: 41137K(41600K)->41137K(41600K) NonClass: 36086K(36352K)->36086K(36352K) Class: 5051K(5248K)->5051K(5248K)
[2021-12-06T16:02:14.903+0200][gc          ] GC(27) Pause Young (Normal) (G1 Evacuation Pause) 760M->149M(1024M) 4.148ms
[2021-12-06T16:02:14.903+0200][gc,cpu      ] GC(27) User=0.03s Sys=0.01s Real=0.01s
[2021-12-06T16:02:20.781+0200][gc,start    ] GC(28) Pause Young (Normal) (G1 Evacuation Pause)
[2021-12-06T16:02:20.782+0200][gc,task     ] GC(28) Using 13 workers of 13 for evacuation
[2021-12-06T16:02:20.785+0200][gc,phases   ] GC(28)   Pre Evacuate Collection Set: 0.2ms
[2021-12-06T16:02:20.785+0200][gc,phases   ] GC(28)   Merge Heap Roots: 0.1ms
[2021-12-06T16:02:20.785+0200][gc,phases   ] GC(28)   Evacuate Collection Set: 2.1ms
[2021-12-06T16:02:20.785+0200][gc,phases   ] GC(28)   Post Evacuate Collection Set: 0.7ms
[2021-12-06T16:02:20.785+0200][gc,phases   ] GC(28)   Other: 1.0ms
[2021-12-06T16:02:20.785+0200][gc,heap     ] GC(28) Eden regions: 610->0(611)
[2021-12-06T16:02:20.785+0200][gc,heap     ] GC(28) Survivor regions: 4->3(77)
[2021-12-06T16:02:20.785+0200][gc,heap     ] GC(28) Old regions: 17->18
[2021-12-06T16:02:20.785+0200][gc,heap     ] GC(28) Archive regions: 2->2
[2021-12-06T16:02:20.785+0200][gc,heap     ] GC(28) Humongous regions: 129->129
[2021-12-06T16:02:20.785+0200][gc,metaspace] GC(28) Metaspace: 41137K(41600K)->41137K(41600K) NonClass: 36086K(36352K)->36086K(36352K) Class: 5051K(5248K)->5051K(5248K)
[2021-12-06T16:02:20.785+0200][gc          ] GC(28) Pause Young (Normal) (G1 Evacuation Pause) 759M->149M(1024M) 4.172ms
[2021-12-06T16:02:20.785+0200][gc,cpu      ] GC(28) User=0.03s Sys=0.01s Real=0.00s
[2021-12-06T17:38:58.627+0200][gc,start    ] GC(29) Pause Young (Normal) (G1 Evacuation Pause)
[2021-12-06T17:38:58.627+0200][gc,task     ] GC(29) Using 13 workers of 13 for evacuation
[2021-12-06T17:38:58.708+0200][gc,mmu      ] GC(29) MMU target violated: 21.0ms (20.0ms/21.0ms)
[2021-12-06T17:38:58.708+0200][gc,phases   ] GC(29)   Pre Evacuate Collection Set: 13.4ms
[2021-12-06T17:38:58.708+0200][gc,phases   ] GC(29)   Merge Heap Roots: 6.0ms
[2021-12-06T17:38:58.708+0200][gc,phases   ] GC(29)   Evacuate Collection Set: 48.2ms
[2021-12-06T17:38:58.708+0200][gc,phases   ] GC(29)   Post Evacuate Collection Set: 11.2ms
[2021-12-06T17:38:58.708+0200][gc,phases   ] GC(29)   Other: 3.1ms
[2021-12-06T17:38:58.708+0200][gc,heap     ] GC(29) Eden regions: 611->0(46)
[2021-12-06T17:38:58.708+0200][gc,heap     ] GC(29) Survivor regions: 3->5(77)
[2021-12-06T17:38:58.708+0200][gc,heap     ] GC(29) Old regions: 18->18
[2021-12-06T17:38:58.708+0200][gc,heap     ] GC(29) Archive regions: 2->2
[2021-12-06T17:38:58.708+0200][gc,heap     ] GC(29) Humongous regions: 129->129
[2021-12-06T17:38:58.708+0200][gc,metaspace] GC(29) Metaspace: 41303K(41728K)->41303K(41728K) NonClass: 36252K(36480K)->36252K(36480K) Class: 5051K(5248K)->5051K(5248K)
[2021-12-06T17:38:58.708+0200][gc          ] GC(29) Pause Young (Normal) (G1 Evacuation Pause) 760M->151M(1024M) 81.429ms
[2021-12-06T17:38:58.708+0200][gc,cpu      ] GC(29) User=0.05s Sys=0.25s Real=0.08s
[2021-12-06T17:47:41.103+0200][gc,start    ] GC(30) Pause Young (Normal) (G1 Evacuation Pause)
[2021-12-06T17:47:41.104+0200][gc,task     ] GC(30) Using 13 workers of 13 for evacuation
[2021-12-06T17:47:41.116+0200][gc,phases   ] GC(30)   Pre Evacuate Collection Set: 0.3ms
[2021-12-06T17:47:41.116+0200][gc,phases   ] GC(30)   Merge Heap Roots: 0.1ms
[2021-12-06T17:47:41.116+0200][gc,phases   ] GC(30)   Evacuate Collection Set: 11.4ms
[2021-12-06T17:47:41.116+0200][gc,phases   ] GC(30)   Post Evacuate Collection Set: 0.5ms
[2021-12-06T17:47:41.116+0200][gc,phases   ] GC(30)   Other: 0.6ms
[2021-12-06T17:47:41.116+0200][gc,heap     ] GC(30) Eden regions: 46->0(48)
[2021-12-06T17:47:41.116+0200][gc,heap     ] GC(30) Survivor regions: 5->3(7)
[2021-12-06T17:47:41.116+0200][gc,heap     ] GC(30) Old regions: 18->20
[2021-12-06T17:47:41.116+0200][gc,heap     ] GC(30) Archive regions: 2->2
[2021-12-06T17:47:41.116+0200][gc,heap     ] GC(30) Humongous regions: 129->129
[2021-12-06T17:47:41.116+0200][gc,metaspace] GC(30) Metaspace: 41304K(41728K)->41304K(41728K) NonClass: 36252K(36480K)->36252K(36480K) Class: 5051K(5248K)->5051K(5248K)
[2021-12-06T17:47:41.116+0200][gc          ] GC(30) Pause Young (Normal) (G1 Evacuation Pause) 197M->151M(1024M) 12.964ms
[2021-12-06T17:47:41.116+0200][gc,cpu      ] GC(30) User=0.03s Sys=0.07s Real=0.01s
[2021-12-06T17:57:34.110+0200][gc,start    ] GC(31) Pause Young (Normal) (G1 Evacuation Pause)
[2021-12-06T17:57:34.110+0200][gc,task     ] GC(31) Using 13 workers of 13 for evacuation
[2021-12-06T17:57:34.124+0200][gc,phases   ] GC(31)   Pre Evacuate Collection Set: 0.9ms
[2021-12-06T17:57:34.124+0200][gc,phases   ] GC(31)   Merge Heap Roots: 0.1ms
[2021-12-06T17:57:34.124+0200][gc,phases   ] GC(31)   Evacuate Collection Set: 12.5ms
[2021-12-06T17:57:34.124+0200][gc,phases   ] GC(31)   Post Evacuate Collection Set: 0.5ms
[2021-12-06T17:57:34.124+0200][gc,phases   ] GC(31)   Other: 0.2ms
[2021-12-06T17:57:34.124+0200][gc,heap     ] GC(31) Eden regions: 48->0(48)
[2021-12-06T17:57:34.124+0200][gc,heap     ] GC(31) Survivor regions: 3->3(7)
[2021-12-06T17:57:34.124+0200][gc,heap     ] GC(31) Old regions: 20->20
[2021-12-06T17:57:34.124+0200][gc,heap     ] GC(31) Archive regions: 2->2
[2021-12-06T17:57:34.124+0200][gc,heap     ] GC(31) Humongous regions: 129->129
[2021-12-06T17:57:34.124+0200][gc,metaspace] GC(31) Metaspace: 41305K(41728K)->41305K(41728K) NonClass: 36253K(36480K)->36253K(36480K) Class: 5051K(5248K)->5051K(5248K)
[2021-12-06T17:57:34.124+0200][gc          ] GC(31) Pause Young (Normal) (G1 Evacuation Pause) 199M->152M(1024M) 14.365ms
[2021-12-06T17:57:34.124+0200][gc,cpu      ] GC(31) User=0.02s Sys=0.05s Real=0.01s
[2021-12-06T23:57:12.179+0200][gc,start    ] GC(32) Pause Young (Normal) (G1 Evacuation Pause)
[2021-12-06T23:57:12.181+0200][gc,task     ] GC(32) Using 13 workers of 13 for evacuation
[2021-12-06T23:57:12.210+0200][gc,mmu      ] GC(32) MMU target violated: 21.0ms (20.0ms/21.0ms)
[2021-12-06T23:57:12.210+0200][gc,phases   ] GC(32)   Pre Evacuate Collection Set: 4.3ms
[2021-12-06T23:57:12.210+0200][gc,phases   ] GC(32)   Merge Heap Roots: 4.1ms
[2021-12-06T23:57:12.210+0200][gc,phases   ] GC(32)   Evacuate Collection Set: 18.2ms
[2021-12-06T23:57:12.210+0200][gc,phases   ] GC(32)   Post Evacuate Collection Set: 1.8ms
[2021-12-06T23:57:12.210+0200][gc,phases   ] GC(32)   Other: 2.6ms
[2021-12-06T23:57:12.210+0200][gc,heap     ] GC(32) Eden regions: 48->0(47)
[2021-12-06T23:57:12.210+0200][gc,heap     ] GC(32) Survivor regions: 3->4(7)
[2021-12-06T23:57:12.210+0200][gc,heap     ] GC(32) Old regions: 20->20
[2021-12-06T23:57:12.210+0200][gc,heap     ] GC(32) Archive regions: 2->2
[2021-12-06T23:57:12.210+0200][gc,heap     ] GC(32) Humongous regions: 129->129
[2021-12-06T23:57:12.210+0200][gc,metaspace] GC(32) Metaspace: 41311K(41792K)->41311K(41792K) NonClass: 36260K(36544K)->36260K(36544K) Class: 5051K(5248K)->5051K(5248K)
[2021-12-06T23:57:12.211+0200][gc          ] GC(32) Pause Young (Normal) (G1 Evacuation Pause) 200M->152M(1024M) 32.561ms
[2021-12-06T23:57:12.212+0200][gc,cpu      ] GC(32) User=0.07s Sys=0.10s Real=0.04s
[2021-12-07T08:52:52.744+0200][gc,start    ] GC(33) Pause Young (Normal) (G1 Evacuation Pause)
[2021-12-07T08:52:52.744+0200][gc,task     ] GC(33) Using 13 workers of 13 for evacuation
[2021-12-07T08:52:52.749+0200][gc,phases   ] GC(33)   Pre Evacuate Collection Set: 0.1ms
[2021-12-07T08:52:52.749+0200][gc,phases   ] GC(33)   Merge Heap Roots: 0.1ms
[2021-12-07T08:52:52.749+0200][gc,phases   ] GC(33)   Evacuate Collection Set: 3.8ms
[2021-12-07T08:52:52.749+0200][gc,phases   ] GC(33)   Post Evacuate Collection Set: 0.4ms
[2021-12-07T08:52:52.749+0200][gc,phases   ] GC(33)   Other: 0.9ms
[2021-12-07T08:52:52.749+0200][gc,heap     ] GC(33) Eden regions: 47->0(47)
[2021-12-07T08:52:52.749+0200][gc,heap     ] GC(33) Survivor regions: 4->4(7)
[2021-12-07T08:52:52.749+0200][gc,heap     ] GC(33) Old regions: 20->20
[2021-12-07T08:52:52.749+0200][gc,heap     ] GC(33) Archive regions: 2->2
[2021-12-07T08:52:52.749+0200][gc,heap     ] GC(33) Humongous regions: 129->129
[2021-12-07T08:52:52.749+0200][gc,metaspace] GC(33) Metaspace: 41333K(41856K)->41333K(41856K) NonClass: 36281K(36608K)->36281K(36608K) Class: 5051K(5248K)->5051K(5248K)
[2021-12-07T08:52:52.749+0200][gc          ] GC(33) Pause Young (Normal) (G1 Evacuation Pause) 199M->152M(1024M) 5.540ms
[2021-12-07T08:52:52.749+0200][gc,cpu      ] GC(33) User=0.02s Sys=0.01s Real=0.00s
[2021-12-07T09:03:28.194+0200][gc,start    ] GC(34) Pause Young (Normal) (G1 Evacuation Pause)
[2021-12-07T09:03:28.195+0200][gc,task     ] GC(34) Using 13 workers of 13 for evacuation
[2021-12-07T09:03:28.207+0200][gc,phases   ] GC(34)   Pre Evacuate Collection Set: 1.7ms
[2021-12-07T09:03:28.207+0200][gc,phases   ] GC(34)   Merge Heap Roots: 0.1ms
[2021-12-07T09:03:28.207+0200][gc,phases   ] GC(34)   Evacuate Collection Set: 8.5ms
[2021-12-07T09:03:28.207+0200][gc,phases   ] GC(34)   Post Evacuate Collection Set: 2.0ms
[2021-12-07T09:03:28.207+0200][gc,phases   ] GC(34)   Other: 0.9ms
[2021-12-07T09:03:28.207+0200][gc,heap     ] GC(34) Eden regions: 47->0(47)
[2021-12-07T09:03:28.207+0200][gc,heap     ] GC(34) Survivor regions: 4->4(7)
[2021-12-07T09:03:28.207+0200][gc,heap     ] GC(34) Old regions: 20->20
[2021-12-07T09:03:28.207+0200][gc,heap     ] GC(34) Archive regions: 2->2
[2021-12-07T09:03:28.207+0200][gc,heap     ] GC(34) Humongous regions: 129->129
[2021-12-07T09:03:28.207+0200][gc,metaspace] GC(34) Metaspace: 41333K(41856K)->41333K(41856K) NonClass: 36281K(36608K)->36281K(36608K) Class: 5051K(5248K)->5051K(5248K)
[2021-12-07T09:03:28.208+0200][gc          ] GC(34) Pause Young (Normal) (G1 Evacuation Pause) 199M->153M(1024M) 13.774ms
[2021-12-07T09:03:28.208+0200][gc,cpu      ] GC(34) User=0.02s Sys=0.06s Real=0.01s
[2021-12-07T09:14:54.692+0200][gc,start    ] GC(35) Pause Young (Normal) (G1 Evacuation Pause)
[2021-12-07T09:14:54.692+0200][gc,task     ] GC(35) Using 13 workers of 13 for evacuation
[2021-12-07T09:14:54.697+0200][gc,phases   ] GC(35)   Pre Evacuate Collection Set: 0.8ms
[2021-12-07T09:14:54.697+0200][gc,phases   ] GC(35)   Merge Heap Roots: 0.1ms
[2021-12-07T09:14:54.697+0200][gc,phases   ] GC(35)   Evacuate Collection Set: 4.1ms
[2021-12-07T09:14:54.697+0200][gc,phases   ] GC(35)   Post Evacuate Collection Set: 0.3ms
[2021-12-07T09:14:54.697+0200][gc,phases   ] GC(35)   Other: 0.5ms
[2021-12-07T09:14:54.697+0200][gc,heap     ] GC(35) Eden regions: 47->0(121)
[2021-12-07T09:14:54.698+0200][gc,heap     ] GC(35) Survivor regions: 4->4(7)
[2021-12-07T09:14:54.698+0200][gc,heap     ] GC(35) Old regions: 20->20
[2021-12-07T09:14:54.698+0200][gc,heap     ] GC(35) Archive regions: 2->2
[2021-12-07T09:14:54.698+0200][gc,heap     ] GC(35) Humongous regions: 129->129
[2021-12-07T09:14:54.698+0200][gc,metaspace] GC(35) Metaspace: 41334K(41856K)->41334K(41856K) NonClass: 36283K(36608K)->36283K(36608K) Class: 5051K(5248K)->5051K(5248K)
[2021-12-07T09:14:54.698+0200][gc          ] GC(35) Pause Young (Normal) (G1 Evacuation Pause) 200M->152M(1024M) 5.913ms
[2021-12-07T09:14:54.698+0200][gc,cpu      ] GC(35) User=0.02s Sys=0.01s Real=0.00s
[2021-12-07T09:43:09.885+0200][gc,start    ] GC(36) Pause Young (Normal) (G1 Evacuation Pause)
[2021-12-07T09:43:09.885+0200][gc,task     ] GC(36) Using 13 workers of 13 for evacuation
[2021-12-07T09:43:09.909+0200][gc,mmu      ] GC(36) MMU target violated: 21.0ms (20.0ms/21.0ms)
[2021-12-07T09:43:09.909+0200][gc,phases   ] GC(36)   Pre Evacuate Collection Set: 2.0ms
[2021-12-07T09:43:09.909+0200][gc,phases   ] GC(36)   Merge Heap Roots: 0.2ms
[2021-12-07T09:43:09.909+0200][gc,phases   ] GC(36)   Evacuate Collection Set: 19.1ms
[2021-12-07T09:43:09.909+0200][gc,phases   ] GC(36)   Post Evacuate Collection Set: 1.9ms
[2021-12-07T09:43:09.909+0200][gc,phases   ] GC(36)   Other: 1.2ms
[2021-12-07T09:43:09.909+0200][gc,heap     ] GC(36) Eden regions: 121->0(47)
[2021-12-07T09:43:09.909+0200][gc,heap     ] GC(36) Survivor regions: 4->4(16)
[2021-12-07T09:43:09.909+0200][gc,heap     ] GC(36) Old regions: 20->20
[2021-12-07T09:43:09.909+0200][gc,heap     ] GC(36) Archive regions: 2->2
[2021-12-07T09:43:09.909+0200][gc,heap     ] GC(36) Humongous regions: 129->129
[2021-12-07T09:43:09.909+0200][gc,metaspace] GC(36) Metaspace: 41335K(41856K)->41335K(41856K) NonClass: 36283K(36608K)->36283K(36608K) Class: 5051K(5248K)->5051K(5248K)
[2021-12-07T09:43:09.910+0200][gc          ] GC(36) Pause Young (Normal) (G1 Evacuation Pause) 273M->153M(1024M) 25.163ms
[2021-12-07T09:43:09.910+0200][gc,cpu      ] GC(36) User=0.04s Sys=0.12s Real=0.03s
[2021-12-07T09:53:03.217+0200][gc,start    ] GC(37) Pause Young (Normal) (G1 Evacuation Pause)
[2021-12-07T09:53:03.218+0200][gc,task     ] GC(37) Using 13 workers of 13 for evacuation
[2021-12-07T09:53:03.223+0200][gc,phases   ] GC(37)   Pre Evacuate Collection Set: 1.1ms
[2021-12-07T09:53:03.223+0200][gc,phases   ] GC(37)   Merge Heap Roots: 0.1ms
[2021-12-07T09:53:03.223+0200][gc,phases   ] GC(37)   Evacuate Collection Set: 2.8ms
[2021-12-07T09:53:03.223+0200][gc,phases   ] GC(37)   Post Evacuate Collection Set: 0.6ms
[2021-12-07T09:53:03.223+0200][gc,phases   ] GC(37)   Other: 0.7ms
[2021-12-07T09:53:03.223+0200][gc,heap     ] GC(37) Eden regions: 47->0(103)
[2021-12-07T09:53:03.223+0200][gc,heap     ] GC(37) Survivor regions: 4->4(7)
[2021-12-07T09:53:03.223+0200][gc,heap     ] GC(37) Old regions: 20->20
[2021-12-07T09:53:03.223+0200][gc,heap     ] GC(37) Archive regions: 2->2
[2021-12-07T09:53:03.223+0200][gc,heap     ] GC(37) Humongous regions: 129->129
[2021-12-07T09:53:03.223+0200][gc,metaspace] GC(37) Metaspace: 41336K(41856K)->41336K(41856K) NonClass: 36285K(36608K)->36285K(36608K) Class: 5051K(5248K)->5051K(5248K)
[2021-12-07T09:53:03.223+0200][gc          ] GC(37) Pause Young (Normal) (G1 Evacuation Pause) 200M->153M(1024M) 5.518ms
[2021-12-07T09:53:03.223+0200][gc,cpu      ] GC(37) User=0.03s Sys=0.01s Real=0.01s
[2021-12-07T10:14:43.250+0200][gc,start    ] GC(38) Pause Young (Normal) (G1 Evacuation Pause)
[2021-12-07T10:14:43.251+0200][gc,task     ] GC(38) Using 13 workers of 13 for evacuation
[2021-12-07T10:14:43.356+0200][gc,mmu      ] GC(38) MMU target violated: 21.0ms (20.0ms/21.0ms)
[2021-12-07T10:14:43.356+0200][gc,phases   ] GC(38)   Pre Evacuate Collection Set: 9.7ms
[2021-12-07T10:14:43.356+0200][gc,phases   ] GC(38)   Merge Heap Roots: 1.5ms
[2021-12-07T10:14:43.356+0200][gc,phases   ] GC(38)   Evacuate Collection Set: 82.1ms
[2021-12-07T10:14:43.356+0200][gc,phases   ] GC(38)   Post Evacuate Collection Set: 4.1ms
[2021-12-07T10:14:43.356+0200][gc,phases   ] GC(38)   Other: 10.7ms
[2021-12-07T10:14:43.356+0200][gc,heap     ] GC(38) Eden regions: 103->0(46)
[2021-12-07T10:14:43.356+0200][gc,heap     ] GC(38) Survivor regions: 4->5(14)
[2021-12-07T10:14:43.356+0200][gc,heap     ] GC(38) Old regions: 20->20
[2021-12-07T10:14:43.356+0200][gc,heap     ] GC(38) Archive regions: 2->2
[2021-12-07T10:14:43.356+0200][gc,heap     ] GC(38) Humongous regions: 129->129
[2021-12-07T10:14:43.356+0200][gc,metaspace] GC(38) Metaspace: 41344K(41856K)->41344K(41856K) NonClass: 36293K(36608K)->36293K(36608K) Class: 5051K(5248K)->5051K(5248K)
[2021-12-07T10:14:43.357+0200][gc          ] GC(38) Pause Young (Normal) (G1 Evacuation Pause) 256M->153M(1024M) 107.060ms
[2021-12-07T10:14:43.357+0200][gc,cpu      ] GC(38) User=0.06s Sys=0.38s Real=0.10s
[2021-12-07T10:23:38.206+0200][gc,start    ] GC(39) Pause Young (Normal) (G1 Evacuation Pause)
[2021-12-07T10:23:38.206+0200][gc,task     ] GC(39) Using 13 workers of 13 for evacuation
[2021-12-07T10:23:38.213+0200][gc,phases   ] GC(39)   Pre Evacuate Collection Set: 0.1ms
[2021-12-07T10:23:38.213+0200][gc,phases   ] GC(39)   Merge Heap Roots: 0.1ms
[2021-12-07T10:23:38.213+0200][gc,phases   ] GC(39)   Evacuate Collection Set: 6.1ms
[2021-12-07T10:23:38.213+0200][gc,phases   ] GC(39)   Post Evacuate Collection Set: 0.4ms
[2021-12-07T10:23:38.213+0200][gc,phases   ] GC(39)   Other: 0.5ms
[2021-12-07T10:23:38.213+0200][gc,heap     ] GC(39) Eden regions: 46->0(47)
[2021-12-07T10:23:38.213+0200][gc,heap     ] GC(39) Survivor regions: 5->4(7)
[2021-12-07T10:23:38.213+0200][gc,heap     ] GC(39) Old regions: 20->20
[2021-12-07T10:23:38.213+0200][gc,heap     ] GC(39) Archive regions: 2->2
[2021-12-07T10:23:38.213+0200][gc,heap     ] GC(39) Humongous regions: 129->129
[2021-12-07T10:23:38.213+0200][gc,metaspace] GC(39) Metaspace: 41344K(41856K)->41344K(41856K) NonClass: 36293K(36608K)->36293K(36608K) Class: 5051K(5248K)->5051K(5248K)
[2021-12-07T10:23:38.214+0200][gc          ] GC(39) Pause Young (Normal) (G1 Evacuation Pause) 199M->153M(1024M) 7.480ms
[2021-12-07T10:23:38.214+0200][gc,cpu      ] GC(39) User=0.03s Sys=0.02s Real=0.01s
[2021-12-07T10:33:58.263+0200][gc,start    ] GC(40) Pause Young (Normal) (G1 Evacuation Pause)
[2021-12-07T10:33:58.264+0200][gc,task     ] GC(40) Using 13 workers of 13 for evacuation
[2021-12-07T10:33:58.308+0200][gc,mmu      ] GC(40) MMU target violated: 21.0ms (20.0ms/21.0ms)
[2021-12-07T10:33:58.309+0200][gc,phases   ] GC(40)   Pre Evacuate Collection Set: 8.4ms
[2021-12-07T10:33:58.309+0200][gc,phases   ] GC(40)   Merge Heap Roots: 0.5ms
[2021-12-07T10:33:58.309+0200][gc,phases   ] GC(40)   Evacuate Collection Set: 34.0ms
[2021-12-07T10:33:58.309+0200][gc,phases   ] GC(40)   Post Evacuate Collection Set: 1.7ms
[2021-12-07T10:33:58.309+0200][gc,phases   ] GC(40)   Other: 0.9ms
[2021-12-07T10:33:58.309+0200][gc,heap     ] GC(40) Eden regions: 47->0(47)
[2021-12-07T10:33:58.309+0200][gc,heap     ] GC(40) Survivor regions: 4->4(7)
[2021-12-07T10:33:58.309+0200][gc,heap     ] GC(40) Old regions: 20->21
[2021-12-07T10:33:58.309+0200][gc,heap     ] GC(40) Archive regions: 2->2
[2021-12-07T10:33:58.309+0200][gc,heap     ] GC(40) Humongous regions: 129->129
[2021-12-07T10:33:58.309+0200][gc,metaspace] GC(40) Metaspace: 41344K(41856K)->41344K(41856K) NonClass: 36293K(36608K)->36293K(36608K) Class: 5051K(5248K)->5051K(5248K)
[2021-12-07T10:33:58.309+0200][gc          ] GC(40) Pause Young (Normal) (G1 Evacuation Pause) 200M->153M(1024M) 45.438ms
[2021-12-07T10:33:58.309+0200][gc,cpu      ] GC(40) User=0.04s Sys=0.14s Real=0.04s
[2021-12-07T10:44:48.459+0200][gc,start    ] GC(41) Pause Young (Normal) (G1 Evacuation Pause)
[2021-12-07T10:44:48.460+0200][gc,task     ] GC(41) Using 13 workers of 13 for evacuation
[2021-12-07T10:44:48.514+0200][gc,mmu      ] GC(41) MMU target violated: 21.0ms (20.0ms/21.0ms)
[2021-12-07T10:44:48.515+0200][gc,phases   ] GC(41)   Pre Evacuate Collection Set: 8.5ms
[2021-12-07T10:44:48.515+0200][gc,phases   ] GC(41)   Merge Heap Roots: 0.6ms
[2021-12-07T10:44:48.515+0200][gc,phases   ] GC(41)   Evacuate Collection Set: 41.6ms
[2021-12-07T10:44:48.515+0200][gc,phases   ] GC(41)   Post Evacuate Collection Set: 2.8ms
[2021-12-07T10:44:48.515+0200][gc,phases   ] GC(41)   Other: 1.8ms
[2021-12-07T10:44:48.515+0200][gc,heap     ] GC(41) Eden regions: 47->0(47)
[2021-12-07T10:44:48.515+0200][gc,heap     ] GC(41) Survivor regions: 4->4(7)
[2021-12-07T10:44:48.515+0200][gc,heap     ] GC(41) Old regions: 21->21
[2021-12-07T10:44:48.515+0200][gc,heap     ] GC(41) Archive regions: 2->2
[2021-12-07T10:44:48.515+0200][gc,heap     ] GC(41) Humongous regions: 129->129
[2021-12-07T10:44:48.515+0200][gc,metaspace] GC(41) Metaspace: 41345K(41856K)->41345K(41856K) NonClass: 36294K(36608K)->36294K(36608K) Class: 5051K(5248K)->5051K(5248K)
[2021-12-07T10:44:48.515+0200][gc          ] GC(41) Pause Young (Normal) (G1 Evacuation Pause) 200M->153M(1024M) 55.356ms
[2021-12-07T10:44:48.515+0200][gc,cpu      ] GC(41) User=0.05s Sys=0.17s Real=0.06s
[2021-12-07T10:55:34.061+0200][gc,start    ] GC(42) Pause Young (Normal) (G1 Evacuation Pause)
[2021-12-07T10:55:34.062+0200][gc,task     ] GC(42) Using 13 workers of 13 for evacuation
[2021-12-07T10:55:34.091+0200][gc,mmu      ] GC(42) MMU target violated: 21.0ms (20.0ms/21.0ms)
[2021-12-07T10:55:34.091+0200][gc,phases   ] GC(42)   Pre Evacuate Collection Set: 4.2ms
[2021-12-07T10:55:34.091+0200][gc,phases   ] GC(42)   Merge Heap Roots: 0.6ms
[2021-12-07T10:55:34.091+0200][gc,phases   ] GC(42)   Evacuate Collection Set: 18.4ms
[2021-12-07T10:55:34.091+0200][gc,phases   ] GC(42)   Post Evacuate Collection Set: 3.7ms
[2021-12-07T10:55:34.091+0200][gc,phases   ] GC(42)   Other: 5.8ms
[2021-12-07T10:55:34.091+0200][gc,heap     ] GC(42) Eden regions: 47->0(47)
[2021-12-07T10:55:34.091+0200][gc,heap     ] GC(42) Survivor regions: 4->4(7)
[2021-12-07T10:55:34.091+0200][gc,heap     ] GC(42) Old regions: 21->21
[2021-12-07T10:55:34.091+0200][gc,heap     ] GC(42) Archive regions: 2->2
[2021-12-07T10:55:34.091+0200][gc,heap     ] GC(42) Humongous regions: 129->129
[2021-12-07T10:55:34.091+0200][gc,metaspace] GC(42) Metaspace: 41346K(41856K)->41346K(41856K) NonClass: 36294K(36608K)->36294K(36608K) Class: 5051K(5248K)->5051K(5248K)
[2021-12-07T10:55:34.092+0200][gc          ] GC(42) Pause Young (Normal) (G1 Evacuation Pause) 200M->153M(1024M) 30.391ms
[2021-12-07T10:55:34.092+0200][gc,cpu      ] GC(42) User=0.03s Sys=0.12s Real=0.03s
[2021-12-07T11:05:27.218+0200][gc,start    ] GC(43) Pause Young (Normal) (G1 Evacuation Pause)
[2021-12-07T11:05:27.219+0200][gc,task     ] GC(43) Using 13 workers of 13 for evacuation
[2021-12-07T11:05:27.229+0200][gc,phases   ] GC(43)   Pre Evacuate Collection Set: 0.9ms
[2021-12-07T11:05:27.230+0200][gc,phases   ] GC(43)   Merge Heap Roots: 0.1ms
[2021-12-07T11:05:27.230+0200][gc,phases   ] GC(43)   Evacuate Collection Set: 8.0ms
[2021-12-07T11:05:27.230+0200][gc,phases   ] GC(43)   Post Evacuate Collection Set: 1.1ms
[2021-12-07T11:05:27.230+0200][gc,phases   ] GC(43)   Other: 0.9ms
[2021-12-07T11:05:27.230+0200][gc,heap     ] GC(43) Eden regions: 47->0(47)
[2021-12-07T11:05:27.230+0200][gc,heap     ] GC(43) Survivor regions: 4->4(7)
[2021-12-07T11:05:27.230+0200][gc,heap     ] GC(43) Old regions: 21->21
[2021-12-07T11:05:27.230+0200][gc,heap     ] GC(43) Archive regions: 2->2
[2021-12-07T11:05:27.230+0200][gc,heap     ] GC(43) Humongous regions: 129->129
[2021-12-07T11:05:27.230+0200][gc,metaspace] GC(43) Metaspace: 41354K(41856K)->41354K(41856K) NonClass: 36302K(36608K)->36302K(36608K) Class: 5051K(5248K)->5051K(5248K)
[2021-12-07T11:05:27.230+0200][gc          ] GC(43) Pause Young (Normal) (G1 Evacuation Pause) 200M->153M(1024M) 11.256ms
[2021-12-07T11:05:27.230+0200][gc,cpu      ] GC(43) User=0.03s Sys=0.04s Real=0.02s
[2021-12-07T11:15:29.629+0200][gc,start    ] GC(44) Pause Young (Normal) (G1 Evacuation Pause)
[2021-12-07T11:15:29.630+0200][gc,task     ] GC(44) Using 13 workers of 13 for evacuation
[2021-12-07T11:15:29.636+0200][gc,phases   ] GC(44)   Pre Evacuate Collection Set: 0.2ms
[2021-12-07T11:15:29.636+0200][gc,phases   ] GC(44)   Merge Heap Roots: 0.1ms
[2021-12-07T11:15:29.636+0200][gc,phases   ] GC(44)   Evacuate Collection Set: 5.0ms
[2021-12-07T11:15:29.636+0200][gc,phases   ] GC(44)   Post Evacuate Collection Set: 0.4ms
[2021-12-07T11:15:29.636+0200][gc,phases   ] GC(44)   Other: 1.4ms
[2021-12-07T11:15:29.636+0200][gc,heap     ] GC(44) Eden regions: 47->0(47)
[2021-12-07T11:15:29.636+0200][gc,heap     ] GC(44) Survivor regions: 4->4(7)
[2021-12-07T11:15:29.636+0200][gc,heap     ] GC(44) Old regions: 21->21
[2021-12-07T11:15:29.636+0200][gc,heap     ] GC(44) Archive regions: 2->2
[2021-12-07T11:15:29.636+0200][gc,heap     ] GC(44) Humongous regions: 129->129
[2021-12-07T11:15:29.636+0200][gc,metaspace] GC(44) Metaspace: 41354K(41856K)->41354K(41856K) NonClass: 36302K(36608K)->36302K(36608K) Class: 5051K(5248K)->5051K(5248K)
[2021-12-07T11:15:29.637+0200][gc          ] GC(44) Pause Young (Normal) (G1 Evacuation Pause) 200M->153M(1024M) 7.905ms
[2021-12-07T11:15:29.637+0200][gc,cpu      ] GC(44) User=0.02s Sys=0.02s Real=0.01s
[2021-12-07T11:26:28.300+0200][gc,start    ] GC(45) Pause Young (Normal) (G1 Evacuation Pause)
[2021-12-07T11:26:28.301+0200][gc,task     ] GC(45) Using 13 workers of 13 for evacuation
[2021-12-07T11:26:28.334+0200][gc,mmu      ] GC(45) MMU target violated: 21.0ms (20.0ms/21.0ms)
[2021-12-07T11:26:28.335+0200][gc,phases   ] GC(45)   Pre Evacuate Collection Set: 3.3ms
[2021-12-07T11:26:28.335+0200][gc,phases   ] GC(45)   Merge Heap Roots: 1.2ms
[2021-12-07T11:26:28.335+0200][gc,phases   ] GC(45)   Evacuate Collection Set: 26.6ms
[2021-12-07T11:26:28.335+0200][gc,phases   ] GC(45)   Post Evacuate Collection Set: 1.8ms
[2021-12-07T11:26:28.335+0200][gc,phases   ] GC(45)   Other: 1.4ms
[2021-12-07T11:26:28.335+0200][gc,heap     ] GC(45) Eden regions: 47->0(47)
[2021-12-07T11:26:28.335+0200][gc,heap     ] GC(45) Survivor regions: 4->4(7)
[2021-12-07T11:26:28.335+0200][gc,heap     ] GC(45) Old regions: 21->21
[2021-12-07T11:26:28.335+0200][gc,heap     ] GC(45) Archive regions: 2->2
[2021-12-07T11:26:28.335+0200][gc,heap     ] GC(45) Humongous regions: 129->129
[2021-12-07T11:26:28.335+0200][gc,metaspace] GC(45) Metaspace: 41355K(41856K)->41355K(41856K) NonClass: 36304K(36608K)->36304K(36608K) Class: 5051K(5248K)->5051K(5248K)
[2021-12-07T11:26:28.335+0200][gc          ] GC(45) Pause Young (Normal) (G1 Evacuation Pause) 200M->153M(1024M) 34.428ms
[2021-12-07T11:26:28.335+0200][gc,cpu      ] GC(45) User=0.03s Sys=0.15s Real=0.03s
[2021-12-07T11:32:58.555+0200][gc,heap,exit] Heap
[2021-12-07T11:32:58.557+0200][gc,heap,exit]  garbage-first heap   total 1048576K, used 183184K [0x00000007c0000000, 0x0000000800000000)
[2021-12-07T11:32:58.557+0200][gc,heap,exit]   region size 1024K, 30 young (30720K), 4 survivors (4096K)
[2021-12-07T11:32:58.557+0200][gc,heap,exit]  Metaspace       used 41863K, committed 42304K, reserved 1089536K
[2021-12-07T11:32:58.557+0200][gc,heap,exit]   class space    used 5181K, committed 5376K, reserved 1048576K
