[2021-11-26T10:49:16.539+0200][gc] Using G1
[2021-11-26T10:49:16.549+0200][gc,init] Version: 17.0.1+0 (release)
[2021-11-26T10:49:16.549+0200][gc,init] CPUs: 16 total, 16 available
[2021-11-26T10:49:16.549+0200][gc,init] Memory: 16384M
[2021-11-26T10:49:16.549+0200][gc,init] Large Page Support: Disabled
[2021-11-26T10:49:16.549+0200][gc,init] NUMA Support: Disabled
[2021-11-26T10:49:16.549+0200][gc,init] Compressed Oops: Enabled (Zero based)
[2021-11-26T10:49:16.549+0200][gc,init] Heap Region Size: 1M
[2021-11-26T10:49:16.549+0200][gc,init] Heap Min Capacity: 1G
[2021-11-26T10:49:16.549+0200][gc,init] Heap Initial Capacity: 1G
[2021-11-26T10:49:16.549+0200][gc,init] Heap Max Capacity: 1G
[2021-11-26T10:49:16.549+0200][gc,init] Pre-touch: Disabled
[2021-11-26T10:49:16.549+0200][gc,init] Parallel Workers: 13
[2021-11-26T10:49:16.549+0200][gc,init] Concurrent Workers: 3
[2021-11-26T10:49:16.549+0200][gc,init] Concurrent Refinement Workers: 13
[2021-11-26T10:49:16.549+0200][gc,init] Periodic GC: Disabled
[2021-11-26T10:49:16.550+0200][gc,metaspace] CDS archive(s) mapped at: [0x0000000800000000-0x0000000800bd0000-0x0000000800bd0000), size 12386304, SharedBaseAddress: 0x0000000800000000, ArchiveRelocationMode: 0.
[2021-11-26T10:49:16.550+0200][gc,metaspace] Compressed class space mapped at: 0x0000000800c00000-0x0000000840c00000, reserved size: 1073741824
[2021-11-26T10:49:16.550+0200][gc,metaspace] Narrow klass base: 0x0000000800000000, Narrow klass shift: 0, Narrow klass range: 0x100000000
[2021-11-26T10:49:18.540+0200][gc,start    ] GC(0) Pause Young (Normal) (G1 Evacuation Pause)
[2021-11-26T10:49:18.541+0200][gc,task     ] GC(0) Using 13 workers of 13 for evacuation
[2021-11-26T10:49:18.551+0200][gc,phases   ] GC(0)   Pre Evacuate Collection Set: 0.2ms
[2021-11-26T10:49:18.551+0200][gc,phases   ] GC(0)   Merge Heap Roots: 0.1ms
[2021-11-26T10:49:18.551+0200][gc,phases   ] GC(0)   Evacuate Collection Set: 8.2ms
[2021-11-26T10:49:18.551+0200][gc,phases   ] GC(0)   Post Evacuate Collection Set: 0.6ms
[2021-11-26T10:49:18.551+0200][gc,phases   ] GC(0)   Other: 1.4ms
[2021-11-26T10:49:18.551+0200][gc,heap     ] GC(0) Eden regions: 51->0(44)
[2021-11-26T10:49:18.551+0200][gc,heap     ] GC(0) Survivor regions: 0->7(7)
[2021-11-26T10:49:18.551+0200][gc,heap     ] GC(0) Old regions: 0->1
[2021-11-26T10:49:18.551+0200][gc,heap     ] GC(0) Archive regions: 2->2
[2021-11-26T10:49:18.551+0200][gc,heap     ] GC(0) Humongous regions: 0->0
[2021-11-26T10:49:18.551+0200][gc,metaspace] GC(0) Metaspace: 18633K(18752K)->18633K(18752K) NonClass: 16173K(16256K)->16173K(16256K) Class: 2459K(2496K)->2459K(2496K)
[2021-11-26T10:49:18.551+0200][gc          ] GC(0) Pause Young (Normal) (G1 Evacuation Pause) 51M->8M(1024M) 10.702ms
[2021-11-26T10:49:18.551+0200][gc,cpu      ] GC(0) User=0.04s Sys=0.04s Real=0.01s
[2021-11-26T10:49:18.903+0200][gc,start    ] GC(1) Pause Young (Concurrent Start) (Metadata GC Threshold)
[2021-11-26T10:49:18.903+0200][gc,task     ] GC(1) Using 13 workers of 13 for evacuation
[2021-11-26T10:49:18.914+0200][gc,phases   ] GC(1)   Pre Evacuate Collection Set: 0.1ms
[2021-11-26T10:49:18.914+0200][gc,phases   ] GC(1)   Merge Heap Roots: 0.0ms
[2021-11-26T10:49:18.914+0200][gc,phases   ] GC(1)   Evacuate Collection Set: 10.2ms
[2021-11-26T10:49:18.914+0200][gc,phases   ] GC(1)   Post Evacuate Collection Set: 0.8ms
[2021-11-26T10:49:18.914+0200][gc,phases   ] GC(1)   Other: 0.3ms
[2021-11-26T10:49:18.914+0200][gc,heap     ] GC(1) Eden regions: 10->0(49)
[2021-11-26T10:49:18.914+0200][gc,heap     ] GC(1) Survivor regions: 7->2(7)
[2021-11-26T10:49:18.914+0200][gc,heap     ] GC(1) Old regions: 1->7
[2021-11-26T10:49:18.914+0200][gc,heap     ] GC(1) Archive regions: 2->2
[2021-11-26T10:49:18.914+0200][gc,heap     ] GC(1) Humongous regions: 0->0
[2021-11-26T10:49:18.914+0200][gc,metaspace] GC(1) Metaspace: 21279K(21504K)->21279K(21504K) NonClass: 18477K(18560K)->18477K(18560K) Class: 2802K(2944K)->2802K(2944K)
[2021-11-26T10:49:18.914+0200][gc          ] GC(1) Pause Young (Concurrent Start) (Metadata GC Threshold) 17M->9M(1024M) 11.687ms
[2021-11-26T10:49:18.914+0200][gc,cpu      ] GC(1) User=0.04s Sys=0.05s Real=0.01s
[2021-11-26T10:49:18.914+0200][gc          ] GC(2) Concurrent Mark Cycle
[2021-11-26T10:49:18.915+0200][gc,marking  ] GC(2) Concurrent Clear Claimed Marks
[2021-11-26T10:49:18.915+0200][gc,marking  ] GC(2) Concurrent Clear Claimed Marks 0.063ms
[2021-11-26T10:49:18.915+0200][gc,marking  ] GC(2) Concurrent Scan Root Regions
[2021-11-26T10:49:18.918+0200][gc,marking  ] GC(2) Concurrent Scan Root Regions 3.766ms
[2021-11-26T10:49:18.918+0200][gc,marking  ] GC(2) Concurrent Mark
[2021-11-26T10:49:18.918+0200][gc,marking  ] GC(2) Concurrent Mark From Roots
[2021-11-26T10:49:18.918+0200][gc,task     ] GC(2) Using 3 workers of 3 for marking
[2021-11-26T10:49:18.923+0200][gc,marking  ] GC(2) Concurrent Mark From Roots 4.144ms
[2021-11-26T10:49:18.923+0200][gc,marking  ] GC(2) Concurrent Preclean
[2021-11-26T10:49:18.923+0200][gc,marking  ] GC(2) Concurrent Preclean 0.057ms
[2021-11-26T10:49:18.923+0200][gc,start    ] GC(2) Pause Remark
[2021-11-26T10:49:18.925+0200][gc          ] GC(2) Pause Remark 9M->9M(1024M) 1.994ms
[2021-11-26T10:49:18.925+0200][gc,cpu      ] GC(2) User=0.01s Sys=0.00s Real=0.00s
[2021-11-26T10:49:18.925+0200][gc,marking  ] GC(2) Concurrent Mark 6.660ms
[2021-11-26T10:49:18.925+0200][gc,marking  ] GC(2) Concurrent Rebuild Remembered Sets
[2021-11-26T10:49:18.925+0200][gc,marking  ] GC(2) Concurrent Rebuild Remembered Sets 0.014ms
[2021-11-26T10:49:18.925+0200][gc,start    ] GC(2) Pause Cleanup
[2021-11-26T10:49:18.925+0200][gc          ] GC(2) Pause Cleanup 9M->9M(1024M) 0.033ms
[2021-11-26T10:49:18.925+0200][gc,cpu      ] GC(2) User=0.00s Sys=0.00s Real=0.00s
[2021-11-26T10:49:18.925+0200][gc,marking  ] GC(2) Concurrent Cleanup for Next Mark
[2021-11-26T10:49:18.937+0200][gc,marking  ] GC(2) Concurrent Cleanup for Next Mark 11.877ms
[2021-11-26T10:49:18.937+0200][gc          ] GC(2) Concurrent Mark Cycle 22.867ms
[2021-11-26T10:49:20.680+0200][gc,start    ] GC(3) Pause Young (Normal) (G1 Evacuation Pause)
[2021-11-26T10:49:20.680+0200][gc,task     ] GC(3) Using 13 workers of 13 for evacuation
[2021-11-26T10:49:20.684+0200][gc,phases   ] GC(3)   Pre Evacuate Collection Set: 0.1ms
[2021-11-26T10:49:20.684+0200][gc,phases   ] GC(3)   Merge Heap Roots: 0.1ms
[2021-11-26T10:49:20.684+0200][gc,phases   ] GC(3)   Evacuate Collection Set: 3.2ms
[2021-11-26T10:49:20.684+0200][gc,phases   ] GC(3)   Post Evacuate Collection Set: 0.6ms
[2021-11-26T10:49:20.684+0200][gc,phases   ] GC(3)   Other: 0.2ms
[2021-11-26T10:49:20.684+0200][gc,heap     ] GC(3) Eden regions: 49->0(45)
[2021-11-26T10:49:20.684+0200][gc,heap     ] GC(3) Survivor regions: 2->6(7)
[2021-11-26T10:49:20.684+0200][gc,heap     ] GC(3) Old regions: 7->7
[2021-11-26T10:49:20.684+0200][gc,heap     ] GC(3) Archive regions: 2->2
[2021-11-26T10:49:20.684+0200][gc,heap     ] GC(3) Humongous regions: 129->129
[2021-11-26T10:49:20.684+0200][gc,metaspace] GC(3) Metaspace: 31925K(32192K)->31925K(32192K) NonClass: 28092K(28224K)->28092K(28224K) Class: 3832K(3968K)->3832K(3968K)
[2021-11-26T10:49:20.684+0200][gc          ] GC(3) Pause Young (Normal) (G1 Evacuation Pause) 187M->142M(1024M) 4.464ms
[2021-11-26T10:49:20.684+0200][gc,cpu      ] GC(3) User=0.05s Sys=0.00s Real=0.00s
[2021-11-26T10:51:09.424+0200][gc,start    ] GC(4) Pause Young (Concurrent Start) (Metadata GC Threshold)
[2021-11-26T10:51:09.424+0200][gc,task     ] GC(4) Using 13 workers of 13 for evacuation
[2021-11-26T10:51:09.430+0200][gc,phases   ] GC(4)   Pre Evacuate Collection Set: 0.3ms
[2021-11-26T10:51:09.431+0200][gc,phases   ] GC(4)   Merge Heap Roots: 0.1ms
[2021-11-26T10:51:09.431+0200][gc,phases   ] GC(4)   Evacuate Collection Set: 5.1ms
[2021-11-26T10:51:09.431+0200][gc,phases   ] GC(4)   Post Evacuate Collection Set: 0.7ms
[2021-11-26T10:51:09.431+0200][gc,phases   ] GC(4)   Other: 0.8ms
[2021-11-26T10:51:09.431+0200][gc,heap     ] GC(4) Eden regions: 17->0(49)
[2021-11-26T10:51:09.431+0200][gc,heap     ] GC(4) Survivor regions: 6->2(7)
[2021-11-26T10:51:09.431+0200][gc,heap     ] GC(4) Old regions: 7->12
[2021-11-26T10:51:09.431+0200][gc,heap     ] GC(4) Archive regions: 2->2
[2021-11-26T10:51:09.431+0200][gc,heap     ] GC(4) Humongous regions: 129->129
[2021-11-26T10:51:09.431+0200][gc,metaspace] GC(4) Metaspace: 35679K(35968K)->35679K(35968K) NonClass: 31280K(31424K)->31280K(31424K) Class: 4398K(4544K)->4398K(4544K)
[2021-11-26T10:51:09.431+0200][gc          ] GC(4) Pause Young (Concurrent Start) (Metadata GC Threshold) 159M->143M(1024M) 7.461ms
[2021-11-26T10:51:09.431+0200][gc,cpu      ] GC(4) User=0.05s Sys=0.01s Real=0.01s
[2021-11-26T10:51:09.431+0200][gc          ] GC(5) Concurrent Mark Cycle
[2021-11-26T10:51:09.431+0200][gc,marking  ] GC(5) Concurrent Clear Claimed Marks
[2021-11-26T10:51:09.431+0200][gc,marking  ] GC(5) Concurrent Clear Claimed Marks 0.124ms
[2021-11-26T10:51:09.431+0200][gc,marking  ] GC(5) Concurrent Scan Root Regions
[2021-11-26T10:51:09.436+0200][gc,marking  ] GC(5) Concurrent Scan Root Regions 4.230ms
[2021-11-26T10:51:09.436+0200][gc,marking  ] GC(5) Concurrent Mark
[2021-11-26T10:51:09.436+0200][gc,marking  ] GC(5) Concurrent Mark From Roots
[2021-11-26T10:51:09.436+0200][gc,task     ] GC(5) Using 3 workers of 3 for marking
[2021-11-26T10:51:09.445+0200][gc,marking  ] GC(5) Concurrent Mark From Roots 9.549ms
[2021-11-26T10:51:09.445+0200][gc,marking  ] GC(5) Concurrent Preclean
[2021-11-26T10:51:09.446+0200][gc,marking  ] GC(5) Concurrent Preclean 0.193ms
[2021-11-26T10:51:09.446+0200][gc,start    ] GC(5) Pause Remark
[2021-11-26T10:51:09.449+0200][gc          ] GC(5) Pause Remark 144M->144M(1024M) 3.125ms
[2021-11-26T10:51:09.449+0200][gc,cpu      ] GC(5) User=0.02s Sys=0.00s Real=0.00s
[2021-11-26T10:51:09.449+0200][gc,marking  ] GC(5) Concurrent Mark 13.355ms
[2021-11-26T10:51:09.449+0200][gc,marking  ] GC(5) Concurrent Rebuild Remembered Sets
[2021-11-26T10:51:09.449+0200][gc,marking  ] GC(5) Concurrent Rebuild Remembered Sets 0.019ms
[2021-11-26T10:51:09.449+0200][gc,start    ] GC(5) Pause Cleanup
[2021-11-26T10:51:09.449+0200][gc          ] GC(5) Pause Cleanup 144M->144M(1024M) 0.060ms
[2021-11-26T10:51:09.449+0200][gc,cpu      ] GC(5) User=0.00s Sys=0.00s Real=0.00s
[2021-11-26T10:51:09.449+0200][gc,marking  ] GC(5) Concurrent Cleanup for Next Mark
[2021-11-26T10:51:09.468+0200][gc,marking  ] GC(5) Concurrent Cleanup for Next Mark 18.331ms
[2021-11-26T10:51:09.468+0200][gc          ] GC(5) Concurrent Mark Cycle 36.655ms
[2021-11-26T11:10:34.187+0200][gc,start    ] GC(6) Pause Young (Normal) (G1 Evacuation Pause)
[2021-11-26T11:10:34.187+0200][gc,task     ] GC(6) Using 13 workers of 13 for evacuation
[2021-11-26T11:10:34.222+0200][gc,mmu      ] GC(6) MMU target violated: 21.0ms (20.0ms/21.0ms)
[2021-11-26T11:10:34.222+0200][gc,phases   ] GC(6)   Pre Evacuate Collection Set: 6.7ms
[2021-11-26T11:10:34.222+0200][gc,phases   ] GC(6)   Merge Heap Roots: 1.4ms
[2021-11-26T11:10:34.222+0200][gc,phases   ] GC(6)   Evacuate Collection Set: 25.8ms
[2021-11-26T11:10:34.222+0200][gc,phases   ] GC(6)   Post Evacuate Collection Set: 0.6ms
[2021-11-26T11:10:34.222+0200][gc,phases   ] GC(6)   Other: 1.0ms
[2021-11-26T11:10:34.222+0200][gc,heap     ] GC(6) Eden regions: 49->0(48)
[2021-11-26T11:10:34.222+0200][gc,heap     ] GC(6) Survivor regions: 2->3(7)
[2021-11-26T11:10:34.222+0200][gc,heap     ] GC(6) Old regions: 12->12
[2021-11-26T11:10:34.222+0200][gc,heap     ] GC(6) Archive regions: 2->2
[2021-11-26T11:10:34.222+0200][gc,heap     ] GC(6) Humongous regions: 129->129
[2021-11-26T11:10:34.222+0200][gc,metaspace] GC(6) Metaspace: 37900K(38336K)->37900K(38336K) NonClass: 33296K(33536K)->33296K(33536K) Class: 4604K(4800K)->4604K(4800K)
[2021-11-26T11:10:34.222+0200][gc          ] GC(6) Pause Young (Normal) (G1 Evacuation Pause) 192M->144M(1024M) 35.523ms
[2021-11-26T11:10:34.222+0200][gc,cpu      ] GC(6) User=0.02s Sys=0.16s Real=0.04s
[2021-11-26T11:34:00.370+0200][gc,start    ] GC(7) Pause Young (Normal) (G1 Evacuation Pause)
[2021-11-26T11:34:00.370+0200][gc,task     ] GC(7) Using 13 workers of 13 for evacuation
[2021-11-26T11:34:00.413+0200][gc,mmu      ] GC(7) MMU target violated: 21.0ms (20.0ms/21.0ms)
[2021-11-26T11:34:00.413+0200][gc,phases   ] GC(7)   Pre Evacuate Collection Set: 3.4ms
[2021-11-26T11:34:00.413+0200][gc,phases   ] GC(7)   Merge Heap Roots: 0.4ms
[2021-11-26T11:34:00.413+0200][gc,phases   ] GC(7)   Evacuate Collection Set: 35.4ms
[2021-11-26T11:34:00.413+0200][gc,phases   ] GC(7)   Post Evacuate Collection Set: 3.4ms
[2021-11-26T11:34:00.413+0200][gc,phases   ] GC(7)   Other: 1.1ms
[2021-11-26T11:34:00.413+0200][gc,heap     ] GC(7) Eden regions: 48->0(47)
[2021-11-26T11:34:00.413+0200][gc,heap     ] GC(7) Survivor regions: 3->4(7)
[2021-11-26T11:34:00.413+0200][gc,heap     ] GC(7) Old regions: 12->12
[2021-11-26T11:34:00.413+0200][gc,heap     ] GC(7) Archive regions: 2->2
[2021-11-26T11:34:00.413+0200][gc,heap     ] GC(7) Humongous regions: 129->129
[2021-11-26T11:34:00.413+0200][gc,metaspace] GC(7) Metaspace: 39386K(39872K)->39386K(39872K) NonClass: 34531K(34816K)->34531K(34816K) Class: 4854K(5056K)->4854K(5056K)
[2021-11-26T11:34:00.414+0200][gc          ] GC(7) Pause Young (Normal) (G1 Evacuation Pause) 192M->144M(1024M) 44.548ms
[2021-11-26T11:34:00.414+0200][gc,cpu      ] GC(7) User=0.04s Sys=0.22s Real=0.04s
[2021-11-26T11:58:09.561+0200][gc,start    ] GC(8) Pause Young (Normal) (G1 Evacuation Pause)
[2021-11-26T11:58:09.568+0200][gc,task     ] GC(8) Using 13 workers of 13 for evacuation
[2021-11-26T11:58:10.441+0200][gc,mmu      ] GC(8) MMU target violated: 21.0ms (20.0ms/21.0ms)
[2021-11-26T11:58:10.441+0200][gc,phases   ] GC(8)   Pre Evacuate Collection Set: 45.5ms
[2021-11-26T11:58:10.441+0200][gc,phases   ] GC(8)   Merge Heap Roots: 46.8ms
[2021-11-26T11:58:10.441+0200][gc,phases   ] GC(8)   Evacuate Collection Set: 680.8ms
[2021-11-26T11:58:10.441+0200][gc,phases   ] GC(8)   Post Evacuate Collection Set: 76.7ms
[2021-11-26T11:58:10.441+0200][gc,phases   ] GC(8)   Other: 33.8ms
[2021-11-26T11:58:10.441+0200][gc,heap     ] GC(8) Eden regions: 47->0(47)
[2021-11-26T11:58:10.441+0200][gc,heap     ] GC(8) Survivor regions: 4->4(7)
[2021-11-26T11:58:10.441+0200][gc,heap     ] GC(8) Old regions: 12->12
[2021-11-26T11:58:10.441+0200][gc,heap     ] GC(8) Archive regions: 2->2
[2021-11-26T11:58:10.441+0200][gc,heap     ] GC(8) Humongous regions: 129->129
[2021-11-26T11:58:10.441+0200][gc,metaspace] GC(8) Metaspace: 39562K(40128K)->39562K(40128K) NonClass: 34688K(35008K)->34688K(35008K) Class: 4874K(5120K)->4874K(5120K)
[2021-11-26T11:58:10.441+0200][gc          ] GC(8) Pause Young (Normal) (G1 Evacuation Pause) 191M->144M(1024M) 881.038ms
[2021-11-26T11:58:10.442+0200][gc,cpu      ] GC(8) User=0.16s Sys=0.76s Real=0.88s
[2021-11-26T13:34:25.404+0200][gc,start    ] GC(9) Pause Young (Normal) (G1 Evacuation Pause)
[2021-11-26T13:34:25.410+0200][gc,task     ] GC(9) Using 13 workers of 13 for evacuation
[2021-11-26T13:34:25.509+0200][gc,mmu      ] GC(9) MMU target violated: 21.0ms (20.0ms/21.0ms)
[2021-11-26T13:34:25.509+0200][gc,phases   ] GC(9)   Pre Evacuate Collection Set: 9.3ms
[2021-11-26T13:34:25.509+0200][gc,phases   ] GC(9)   Merge Heap Roots: 10.0ms
[2021-11-26T13:34:25.509+0200][gc,phases   ] GC(9)   Evacuate Collection Set: 73.4ms
[2021-11-26T13:34:25.509+0200][gc,phases   ] GC(9)   Post Evacuate Collection Set: 6.4ms
[2021-11-26T13:34:25.509+0200][gc,phases   ] GC(9)   Other: 7.8ms
[2021-11-26T13:34:25.509+0200][gc,heap     ] GC(9) Eden regions: 47->0(47)
[2021-11-26T13:34:25.509+0200][gc,heap     ] GC(9) Survivor regions: 4->4(7)
[2021-11-26T13:34:25.509+0200][gc,heap     ] GC(9) Old regions: 12->12
[2021-11-26T13:34:25.509+0200][gc,heap     ] GC(9) Archive regions: 2->2
[2021-11-26T13:34:25.509+0200][gc,heap     ] GC(9) Humongous regions: 129->129
[2021-11-26T13:34:25.509+0200][gc,metaspace] GC(9) Metaspace: 39618K(40128K)->39618K(40128K) NonClass: 34744K(35008K)->34744K(35008K) Class: 4874K(5120K)->4874K(5120K)
[2021-11-26T13:34:25.510+0200][gc          ] GC(9) Pause Young (Normal) (G1 Evacuation Pause) 191M->144M(1024M) 105.583ms
[2021-11-26T13:34:25.510+0200][gc,cpu      ] GC(9) User=0.05s Sys=0.29s Real=0.11s
[2021-11-26T14:14:26.560+0200][gc,start    ] GC(10) Pause Young (Normal) (G1 Evacuation Pause)
[2021-11-26T14:14:26.562+0200][gc,task     ] GC(10) Using 13 workers of 13 for evacuation
[2021-11-26T14:14:26.585+0200][gc,mmu      ] GC(10) MMU target violated: 21.0ms (20.0ms/21.0ms)
[2021-11-26T14:14:26.585+0200][gc,phases   ] GC(10)   Pre Evacuate Collection Set: 2.3ms
[2021-11-26T14:14:26.585+0200][gc,phases   ] GC(10)   Merge Heap Roots: 1.6ms
[2021-11-26T14:14:26.585+0200][gc,phases   ] GC(10)   Evacuate Collection Set: 17.4ms
[2021-11-26T14:14:26.585+0200][gc,phases   ] GC(10)   Post Evacuate Collection Set: 1.3ms
[2021-11-26T14:14:26.585+0200][gc,phases   ] GC(10)   Other: 2.1ms
[2021-11-26T14:14:26.585+0200][gc,heap     ] GC(10) Eden regions: 47->0(47)
[2021-11-26T14:14:26.585+0200][gc,heap     ] GC(10) Survivor regions: 4->4(7)
[2021-11-26T14:14:26.585+0200][gc,heap     ] GC(10) Old regions: 12->12
[2021-11-26T14:14:26.585+0200][gc,heap     ] GC(10) Archive regions: 2->2
[2021-11-26T14:14:26.585+0200][gc,heap     ] GC(10) Humongous regions: 129->129
[2021-11-26T14:14:26.585+0200][gc,metaspace] GC(10) Metaspace: 39645K(40192K)->39645K(40192K) NonClass: 34769K(35072K)->34769K(35072K) Class: 4875K(5120K)->4875K(5120K)
[2021-11-26T14:14:26.585+0200][gc          ] GC(10) Pause Young (Normal) (G1 Evacuation Pause) 191M->145M(1024M) 24.729ms
[2021-11-26T14:14:26.585+0200][gc,cpu      ] GC(10) User=0.03s Sys=0.11s Real=0.02s
[2021-11-26T14:54:36.587+0200][gc,start    ] GC(11) Pause Young (Normal) (G1 Evacuation Pause)
[2021-11-26T14:54:36.589+0200][gc,task     ] GC(11) Using 13 workers of 13 for evacuation
[2021-11-26T14:54:36.630+0200][gc,mmu      ] GC(11) MMU target violated: 21.0ms (20.0ms/21.0ms)
[2021-11-26T14:54:36.630+0200][gc,phases   ] GC(11)   Pre Evacuate Collection Set: 4.3ms
[2021-11-26T14:54:36.630+0200][gc,phases   ] GC(11)   Merge Heap Roots: 0.9ms
[2021-11-26T14:54:36.630+0200][gc,phases   ] GC(11)   Evacuate Collection Set: 34.0ms
[2021-11-26T14:54:36.630+0200][gc,phases   ] GC(11)   Post Evacuate Collection Set: 1.4ms
[2021-11-26T14:54:36.630+0200][gc,phases   ] GC(11)   Other: 3.0ms
[2021-11-26T14:54:36.630+0200][gc,heap     ] GC(11) Eden regions: 47->0(47)
[2021-11-26T14:54:36.630+0200][gc,heap     ] GC(11) Survivor regions: 4->4(7)
[2021-11-26T14:54:36.630+0200][gc,heap     ] GC(11) Old regions: 12->12
[2021-11-26T14:54:36.630+0200][gc,heap     ] GC(11) Archive regions: 2->2
[2021-11-26T14:54:36.630+0200][gc,heap     ] GC(11) Humongous regions: 129->129
[2021-11-26T14:54:36.630+0200][gc,metaspace] GC(11) Metaspace: 39650K(40192K)->39650K(40192K) NonClass: 34774K(35072K)->34774K(35072K) Class: 4876K(5120K)->4876K(5120K)
[2021-11-26T14:54:36.630+0200][gc          ] GC(11) Pause Young (Normal) (G1 Evacuation Pause) 192M->145M(1024M) 43.042ms
[2021-11-26T14:54:36.630+0200][gc,cpu      ] GC(11) User=0.04s Sys=0.19s Real=0.05s
[2021-11-26T15:34:42.913+0200][gc,start    ] GC(12) Pause Young (Normal) (G1 Evacuation Pause)
[2021-11-26T15:34:42.914+0200][gc,task     ] GC(12) Using 13 workers of 13 for evacuation
[2021-11-26T15:34:42.959+0200][gc,mmu      ] GC(12) MMU target violated: 21.0ms (20.0ms/21.0ms)
[2021-11-26T15:34:42.959+0200][gc,phases   ] GC(12)   Pre Evacuate Collection Set: 9.6ms
[2021-11-26T15:34:42.959+0200][gc,phases   ] GC(12)   Merge Heap Roots: 2.6ms
[2021-11-26T15:34:42.959+0200][gc,phases   ] GC(12)   Evacuate Collection Set: 29.1ms
[2021-11-26T15:34:42.959+0200][gc,phases   ] GC(12)   Post Evacuate Collection Set: 1.6ms
[2021-11-26T15:34:42.959+0200][gc,phases   ] GC(12)   Other: 4.4ms
[2021-11-26T15:34:42.959+0200][gc,heap     ] GC(12) Eden regions: 47->0(47)
[2021-11-26T15:34:42.959+0200][gc,heap     ] GC(12) Survivor regions: 4->4(7)
[2021-11-26T15:34:42.959+0200][gc,heap     ] GC(12) Old regions: 12->12
[2021-11-26T15:34:42.959+0200][gc,heap     ] GC(12) Archive regions: 2->2
[2021-11-26T15:34:42.959+0200][gc,heap     ] GC(12) Humongous regions: 129->129
[2021-11-26T15:34:42.959+0200][gc,metaspace] GC(12) Metaspace: 39660K(40192K)->39660K(40192K) NonClass: 34784K(35072K)->34784K(35072K) Class: 4876K(5120K)->4876K(5120K)
[2021-11-26T15:34:42.959+0200][gc          ] GC(12) Pause Young (Normal) (G1 Evacuation Pause) 192M->145M(1024M) 46.219ms
[2021-11-26T15:34:42.959+0200][gc,cpu      ] GC(12) User=0.03s Sys=0.16s Real=0.04s
[2021-11-26T16:15:36.650+0200][gc,start    ] GC(13) Pause Young (Normal) (G1 Evacuation Pause)
[2021-11-26T16:15:36.651+0200][gc,task     ] GC(13) Using 13 workers of 13 for evacuation
[2021-11-26T16:15:36.685+0200][gc,mmu      ] GC(13) MMU target violated: 21.0ms (20.0ms/21.0ms)
[2021-11-26T16:15:36.685+0200][gc,phases   ] GC(13)   Pre Evacuate Collection Set: 5.1ms
[2021-11-26T16:15:36.685+0200][gc,phases   ] GC(13)   Merge Heap Roots: 0.7ms
[2021-11-26T16:15:36.685+0200][gc,phases   ] GC(13)   Evacuate Collection Set: 25.2ms
[2021-11-26T16:15:36.685+0200][gc,phases   ] GC(13)   Post Evacuate Collection Set: 2.3ms
[2021-11-26T16:15:36.685+0200][gc,phases   ] GC(13)   Other: 2.4ms
[2021-11-26T16:15:36.685+0200][gc,heap     ] GC(13) Eden regions: 47->0(47)
[2021-11-26T16:15:36.685+0200][gc,heap     ] GC(13) Survivor regions: 4->4(7)
[2021-11-26T16:15:36.685+0200][gc,heap     ] GC(13) Old regions: 12->12
[2021-11-26T16:15:36.685+0200][gc,heap     ] GC(13) Archive regions: 2->2
[2021-11-26T16:15:36.685+0200][gc,heap     ] GC(13) Humongous regions: 129->129
[2021-11-26T16:15:36.685+0200][gc,metaspace] GC(13) Metaspace: 39688K(40192K)->39688K(40192K) NonClass: 34812K(35072K)->34812K(35072K) Class: 4876K(5120K)->4876K(5120K)
[2021-11-26T16:15:36.686+0200][gc          ] GC(13) Pause Young (Normal) (G1 Evacuation Pause) 192M->145M(1024M) 35.733ms
[2021-11-26T16:15:36.686+0200][gc,cpu      ] GC(13) User=0.03s Sys=0.11s Real=0.03s
[2021-11-26T16:56:11.054+0200][gc,start    ] GC(14) Pause Young (Normal) (G1 Evacuation Pause)
[2021-11-26T16:56:11.055+0200][gc,task     ] GC(14) Using 13 workers of 13 for evacuation
[2021-11-26T16:56:11.064+0200][gc,phases   ] GC(14)   Pre Evacuate Collection Set: 0.2ms
[2021-11-26T16:56:11.064+0200][gc,phases   ] GC(14)   Merge Heap Roots: 0.1ms
[2021-11-26T16:56:11.064+0200][gc,phases   ] GC(14)   Evacuate Collection Set: 7.5ms
[2021-11-26T16:56:11.064+0200][gc,phases   ] GC(14)   Post Evacuate Collection Set: 1.3ms
[2021-11-26T16:56:11.064+0200][gc,phases   ] GC(14)   Other: 0.9ms
[2021-11-26T16:56:11.064+0200][gc,heap     ] GC(14) Eden regions: 47->0(47)
[2021-11-26T16:56:11.064+0200][gc,heap     ] GC(14) Survivor regions: 4->4(7)
[2021-11-26T16:56:11.064+0200][gc,heap     ] GC(14) Old regions: 12->12
[2021-11-26T16:56:11.064+0200][gc,heap     ] GC(14) Archive regions: 2->2
[2021-11-26T16:56:11.064+0200][gc,heap     ] GC(14) Humongous regions: 129->129
[2021-11-26T16:56:11.064+0200][gc,metaspace] GC(14) Metaspace: 39691K(40192K)->39691K(40192K) NonClass: 34815K(35072K)->34815K(35072K) Class: 4876K(5120K)->4876K(5120K)
[2021-11-26T16:56:11.064+0200][gc          ] GC(14) Pause Young (Normal) (G1 Evacuation Pause) 192M->145M(1024M) 10.086ms
[2021-11-26T16:56:11.064+0200][gc,cpu      ] GC(14) User=0.03s Sys=0.02s Real=0.01s
[2021-11-26T17:36:42.672+0200][gc,start    ] GC(15) Pause Young (Normal) (G1 Evacuation Pause)
[2021-11-26T17:36:42.673+0200][gc,task     ] GC(15) Using 13 workers of 13 for evacuation
[2021-11-26T17:36:42.682+0200][gc,phases   ] GC(15)   Pre Evacuate Collection Set: 0.8ms
[2021-11-26T17:36:42.682+0200][gc,phases   ] GC(15)   Merge Heap Roots: 0.1ms
[2021-11-26T17:36:42.682+0200][gc,phases   ] GC(15)   Evacuate Collection Set: 5.3ms
[2021-11-26T17:36:42.682+0200][gc,phases   ] GC(15)   Post Evacuate Collection Set: 2.0ms
[2021-11-26T17:36:42.682+0200][gc,phases   ] GC(15)   Other: 1.2ms
[2021-11-26T17:36:42.682+0200][gc,heap     ] GC(15) Eden regions: 47->0(47)
[2021-11-26T17:36:42.682+0200][gc,heap     ] GC(15) Survivor regions: 4->4(7)
[2021-11-26T17:36:42.682+0200][gc,heap     ] GC(15) Old regions: 12->12
[2021-11-26T17:36:42.682+0200][gc,heap     ] GC(15) Archive regions: 2->2
[2021-11-26T17:36:42.682+0200][gc,heap     ] GC(15) Humongous regions: 129->129
[2021-11-26T17:36:42.682+0200][gc,metaspace] GC(15) Metaspace: 39693K(40192K)->39693K(40192K) NonClass: 34817K(35072K)->34817K(35072K) Class: 4876K(5120K)->4876K(5120K)
[2021-11-26T17:36:42.682+0200][gc          ] GC(15) Pause Young (Normal) (G1 Evacuation Pause) 192M->145M(1024M) 9.965ms
[2021-11-26T17:36:42.682+0200][gc,cpu      ] GC(15) User=0.02s Sys=0.01s Real=0.01s
[2021-11-26T18:17:41.713+0200][gc,start    ] GC(16) Pause Young (Normal) (G1 Evacuation Pause)
[2021-11-26T18:17:41.714+0200][gc,task     ] GC(16) Using 13 workers of 13 for evacuation
[2021-11-26T18:17:41.717+0200][gc,phases   ] GC(16)   Pre Evacuate Collection Set: 0.1ms
[2021-11-26T18:17:41.717+0200][gc,phases   ] GC(16)   Merge Heap Roots: 0.0ms
[2021-11-26T18:17:41.717+0200][gc,phases   ] GC(16)   Evacuate Collection Set: 2.9ms
[2021-11-26T18:17:41.717+0200][gc,phases   ] GC(16)   Post Evacuate Collection Set: 0.6ms
[2021-11-26T18:17:41.717+0200][gc,phases   ] GC(16)   Other: 0.6ms
[2021-11-26T18:17:41.718+0200][gc,heap     ] GC(16) Eden regions: 47->0(47)
[2021-11-26T18:17:41.718+0200][gc,heap     ] GC(16) Survivor regions: 4->4(7)
[2021-11-26T18:17:41.718+0200][gc,heap     ] GC(16) Old regions: 12->12
[2021-11-26T18:17:41.718+0200][gc,heap     ] GC(16) Archive regions: 2->2
[2021-11-26T18:17:41.718+0200][gc,heap     ] GC(16) Humongous regions: 129->129
[2021-11-26T18:17:41.718+0200][gc,metaspace] GC(16) Metaspace: 39703K(40192K)->39703K(40192K) NonClass: 34827K(35072K)->34827K(35072K) Class: 4876K(5120K)->4876K(5120K)
[2021-11-26T18:17:41.718+0200][gc          ] GC(16) Pause Young (Normal) (G1 Evacuation Pause) 192M->145M(1024M) 4.359ms
[2021-11-26T18:17:41.718+0200][gc,cpu      ] GC(16) User=0.02s Sys=0.01s Real=0.00s
[2021-11-26T18:58:39.143+0200][gc,start    ] GC(17) Pause Young (Normal) (G1 Evacuation Pause)
[2021-11-26T18:58:39.145+0200][gc,task     ] GC(17) Using 13 workers of 13 for evacuation
[2021-11-26T18:58:39.150+0200][gc,phases   ] GC(17)   Pre Evacuate Collection Set: 0.2ms
[2021-11-26T18:58:39.150+0200][gc,phases   ] GC(17)   Merge Heap Roots: 0.1ms
[2021-11-26T18:58:39.150+0200][gc,phases   ] GC(17)   Evacuate Collection Set: 4.0ms
[2021-11-26T18:58:39.150+0200][gc,phases   ] GC(17)   Post Evacuate Collection Set: 0.6ms
[2021-11-26T18:58:39.150+0200][gc,phases   ] GC(17)   Other: 1.6ms
[2021-11-26T18:58:39.150+0200][gc,heap     ] GC(17) Eden regions: 47->0(47)
[2021-11-26T18:58:39.150+0200][gc,heap     ] GC(17) Survivor regions: 4->4(7)
[2021-11-26T18:58:39.150+0200][gc,heap     ] GC(17) Old regions: 12->12
[2021-11-26T18:58:39.150+0200][gc,heap     ] GC(17) Archive regions: 2->2
[2021-11-26T18:58:39.150+0200][gc,heap     ] GC(17) Humongous regions: 129->129
[2021-11-26T18:58:39.150+0200][gc,metaspace] GC(17) Metaspace: 39704K(40192K)->39704K(40192K) NonClass: 34828K(35072K)->34828K(35072K) Class: 4876K(5120K)->4876K(5120K)
[2021-11-26T18:58:39.150+0200][gc          ] GC(17) Pause Young (Normal) (G1 Evacuation Pause) 192M->145M(1024M) 7.184ms
[2021-11-26T18:58:39.150+0200][gc,cpu      ] GC(17) User=0.03s Sys=0.01s Real=0.01s
[2021-11-26T19:39:36.754+0200][gc,start    ] GC(18) Pause Young (Normal) (G1 Evacuation Pause)
[2021-11-26T19:39:36.755+0200][gc,task     ] GC(18) Using 13 workers of 13 for evacuation
[2021-11-26T19:39:36.758+0200][gc,phases   ] GC(18)   Pre Evacuate Collection Set: 0.1ms
[2021-11-26T19:39:36.758+0200][gc,phases   ] GC(18)   Merge Heap Roots: 0.1ms
[2021-11-26T19:39:36.758+0200][gc,phases   ] GC(18)   Evacuate Collection Set: 2.6ms
[2021-11-26T19:39:36.758+0200][gc,phases   ] GC(18)   Post Evacuate Collection Set: 0.7ms
[2021-11-26T19:39:36.758+0200][gc,phases   ] GC(18)   Other: 0.9ms
[2021-11-26T19:39:36.758+0200][gc,heap     ] GC(18) Eden regions: 47->0(47)
[2021-11-26T19:39:36.758+0200][gc,heap     ] GC(18) Survivor regions: 4->4(7)
[2021-11-26T19:39:36.758+0200][gc,heap     ] GC(18) Old regions: 12->12
[2021-11-26T19:39:36.758+0200][gc,heap     ] GC(18) Archive regions: 2->2
[2021-11-26T19:39:36.758+0200][gc,heap     ] GC(18) Humongous regions: 129->129
[2021-11-26T19:39:36.758+0200][gc,metaspace] GC(18) Metaspace: 39705K(40192K)->39705K(40192K) NonClass: 34829K(35072K)->34829K(35072K) Class: 4876K(5120K)->4876K(5120K)
[2021-11-26T19:39:36.759+0200][gc          ] GC(18) Pause Young (Normal) (G1 Evacuation Pause) 192M->145M(1024M) 4.488ms
[2021-11-26T19:39:36.759+0200][gc,cpu      ] GC(18) User=0.02s Sys=0.01s Real=0.00s
[2021-11-26T20:20:36.447+0200][gc,start    ] GC(19) Pause Young (Normal) (G1 Evacuation Pause)
[2021-11-26T20:20:36.448+0200][gc,task     ] GC(19) Using 13 workers of 13 for evacuation
[2021-11-26T20:20:36.452+0200][gc,phases   ] GC(19)   Pre Evacuate Collection Set: 0.2ms
[2021-11-26T20:20:36.452+0200][gc,phases   ] GC(19)   Merge Heap Roots: 0.1ms
[2021-11-26T20:20:36.452+0200][gc,phases   ] GC(19)   Evacuate Collection Set: 2.7ms
[2021-11-26T20:20:36.452+0200][gc,phases   ] GC(19)   Post Evacuate Collection Set: 0.7ms
[2021-11-26T20:20:36.452+0200][gc,phases   ] GC(19)   Other: 1.2ms
[2021-11-26T20:20:36.452+0200][gc,heap     ] GC(19) Eden regions: 47->0(47)
[2021-11-26T20:20:36.452+0200][gc,heap     ] GC(19) Survivor regions: 4->4(7)
[2021-11-26T20:20:36.452+0200][gc,heap     ] GC(19) Old regions: 12->12
[2021-11-26T20:20:36.452+0200][gc,heap     ] GC(19) Archive regions: 2->2
[2021-11-26T20:20:36.452+0200][gc,heap     ] GC(19) Humongous regions: 129->129
[2021-11-26T20:20:36.452+0200][gc,metaspace] GC(19) Metaspace: 39713K(40256K)->39713K(40256K) NonClass: 34837K(35136K)->34837K(35136K) Class: 4876K(5120K)->4876K(5120K)
[2021-11-26T20:20:36.452+0200][gc          ] GC(19) Pause Young (Normal) (G1 Evacuation Pause) 192M->145M(1024M) 5.082ms
[2021-11-26T20:20:36.452+0200][gc,cpu      ] GC(19) User=0.03s Sys=0.01s Real=0.01s
[2021-11-26T21:01:20.433+0200][gc,start    ] GC(20) Pause Young (Normal) (G1 Evacuation Pause)
[2021-11-26T21:01:20.434+0200][gc,task     ] GC(20) Using 13 workers of 13 for evacuation
[2021-11-26T21:01:20.441+0200][gc,phases   ] GC(20)   Pre Evacuate Collection Set: 0.2ms
[2021-11-26T21:01:20.441+0200][gc,phases   ] GC(20)   Merge Heap Roots: 0.8ms
[2021-11-26T21:01:20.441+0200][gc,phases   ] GC(20)   Evacuate Collection Set: 4.1ms
[2021-11-26T21:01:20.441+0200][gc,phases   ] GC(20)   Post Evacuate Collection Set: 1.3ms
[2021-11-26T21:01:20.441+0200][gc,phases   ] GC(20)   Other: 1.5ms
[2021-11-26T21:01:20.441+0200][gc,heap     ] GC(20) Eden regions: 47->0(101)
[2021-11-26T21:01:20.441+0200][gc,heap     ] GC(20) Survivor regions: 4->3(7)
[2021-11-26T21:01:20.441+0200][gc,heap     ] GC(20) Old regions: 12->13
[2021-11-26T21:01:20.441+0200][gc,heap     ] GC(20) Archive regions: 2->2
[2021-11-26T21:01:20.441+0200][gc,heap     ] GC(20) Humongous regions: 129->129
[2021-11-26T21:01:20.441+0200][gc,metaspace] GC(20) Metaspace: 39713K(40256K)->39713K(40256K) NonClass: 34837K(35136K)->34837K(35136K) Class: 4876K(5120K)->4876K(5120K)
[2021-11-26T21:01:20.441+0200][gc          ] GC(20) Pause Young (Normal) (G1 Evacuation Pause) 192M->145M(1024M) 8.099ms
[2021-11-26T21:01:20.441+0200][gc,cpu      ] GC(20) User=0.03s Sys=0.01s Real=0.01s
[2021-11-27T09:34:38.156+0200][gc,start    ] GC(21) Pause Young (Normal) (G1 Evacuation Pause)
[2021-11-27T09:34:38.156+0200][gc,task     ] GC(21) Using 13 workers of 13 for evacuation
[2021-11-27T09:34:38.171+0200][gc,phases   ] GC(21)   Pre Evacuate Collection Set: 2.4ms
[2021-11-27T09:34:38.171+0200][gc,phases   ] GC(21)   Merge Heap Roots: 0.2ms
[2021-11-27T09:34:38.171+0200][gc,phases   ] GC(21)   Evacuate Collection Set: 10.3ms
[2021-11-27T09:34:38.171+0200][gc,phases   ] GC(21)   Post Evacuate Collection Set: 1.5ms
[2021-11-27T09:34:38.171+0200][gc,phases   ] GC(21)   Other: 2.0ms
[2021-11-27T09:34:38.171+0200][gc,heap     ] GC(21) Eden regions: 101->0(612)
[2021-11-27T09:34:38.171+0200][gc,heap     ] GC(21) Survivor regions: 3->2(13)
[2021-11-27T09:34:38.171+0200][gc,heap     ] GC(21) Old regions: 13->14
[2021-11-27T09:34:38.171+0200][gc,heap     ] GC(21) Archive regions: 2->2
[2021-11-27T09:34:38.171+0200][gc,heap     ] GC(21) Humongous regions: 129->129
[2021-11-27T09:34:38.171+0200][gc,metaspace] GC(21) Metaspace: 39728K(40256K)->39728K(40256K) NonClass: 34851K(35136K)->34851K(35136K) Class: 4876K(5120K)->4876K(5120K)
[2021-11-27T09:34:38.171+0200][gc          ] GC(21) Pause Young (Normal) (G1 Evacuation Pause) 246M->145M(1024M) 15.566ms
[2021-11-27T09:34:38.171+0200][gc,cpu      ] GC(21) User=0.03s Sys=0.07s Real=0.02s
[2021-11-29T15:14:48.844+0200][gc,start    ] GC(22) Pause Young (Normal) (G1 Evacuation Pause)
[2021-11-29T15:14:48.845+0200][gc,task     ] GC(22) Using 13 workers of 13 for evacuation
[2021-11-29T15:14:48.929+0200][gc,mmu      ] GC(22) MMU target violated: 21.0ms (20.0ms/21.0ms)
[2021-11-29T15:14:48.929+0200][gc,phases   ] GC(22)   Pre Evacuate Collection Set: 18.5ms
[2021-11-29T15:14:48.929+0200][gc,phases   ] GC(22)   Merge Heap Roots: 2.0ms
[2021-11-29T15:14:48.929+0200][gc,phases   ] GC(22)   Evacuate Collection Set: 50.8ms
[2021-11-29T15:14:48.929+0200][gc,phases   ] GC(22)   Post Evacuate Collection Set: 6.2ms
[2021-11-29T15:14:48.929+0200][gc,phases   ] GC(22)   Other: 10.9ms
[2021-11-29T15:14:48.929+0200][gc,heap     ] GC(22) Eden regions: 612->0(613)
[2021-11-29T15:14:48.929+0200][gc,heap     ] GC(22) Survivor regions: 2->1(77)
[2021-11-29T15:14:48.929+0200][gc,heap     ] GC(22) Old regions: 14->15
[2021-11-29T15:14:48.929+0200][gc,heap     ] GC(22) Archive regions: 2->2
[2021-11-29T15:14:48.929+0200][gc,heap     ] GC(22) Humongous regions: 129->129
[2021-11-29T15:14:48.929+0200][gc,metaspace] GC(22) Metaspace: 39775K(40320K)->39775K(40320K) NonClass: 34897K(35200K)->34897K(35200K) Class: 4877K(5120K)->4877K(5120K)
[2021-11-29T15:14:48.929+0200][gc          ] GC(22) Pause Young (Normal) (G1 Evacuation Pause) 757M->145M(1024M) 85.659ms
[2021-11-29T15:14:48.929+0200][gc,cpu      ] GC(22) User=0.03s Sys=0.21s Real=0.08s
[2021-11-29T15:14:55.714+0200][gc,heap,exit] Heap
[2021-11-29T15:14:55.714+0200][gc,heap,exit]  garbage-first heap   total 1048576K, used 164810K [0x00000007c0000000, 0x0000000800000000)
[2021-11-29T15:14:55.714+0200][gc,heap,exit]   region size 1024K, 17 young (17408K), 1 survivors (1024K)
[2021-11-29T15:14:55.714+0200][gc,heap,exit]  Metaspace       used 40327K, committed 40832K, reserved 1089536K
[2021-11-29T15:14:55.714+0200][gc,heap,exit]   class space    used 5008K, committed 5248K, reserved 1048576K
