[2021-12-07T11:33:38.233+0200][gc] Using G1
[2021-12-07T11:33:38.247+0200][gc,init] Version: 17.0.1+0 (release)
[2021-12-07T11:33:38.247+0200][gc,init] CPUs: 16 total, 16 available
[2021-12-07T11:33:38.247+0200][gc,init] Memory: 16384M
[2021-12-07T11:33:38.247+0200][gc,init] Large Page Support: Disabled
[2021-12-07T11:33:38.247+0200][gc,init] NUMA Support: Disabled
[2021-12-07T11:33:38.247+0200][gc,init] Compressed Oops: Enabled (Zero based)
[2021-12-07T11:33:38.247+0200][gc,init] Heap Region Size: 1M
[2021-12-07T11:33:38.247+0200][gc,init] Heap Min Capacity: 1G
[2021-12-07T11:33:38.247+0200][gc,init] Heap Initial Capacity: 1G
[2021-12-07T11:33:38.247+0200][gc,init] Heap Max Capacity: 1G
[2021-12-07T11:33:38.247+0200][gc,init] Pre-touch: Disabled
[2021-12-07T11:33:38.247+0200][gc,init] Parallel Workers: 13
[2021-12-07T11:33:38.247+0200][gc,init] Concurrent Workers: 3
[2021-12-07T11:33:38.247+0200][gc,init] Concurrent Refinement Workers: 13
[2021-12-07T11:33:38.247+0200][gc,init] Periodic GC: Disabled
[2021-12-07T11:33:38.247+0200][gc,metaspace] CDS archive(s) mapped at: [0x0000000800000000-0x0000000800bd0000-0x0000000800bd0000), size 12386304, SharedBaseAddress: 0x0000000800000000, ArchiveRelocationMode: 0.
[2021-12-07T11:33:38.247+0200][gc,metaspace] Compressed class space mapped at: 0x0000000800c00000-0x0000000840c00000, reserved size: 1073741824
[2021-12-07T11:33:38.247+0200][gc,metaspace] Narrow klass base: 0x0000000800000000, Narrow klass shift: 0, Narrow klass range: 0x100000000
[2021-12-07T11:33:41.148+0200][gc,start    ] GC(0) Pause Young (Normal) (G1 Evacuation Pause)
[2021-12-07T11:33:41.150+0200][gc,task     ] GC(0) Using 13 workers of 13 for evacuation
[2021-12-07T11:33:41.157+0200][gc,phases   ] GC(0)   Pre Evacuate Collection Set: 0.2ms
[2021-12-07T11:33:41.157+0200][gc,phases   ] GC(0)   Merge Heap Roots: 0.1ms
[2021-12-07T11:33:41.157+0200][gc,phases   ] GC(0)   Evacuate Collection Set: 6.4ms
[2021-12-07T11:33:41.157+0200][gc,phases   ] GC(0)   Post Evacuate Collection Set: 0.7ms
[2021-12-07T11:33:41.157+0200][gc,phases   ] GC(0)   Other: 1.5ms
[2021-12-07T11:33:41.157+0200][gc,heap     ] GC(0) Eden regions: 51->0(44)
[2021-12-07T11:33:41.157+0200][gc,heap     ] GC(0) Survivor regions: 0->7(7)
[2021-12-07T11:33:41.157+0200][gc,heap     ] GC(0) Old regions: 0->1
[2021-12-07T11:33:41.157+0200][gc,heap     ] GC(0) Archive regions: 2->2
[2021-12-07T11:33:41.158+0200][gc,heap     ] GC(0) Humongous regions: 0->0
[2021-12-07T11:33:41.158+0200][gc,metaspace] GC(0) Metaspace: 18980K(19136K)->18980K(19136K) NonClass: 16430K(16512K)->16430K(16512K) Class: 2549K(2624K)->2549K(2624K)
[2021-12-07T11:33:41.158+0200][gc          ] GC(0) Pause Young (Normal) (G1 Evacuation Pause) 51M->8M(1024M) 9.134ms
[2021-12-07T11:33:41.158+0200][gc,cpu      ] GC(0) User=0.03s Sys=0.03s Real=0.01s
[2021-12-07T11:33:41.627+0200][gc,start    ] GC(1) Pause Young (Concurrent Start) (Metadata GC Threshold)
[2021-12-07T11:33:41.627+0200][gc,task     ] GC(1) Using 13 workers of 13 for evacuation
[2021-12-07T11:33:41.639+0200][gc,phases   ] GC(1)   Pre Evacuate Collection Set: 0.1ms
[2021-12-07T11:33:41.639+0200][gc,phases   ] GC(1)   Merge Heap Roots: 0.1ms
[2021-12-07T11:33:41.639+0200][gc,phases   ] GC(1)   Evacuate Collection Set: 10.6ms
[2021-12-07T11:33:41.639+0200][gc,phases   ] GC(1)   Post Evacuate Collection Set: 0.9ms
[2021-12-07T11:33:41.639+0200][gc,phases   ] GC(1)   Other: 0.4ms
[2021-12-07T11:33:41.639+0200][gc,heap     ] GC(1) Eden regions: 9->0(50)
[2021-12-07T11:33:41.639+0200][gc,heap     ] GC(1) Survivor regions: 7->1(7)
[2021-12-07T11:33:41.639+0200][gc,heap     ] GC(1) Old regions: 1->7
[2021-12-07T11:33:41.639+0200][gc,heap     ] GC(1) Archive regions: 2->2
[2021-12-07T11:33:41.639+0200][gc,heap     ] GC(1) Humongous regions: 0->0
[2021-12-07T11:33:41.639+0200][gc,metaspace] GC(1) Metaspace: 21308K(21504K)->21308K(21504K) NonClass: 18444K(18560K)->18444K(18560K) Class: 2863K(2944K)->2863K(2944K)
[2021-12-07T11:33:41.639+0200][gc          ] GC(1) Pause Young (Concurrent Start) (Metadata GC Threshold) 16M->8M(1024M) 12.300ms
[2021-12-07T11:33:41.639+0200][gc,cpu      ] GC(1) User=0.04s Sys=0.05s Real=0.01s
[2021-12-07T11:33:41.639+0200][gc          ] GC(2) Concurrent Mark Cycle
[2021-12-07T11:33:41.639+0200][gc,marking  ] GC(2) Concurrent Clear Claimed Marks
[2021-12-07T11:33:41.639+0200][gc,marking  ] GC(2) Concurrent Clear Claimed Marks 0.062ms
[2021-12-07T11:33:41.639+0200][gc,marking  ] GC(2) Concurrent Scan Root Regions
[2021-12-07T11:33:41.645+0200][gc,marking  ] GC(2) Concurrent Scan Root Regions 6.030ms
[2021-12-07T11:33:41.645+0200][gc,marking  ] GC(2) Concurrent Mark
[2021-12-07T11:33:41.646+0200][gc,marking  ] GC(2) Concurrent Mark From Roots
[2021-12-07T11:33:41.646+0200][gc,task     ] GC(2) Using 3 workers of 3 for marking
[2021-12-07T11:33:41.651+0200][gc,marking  ] GC(2) Concurrent Mark From Roots 5.331ms
[2021-12-07T11:33:41.651+0200][gc,marking  ] GC(2) Concurrent Preclean
[2021-12-07T11:33:41.651+0200][gc,marking  ] GC(2) Concurrent Preclean 0.062ms
[2021-12-07T11:33:41.651+0200][gc,start    ] GC(2) Pause Remark
[2021-12-07T11:33:41.653+0200][gc          ] GC(2) Pause Remark 9M->9M(1024M) 2.211ms
[2021-12-07T11:33:41.654+0200][gc,cpu      ] GC(2) User=0.01s Sys=0.00s Real=0.00s
[2021-12-07T11:33:41.654+0200][gc,marking  ] GC(2) Concurrent Mark 8.176ms
[2021-12-07T11:33:41.654+0200][gc,marking  ] GC(2) Concurrent Rebuild Remembered Sets
[2021-12-07T11:33:41.654+0200][gc,marking  ] GC(2) Concurrent Rebuild Remembered Sets 0.011ms
[2021-12-07T11:33:41.654+0200][gc,start    ] GC(2) Pause Cleanup
[2021-12-07T11:33:41.654+0200][gc          ] GC(2) Pause Cleanup 9M->9M(1024M) 0.047ms
[2021-12-07T11:33:41.654+0200][gc,cpu      ] GC(2) User=0.00s Sys=0.00s Real=0.00s
[2021-12-07T11:33:41.654+0200][gc,marking  ] GC(2) Concurrent Cleanup for Next Mark
[2021-12-07T11:33:41.669+0200][gc,marking  ] GC(2) Concurrent Cleanup for Next Mark 15.344ms
[2021-12-07T11:33:41.669+0200][gc          ] GC(2) Concurrent Mark Cycle 30.333ms
[2021-12-07T11:33:44.106+0200][gc,start    ] GC(3) Pause Young (Normal) (G1 Evacuation Pause)
[2021-12-07T11:33:44.106+0200][gc,task     ] GC(3) Using 13 workers of 13 for evacuation
[2021-12-07T11:33:44.112+0200][gc,phases   ] GC(3)   Pre Evacuate Collection Set: 0.1ms
[2021-12-07T11:33:44.113+0200][gc,phases   ] GC(3)   Merge Heap Roots: 0.1ms
[2021-12-07T11:33:44.113+0200][gc,phases   ] GC(3)   Evacuate Collection Set: 4.1ms
[2021-12-07T11:33:44.113+0200][gc,phases   ] GC(3)   Post Evacuate Collection Set: 1.6ms
[2021-12-07T11:33:44.113+0200][gc,phases   ] GC(3)   Other: 0.6ms
[2021-12-07T11:33:44.113+0200][gc,heap     ] GC(3) Eden regions: 50->0(45)
[2021-12-07T11:33:44.113+0200][gc,heap     ] GC(3) Survivor regions: 1->6(7)
[2021-12-07T11:33:44.113+0200][gc,heap     ] GC(3) Old regions: 7->7
[2021-12-07T11:33:44.113+0200][gc,heap     ] GC(3) Archive regions: 2->2
[2021-12-07T11:33:44.113+0200][gc,heap     ] GC(3) Humongous regions: 129->129
[2021-12-07T11:33:44.113+0200][gc,metaspace] GC(3) Metaspace: 31783K(32000K)->31783K(32000K) NonClass: 27916K(28032K)->27916K(28032K) Class: 3866K(3968K)->3866K(3968K)
[2021-12-07T11:33:44.113+0200][gc          ] GC(3) Pause Young (Normal) (G1 Evacuation Pause) 187M->142M(1024M) 6.858ms
[2021-12-07T11:33:44.113+0200][gc,cpu      ] GC(3) User=0.06s Sys=0.00s Real=0.01s
[2021-12-07T11:33:44.741+0200][gc,start    ] GC(4) Pause Young (Concurrent Start) (Metadata GC Threshold)
[2021-12-07T11:33:44.741+0200][gc,task     ] GC(4) Using 13 workers of 13 for evacuation
[2021-12-07T11:33:44.750+0200][gc,phases   ] GC(4)   Pre Evacuate Collection Set: 0.1ms
[2021-12-07T11:33:44.750+0200][gc,phases   ] GC(4)   Merge Heap Roots: 0.1ms
[2021-12-07T11:33:44.750+0200][gc,phases   ] GC(4)   Evacuate Collection Set: 8.4ms
[2021-12-07T11:33:44.750+0200][gc,phases   ] GC(4)   Post Evacuate Collection Set: 0.7ms
[2021-12-07T11:33:44.750+0200][gc,phases   ] GC(4)   Other: 0.3ms
[2021-12-07T11:33:44.750+0200][gc,heap     ] GC(4) Eden regions: 23->0(49)
[2021-12-07T11:33:44.750+0200][gc,heap     ] GC(4) Survivor regions: 6->2(7)
[2021-12-07T11:33:44.750+0200][gc,heap     ] GC(4) Old regions: 7->12
[2021-12-07T11:33:44.750+0200][gc,heap     ] GC(4) Archive regions: 2->2
[2021-12-07T11:33:44.750+0200][gc,heap     ] GC(4) Humongous regions: 129->129
[2021-12-07T11:33:44.750+0200][gc,metaspace] GC(4) Metaspace: 35705K(36096K)->35705K(36096K) NonClass: 31303K(31488K)->31303K(31488K) Class: 4402K(4608K)->4402K(4608K)
[2021-12-07T11:33:44.750+0200][gc          ] GC(4) Pause Young (Concurrent Start) (Metadata GC Threshold) 164M->143M(1024M) 9.855ms
[2021-12-07T11:33:44.750+0200][gc,cpu      ] GC(4) User=0.06s Sys=0.03s Real=0.01s
[2021-12-07T11:33:44.750+0200][gc          ] GC(5) Concurrent Mark Cycle
[2021-12-07T11:33:44.750+0200][gc,marking  ] GC(5) Concurrent Clear Claimed Marks
[2021-12-07T11:33:44.751+0200][gc,marking  ] GC(5) Concurrent Clear Claimed Marks 0.036ms
[2021-12-07T11:33:44.751+0200][gc,marking  ] GC(5) Concurrent Scan Root Regions
[2021-12-07T11:33:44.753+0200][gc,marking  ] GC(5) Concurrent Scan Root Regions 2.907ms
[2021-12-07T11:33:44.753+0200][gc,marking  ] GC(5) Concurrent Mark
[2021-12-07T11:33:44.754+0200][gc,marking  ] GC(5) Concurrent Mark From Roots
[2021-12-07T11:33:44.754+0200][gc,task     ] GC(5) Using 3 workers of 3 for marking
[2021-12-07T11:33:44.770+0200][gc,marking  ] GC(5) Concurrent Mark From Roots 16.572ms
[2021-12-07T11:33:44.770+0200][gc,marking  ] GC(5) Concurrent Preclean
[2021-12-07T11:33:44.770+0200][gc,marking  ] GC(5) Concurrent Preclean 0.193ms
[2021-12-07T11:33:44.771+0200][gc,start    ] GC(5) Pause Remark
[2021-12-07T11:33:44.773+0200][gc          ] GC(5) Pause Remark 144M->144M(1024M) 2.071ms
[2021-12-07T11:33:44.773+0200][gc,cpu      ] GC(5) User=0.02s Sys=0.00s Real=0.00s
[2021-12-07T11:33:44.773+0200][gc,marking  ] GC(5) Concurrent Mark 19.461ms
[2021-12-07T11:33:44.773+0200][gc,marking  ] GC(5) Concurrent Rebuild Remembered Sets
[2021-12-07T11:33:44.773+0200][gc,marking  ] GC(5) Concurrent Rebuild Remembered Sets 0.015ms
[2021-12-07T11:33:44.773+0200][gc,start    ] GC(5) Pause Cleanup
[2021-12-07T11:33:44.773+0200][gc          ] GC(5) Pause Cleanup 144M->144M(1024M) 0.035ms
[2021-12-07T11:33:44.773+0200][gc,cpu      ] GC(5) User=0.00s Sys=0.00s Real=0.00s
[2021-12-07T11:33:44.773+0200][gc,marking  ] GC(5) Concurrent Cleanup for Next Mark
[2021-12-07T11:33:44.803+0200][gc,marking  ] GC(5) Concurrent Cleanup for Next Mark 30.135ms
[2021-12-07T11:33:44.804+0200][gc          ] GC(5) Concurrent Mark Cycle 53.065ms
[2021-12-07T11:39:04.236+0200][gc,start    ] GC(6) Pause Young (Normal) (G1 Evacuation Pause)
[2021-12-07T11:39:04.236+0200][gc,task     ] GC(6) Using 13 workers of 13 for evacuation
[2021-12-07T11:39:04.269+0200][gc,mmu      ] GC(6) MMU target violated: 21.0ms (20.0ms/21.0ms)
[2021-12-07T11:39:04.269+0200][gc,phases   ] GC(6)   Pre Evacuate Collection Set: 3.9ms
[2021-12-07T11:39:04.269+0200][gc,phases   ] GC(6)   Merge Heap Roots: 0.5ms
[2021-12-07T11:39:04.269+0200][gc,phases   ] GC(6)   Evacuate Collection Set: 25.8ms
[2021-12-07T11:39:04.269+0200][gc,phases   ] GC(6)   Post Evacuate Collection Set: 2.2ms
[2021-12-07T11:39:04.269+0200][gc,phases   ] GC(6)   Other: 0.8ms
[2021-12-07T11:39:04.269+0200][gc,heap     ] GC(6) Eden regions: 49->0(48)
[2021-12-07T11:39:04.269+0200][gc,heap     ] GC(6) Survivor regions: 2->3(7)
[2021-12-07T11:39:04.269+0200][gc,heap     ] GC(6) Old regions: 12->12
[2021-12-07T11:39:04.269+0200][gc,heap     ] GC(6) Archive regions: 2->2
[2021-12-07T11:39:04.269+0200][gc,heap     ] GC(6) Humongous regions: 141->129
[2021-12-07T11:39:04.269+0200][gc,metaspace] GC(6) Metaspace: 39317K(39936K)->39317K(39936K) NonClass: 34267K(34624K)->34267K(34624K) Class: 5049K(5312K)->5049K(5312K)
[2021-12-07T11:39:04.269+0200][gc          ] GC(6) Pause Young (Normal) (G1 Evacuation Pause) 204M->144M(1024M) 33.473ms
[2021-12-07T11:39:04.269+0200][gc,cpu      ] GC(6) User=0.05s Sys=0.11s Real=0.03s
[2021-12-07T11:47:12.462+0200][gc,start    ] GC(7) Pause Young (Normal) (G1 Evacuation Pause)
[2021-12-07T11:47:12.462+0200][gc,task     ] GC(7) Using 13 workers of 13 for evacuation
[2021-12-07T11:47:12.492+0200][gc,mmu      ] GC(7) MMU target violated: 21.0ms (20.0ms/21.0ms)
[2021-12-07T11:47:12.492+0200][gc,phases   ] GC(7)   Pre Evacuate Collection Set: 2.1ms
[2021-12-07T11:47:12.492+0200][gc,phases   ] GC(7)   Merge Heap Roots: 0.8ms
[2021-12-07T11:47:12.492+0200][gc,phases   ] GC(7)   Evacuate Collection Set: 24.9ms
[2021-12-07T11:47:12.492+0200][gc,phases   ] GC(7)   Post Evacuate Collection Set: 1.1ms
[2021-12-07T11:47:12.492+0200][gc,phases   ] GC(7)   Other: 1.5ms
[2021-12-07T11:47:12.492+0200][gc,heap     ] GC(7) Eden regions: 48->0(46)
[2021-12-07T11:47:12.492+0200][gc,heap     ] GC(7) Survivor regions: 3->5(7)
[2021-12-07T11:47:12.492+0200][gc,heap     ] GC(7) Old regions: 12->12
[2021-12-07T11:47:12.492+0200][gc,heap     ] GC(7) Archive regions: 2->2
[2021-12-07T11:47:12.492+0200][gc,heap     ] GC(7) Humongous regions: 129->129
[2021-12-07T11:47:12.492+0200][gc,metaspace] GC(7) Metaspace: 40706K(41216K)->40706K(41216K) NonClass: 35637K(35904K)->35637K(35904K) Class: 5069K(5312K)->5069K(5312K)
[2021-12-07T11:47:12.492+0200][gc          ] GC(7) Pause Young (Normal) (G1 Evacuation Pause) 192M->146M(1024M) 30.408ms
[2021-12-07T11:47:12.492+0200][gc,cpu      ] GC(7) User=0.06s Sys=0.13s Real=0.03s
[2021-12-07T11:55:06.576+0200][gc,start    ] GC(8) Pause Young (Normal) (G1 Evacuation Pause)
[2021-12-07T11:55:06.577+0200][gc,task     ] GC(8) Using 13 workers of 13 for evacuation
[2021-12-07T11:55:06.624+0200][gc,mmu      ] GC(8) MMU target violated: 21.0ms (20.0ms/21.0ms)
[2021-12-07T11:55:06.624+0200][gc,phases   ] GC(8)   Pre Evacuate Collection Set: 3.4ms
[2021-12-07T11:55:06.624+0200][gc,phases   ] GC(8)   Merge Heap Roots: 6.6ms
[2021-12-07T11:55:06.624+0200][gc,phases   ] GC(8)   Evacuate Collection Set: 35.1ms
[2021-12-07T11:55:06.624+0200][gc,phases   ] GC(8)   Post Evacuate Collection Set: 2.0ms
[2021-12-07T11:55:06.624+0200][gc,phases   ] GC(8)   Other: 1.3ms
[2021-12-07T11:55:06.624+0200][gc,heap     ] GC(8) Eden regions: 46->0(47)
[2021-12-07T11:55:06.624+0200][gc,heap     ] GC(8) Survivor regions: 5->4(7)
[2021-12-07T11:55:06.624+0200][gc,heap     ] GC(8) Old regions: 12->14
[2021-12-07T11:55:06.624+0200][gc,heap     ] GC(8) Archive regions: 2->2
[2021-12-07T11:55:06.624+0200][gc,heap     ] GC(8) Humongous regions: 129->129
[2021-12-07T11:55:06.624+0200][gc,metaspace] GC(8) Metaspace: 40865K(41408K)->40865K(41408K) NonClass: 35795K(36096K)->35795K(36096K) Class: 5070K(5312K)->5070K(5312K)
[2021-12-07T11:55:06.625+0200][gc          ] GC(8) Pause Young (Normal) (G1 Evacuation Pause) 192M->147M(1024M) 48.295ms
[2021-12-07T11:55:06.625+0200][gc,cpu      ] GC(8) User=0.05s Sys=0.21s Real=0.05s
[2021-12-07T12:02:59.810+0200][gc,start    ] GC(9) Pause Young (Normal) (G1 Evacuation Pause)
[2021-12-07T12:02:59.810+0200][gc,task     ] GC(9) Using 13 workers of 13 for evacuation
[2021-12-07T12:02:59.820+0200][gc,phases   ] GC(9)   Pre Evacuate Collection Set: 0.4ms
[2021-12-07T12:02:59.820+0200][gc,phases   ] GC(9)   Merge Heap Roots: 0.2ms
[2021-12-07T12:02:59.820+0200][gc,phases   ] GC(9)   Evacuate Collection Set: 8.0ms
[2021-12-07T12:02:59.820+0200][gc,phases   ] GC(9)   Post Evacuate Collection Set: 0.7ms
[2021-12-07T12:02:59.820+0200][gc,phases   ] GC(9)   Other: 1.9ms
[2021-12-07T12:02:59.820+0200][gc,heap     ] GC(9) Eden regions: 47->0(46)
[2021-12-07T12:02:59.820+0200][gc,heap     ] GC(9) Survivor regions: 4->5(7)
[2021-12-07T12:02:59.820+0200][gc,heap     ] GC(9) Old regions: 14->14
[2021-12-07T12:02:59.820+0200][gc,heap     ] GC(9) Archive regions: 2->2
[2021-12-07T12:02:59.820+0200][gc,heap     ] GC(9) Humongous regions: 129->129
[2021-12-07T12:02:59.820+0200][gc,metaspace] GC(9) Metaspace: 40888K(41408K)->40888K(41408K) NonClass: 35818K(36096K)->35818K(36096K) Class: 5070K(5312K)->5070K(5312K)
[2021-12-07T12:02:59.820+0200][gc          ] GC(9) Pause Young (Normal) (G1 Evacuation Pause) 194M->147M(1024M) 10.187ms
[2021-12-07T12:02:59.820+0200][gc,cpu      ] GC(9) User=0.05s Sys=0.02s Real=0.01s
[2021-12-07T12:11:52.192+0200][gc,start    ] GC(10) Pause Young (Normal) (G1 Evacuation Pause)
[2021-12-07T12:11:52.193+0200][gc,task     ] GC(10) Using 13 workers of 13 for evacuation
[2021-12-07T12:11:52.273+0200][gc,mmu      ] GC(10) MMU target violated: 21.0ms (20.0ms/21.0ms)
[2021-12-07T12:11:52.273+0200][gc,phases   ] GC(10)   Pre Evacuate Collection Set: 7.1ms
[2021-12-07T12:11:52.273+0200][gc,phases   ] GC(10)   Merge Heap Roots: 2.2ms
[2021-12-07T12:11:52.273+0200][gc,phases   ] GC(10)   Evacuate Collection Set: 67.3ms
[2021-12-07T12:11:52.273+0200][gc,phases   ] GC(10)   Post Evacuate Collection Set: 2.5ms
[2021-12-07T12:11:52.273+0200][gc,phases   ] GC(10)   Other: 3.6ms
[2021-12-07T12:11:52.273+0200][gc,heap     ] GC(10) Eden regions: 46->0(47)
[2021-12-07T12:11:52.273+0200][gc,heap     ] GC(10) Survivor regions: 5->4(7)
[2021-12-07T12:11:52.273+0200][gc,heap     ] GC(10) Old regions: 14->15
[2021-12-07T12:11:52.273+0200][gc,heap     ] GC(10) Archive regions: 2->2
[2021-12-07T12:11:52.273+0200][gc,heap     ] GC(10) Humongous regions: 129->129
[2021-12-07T12:11:52.273+0200][gc,metaspace] GC(10) Metaspace: 40983K(41536K)->40983K(41536K) NonClass: 35904K(36224K)->35904K(36224K) Class: 5078K(5312K)->5078K(5312K)
[2021-12-07T12:11:52.273+0200][gc          ] GC(10) Pause Young (Normal) (G1 Evacuation Pause) 193M->147M(1024M) 81.584ms
[2021-12-07T12:11:52.273+0200][gc,cpu      ] GC(10) User=0.07s Sys=0.39s Real=0.08s
[2021-12-07T12:21:54.213+0200][gc,start    ] GC(11) Pause Young (Normal) (G1 Evacuation Pause)
[2021-12-07T12:21:54.214+0200][gc,task     ] GC(11) Using 13 workers of 13 for evacuation
[2021-12-07T12:21:54.256+0200][gc,mmu      ] GC(11) MMU target violated: 21.0ms (20.0ms/21.0ms)
[2021-12-07T12:21:54.256+0200][gc,phases   ] GC(11)   Pre Evacuate Collection Set: 6.4ms
[2021-12-07T12:21:54.256+0200][gc,phases   ] GC(11)   Merge Heap Roots: 1.5ms
[2021-12-07T12:21:54.256+0200][gc,phases   ] GC(11)   Evacuate Collection Set: 32.0ms
[2021-12-07T12:21:54.256+0200][gc,phases   ] GC(11)   Post Evacuate Collection Set: 1.9ms
[2021-12-07T12:21:54.256+0200][gc,phases   ] GC(11)   Other: 2.5ms
[2021-12-07T12:21:54.256+0200][gc,heap     ] GC(11) Eden regions: 47->0(47)
[2021-12-07T12:21:54.256+0200][gc,heap     ] GC(11) Survivor regions: 4->4(7)
[2021-12-07T12:21:54.256+0200][gc,heap     ] GC(11) Old regions: 15->15
[2021-12-07T12:21:54.256+0200][gc,heap     ] GC(11) Archive regions: 2->2
[2021-12-07T12:21:54.256+0200][gc,heap     ] GC(11) Humongous regions: 129->129
[2021-12-07T12:21:54.256+0200][gc,metaspace] GC(11) Metaspace: 41011K(41536K)->41011K(41536K) NonClass: 35932K(36224K)->35932K(36224K) Class: 5079K(5312K)->5079K(5312K)
[2021-12-07T12:21:54.256+0200][gc          ] GC(11) Pause Young (Normal) (G1 Evacuation Pause) 194M->147M(1024M) 43.045ms
[2021-12-07T12:21:54.256+0200][gc,cpu      ] GC(11) User=0.04s Sys=0.20s Real=0.04s
[2021-12-07T12:32:17.627+0200][gc,start    ] GC(12) Pause Young (Normal) (G1 Evacuation Pause)
[2021-12-07T12:32:17.627+0200][gc,task     ] GC(12) Using 13 workers of 13 for evacuation
[2021-12-07T12:32:17.659+0200][gc,mmu      ] GC(12) MMU target violated: 21.0ms (20.0ms/21.0ms)
[2021-12-07T12:32:17.660+0200][gc,phases   ] GC(12)   Pre Evacuate Collection Set: 2.8ms
[2021-12-07T12:32:17.660+0200][gc,phases   ] GC(12)   Merge Heap Roots: 0.5ms
[2021-12-07T12:32:17.660+0200][gc,phases   ] GC(12)   Evacuate Collection Set: 26.7ms
[2021-12-07T12:32:17.660+0200][gc,phases   ] GC(12)   Post Evacuate Collection Set: 1.3ms
[2021-12-07T12:32:17.660+0200][gc,phases   ] GC(12)   Other: 1.6ms
[2021-12-07T12:32:17.660+0200][gc,heap     ] GC(12) Eden regions: 47->0(47)
[2021-12-07T12:32:17.660+0200][gc,heap     ] GC(12) Survivor regions: 4->4(7)
[2021-12-07T12:32:17.660+0200][gc,heap     ] GC(12) Old regions: 15->15
[2021-12-07T12:32:17.660+0200][gc,heap     ] GC(12) Archive regions: 2->2
[2021-12-07T12:32:17.660+0200][gc,heap     ] GC(12) Humongous regions: 129->129
[2021-12-07T12:32:17.660+0200][gc,metaspace] GC(12) Metaspace: 41050K(41600K)->41050K(41600K) NonClass: 35971K(36288K)->35971K(36288K) Class: 5079K(5312K)->5079K(5312K)
[2021-12-07T12:32:17.660+0200][gc          ] GC(12) Pause Young (Normal) (G1 Evacuation Pause) 194M->147M(1024M) 32.987ms
[2021-12-07T12:32:17.660+0200][gc,cpu      ] GC(12) User=0.04s Sys=0.15s Real=0.04s
[2021-12-07T12:41:42.544+0200][gc,start    ] GC(13) Pause Young (Normal) (G1 Evacuation Pause)
[2021-12-07T12:41:42.544+0200][gc,task     ] GC(13) Using 13 workers of 13 for evacuation
[2021-12-07T12:41:42.572+0200][gc,mmu      ] GC(13) MMU target violated: 21.0ms (20.0ms/21.0ms)
[2021-12-07T12:41:42.572+0200][gc,phases   ] GC(13)   Pre Evacuate Collection Set: 3.0ms
[2021-12-07T12:41:42.572+0200][gc,phases   ] GC(13)   Merge Heap Roots: 0.4ms
[2021-12-07T12:41:42.572+0200][gc,phases   ] GC(13)   Evacuate Collection Set: 23.1ms
[2021-12-07T12:41:42.572+0200][gc,phases   ] GC(13)   Post Evacuate Collection Set: 0.8ms
[2021-12-07T12:41:42.572+0200][gc,phases   ] GC(13)   Other: 1.6ms
[2021-12-07T12:41:42.572+0200][gc,heap     ] GC(13) Eden regions: 47->0(47)
[2021-12-07T12:41:42.572+0200][gc,heap     ] GC(13) Survivor regions: 4->4(7)
[2021-12-07T12:41:42.572+0200][gc,heap     ] GC(13) Old regions: 15->15
[2021-12-07T12:41:42.572+0200][gc,heap     ] GC(13) Archive regions: 2->2
[2021-12-07T12:41:42.572+0200][gc,heap     ] GC(13) Humongous regions: 129->129
[2021-12-07T12:41:42.572+0200][gc,metaspace] GC(13) Metaspace: 41117K(41664K)->41117K(41664K) NonClass: 36028K(36352K)->36028K(36352K) Class: 5088K(5312K)->5088K(5312K)
[2021-12-07T12:41:42.572+0200][gc          ] GC(13) Pause Young (Normal) (G1 Evacuation Pause) 194M->147M(1024M) 28.252ms
[2021-12-07T12:41:42.572+0200][gc,cpu      ] GC(13) User=0.03s Sys=0.15s Real=0.03s
[2021-12-07T12:52:12.519+0200][gc,start    ] GC(14) Pause Young (Normal) (G1 Evacuation Pause)
[2021-12-07T12:52:12.519+0200][gc,task     ] GC(14) Using 13 workers of 13 for evacuation
[2021-12-07T12:52:12.547+0200][gc,mmu      ] GC(14) MMU target violated: 21.0ms (20.0ms/21.0ms)
[2021-12-07T12:52:12.547+0200][gc,phases   ] GC(14)   Pre Evacuate Collection Set: 4.5ms
[2021-12-07T12:52:12.547+0200][gc,phases   ] GC(14)   Merge Heap Roots: 0.4ms
[2021-12-07T12:52:12.547+0200][gc,phases   ] GC(14)   Evacuate Collection Set: 21.6ms
[2021-12-07T12:52:12.547+0200][gc,phases   ] GC(14)   Post Evacuate Collection Set: 0.7ms
[2021-12-07T12:52:12.547+0200][gc,phases   ] GC(14)   Other: 0.9ms
[2021-12-07T12:52:12.547+0200][gc,heap     ] GC(14) Eden regions: 47->0(47)
[2021-12-07T12:52:12.547+0200][gc,heap     ] GC(14) Survivor regions: 4->4(7)
[2021-12-07T12:52:12.547+0200][gc,heap     ] GC(14) Old regions: 15->15
[2021-12-07T12:52:12.547+0200][gc,heap     ] GC(14) Archive regions: 2->2
[2021-12-07T12:52:12.547+0200][gc,heap     ] GC(14) Humongous regions: 129->129
[2021-12-07T12:52:12.547+0200][gc,metaspace] GC(14) Metaspace: 41130K(41664K)->41130K(41664K) NonClass: 36041K(36352K)->36041K(36352K) Class: 5088K(5312K)->5088K(5312K)
[2021-12-07T12:52:12.547+0200][gc          ] GC(14) Pause Young (Normal) (G1 Evacuation Pause) 194M->147M(1024M) 28.122ms
[2021-12-07T12:52:12.547+0200][gc,cpu      ] GC(14) User=0.03s Sys=0.13s Real=0.03s
[2021-12-07T13:49:54.525+0200][gc,start    ] GC(15) Pause Young (Normal) (G1 Evacuation Pause)
[2021-12-07T13:49:54.526+0200][gc,task     ] GC(15) Using 13 workers of 13 for evacuation
[2021-12-07T13:49:54.561+0200][gc,mmu      ] GC(15) MMU target violated: 21.0ms (20.0ms/21.0ms)
[2021-12-07T13:49:54.561+0200][gc,phases   ] GC(15)   Pre Evacuate Collection Set: 5.7ms
[2021-12-07T13:49:54.561+0200][gc,phases   ] GC(15)   Merge Heap Roots: 2.8ms
[2021-12-07T13:49:54.561+0200][gc,phases   ] GC(15)   Evacuate Collection Set: 24.3ms
[2021-12-07T13:49:54.561+0200][gc,phases   ] GC(15)   Post Evacuate Collection Set: 1.0ms
[2021-12-07T13:49:54.561+0200][gc,phases   ] GC(15)   Other: 2.1ms
[2021-12-07T13:49:54.561+0200][gc,heap     ] GC(15) Eden regions: 47->0(47)
[2021-12-07T13:49:54.561+0200][gc,heap     ] GC(15) Survivor regions: 4->4(7)
[2021-12-07T13:49:54.561+0200][gc,heap     ] GC(15) Old regions: 15->15
[2021-12-07T13:49:54.561+0200][gc,heap     ] GC(15) Archive regions: 2->2
[2021-12-07T13:49:54.561+0200][gc,heap     ] GC(15) Humongous regions: 129->129
[2021-12-07T13:49:54.561+0200][gc,metaspace] GC(15) Metaspace: 41152K(41664K)->41152K(41664K) NonClass: 36063K(36352K)->36063K(36352K) Class: 5088K(5312K)->5088K(5312K)
[2021-12-07T13:49:54.561+0200][gc          ] GC(15) Pause Young (Normal) (G1 Evacuation Pause) 194M->147M(1024M) 35.841ms
[2021-12-07T13:49:54.561+0200][gc,cpu      ] GC(15) User=0.04s Sys=0.12s Real=0.04s
[2021-12-07T13:57:18.404+0200][gc,heap,exit] Heap
[2021-12-07T13:57:18.405+0200][gc,heap,exit]  garbage-first heap   total 1048576K, used 178523K [0x00000007c0000000, 0x0000000800000000)
[2021-12-07T13:57:18.405+0200][gc,heap,exit]   region size 1024K, 31 young (31744K), 4 survivors (4096K)
[2021-12-07T13:57:18.405+0200][gc,heap,exit]  Metaspace       used 41693K, committed 42176K, reserved 1089536K
[2021-12-07T13:57:18.405+0200][gc,heap,exit]   class space    used 5216K, committed 5440K, reserved 1048576K
