[2021-12-06T13:46:00.770+0200][gc] Using G1
[2021-12-06T13:46:00.777+0200][gc,init] Version: 17.0.1+0 (release)
[2021-12-06T13:46:00.777+0200][gc,init] CPUs: 16 total, 16 available
[2021-12-06T13:46:00.777+0200][gc,init] Memory: 16384M
[2021-12-06T13:46:00.777+0200][gc,init] Large Page Support: Disabled
[2021-12-06T13:46:00.777+0200][gc,init] NUMA Support: Disabled
[2021-12-06T13:46:00.777+0200][gc,init] Compressed Oops: Enabled (Zero based)
[2021-12-06T13:46:00.777+0200][gc,init] Heap Region Size: 1M
[2021-12-06T13:46:00.777+0200][gc,init] Heap Min Capacity: 1G
[2021-12-06T13:46:00.777+0200][gc,init] Heap Initial Capacity: 1G
[2021-12-06T13:46:00.777+0200][gc,init] Heap Max Capacity: 1G
[2021-12-06T13:46:00.777+0200][gc,init] Pre-touch: Disabled
[2021-12-06T13:46:00.777+0200][gc,init] Parallel Workers: 13
[2021-12-06T13:46:00.777+0200][gc,init] Concurrent Workers: 3
[2021-12-06T13:46:00.777+0200][gc,init] Concurrent Refinement Workers: 13
[2021-12-06T13:46:00.777+0200][gc,init] Periodic GC: Disabled
[2021-12-06T13:46:00.777+0200][gc,metaspace] CDS archive(s) mapped at: [0x0000000800000000-0x0000000800bd0000-0x0000000800bd0000), size 12386304, SharedBaseAddress: 0x0000000800000000, ArchiveRelocationMode: 0.
[2021-12-06T13:46:00.777+0200][gc,metaspace] Compressed class space mapped at: 0x0000000800c00000-0x0000000840c00000, reserved size: 1073741824
[2021-12-06T13:46:00.777+0200][gc,metaspace] Narrow klass base: 0x0000000800000000, Narrow klass shift: 0, Narrow klass range: 0x100000000
[2021-12-06T13:46:02.412+0200][gc,start    ] GC(0) Pause Young (Normal) (G1 Evacuation Pause)
[2021-12-06T13:46:02.413+0200][gc,task     ] GC(0) Using 13 workers of 13 for evacuation
[2021-12-06T13:46:02.418+0200][gc,phases   ] GC(0)   Pre Evacuate Collection Set: 0.1ms
[2021-12-06T13:46:02.418+0200][gc,phases   ] GC(0)   Merge Heap Roots: 0.0ms
[2021-12-06T13:46:02.418+0200][gc,phases   ] GC(0)   Evacuate Collection Set: 3.6ms
[2021-12-06T13:46:02.418+0200][gc,phases   ] GC(0)   Post Evacuate Collection Set: 0.5ms
[2021-12-06T13:46:02.418+0200][gc,phases   ] GC(0)   Other: 1.0ms
[2021-12-06T13:46:02.418+0200][gc,heap     ] GC(0) Eden regions: 51->0(44)
[2021-12-06T13:46:02.418+0200][gc,heap     ] GC(0) Survivor regions: 0->7(7)
[2021-12-06T13:46:02.418+0200][gc,heap     ] GC(0) Old regions: 0->0
[2021-12-06T13:46:02.418+0200][gc,heap     ] GC(0) Archive regions: 2->2
[2021-12-06T13:46:02.418+0200][gc,heap     ] GC(0) Humongous regions: 0->0
[2021-12-06T13:46:02.418+0200][gc,metaspace] GC(0) Metaspace: 19304K(19456K)->19304K(19456K) NonClass: 16692K(16768K)->16692K(16768K) Class: 2611K(2688K)->2611K(2688K)
[2021-12-06T13:46:02.418+0200][gc          ] GC(0) Pause Young (Normal) (G1 Evacuation Pause) 51M->7M(1024M) 5.395ms
[2021-12-06T13:46:02.418+0200][gc,cpu      ] GC(0) User=0.02s Sys=0.02s Real=0.00s
[2021-12-06T13:46:06.506+0200][gc,heap,exit] Heap
[2021-12-06T13:46:06.506+0200][gc,heap,exit]  garbage-first heap   total 1048576K, used 14880K [0x00000007c0000000, 0x0000000800000000)
[2021-12-06T13:46:06.506+0200][gc,heap,exit]   region size 1024K, 14 young (14336K), 7 survivors (7168K)
[2021-12-06T13:46:06.506+0200][gc,heap,exit]  Metaspace       used 20713K, committed 20928K, reserved 1073152K
[2021-12-06T13:46:06.506+0200][gc,heap,exit]   class space    used 2788K, committed 2880K, reserved 1048576K
