[2021-11-26T10:43:54.366+0200][gc] Using G1
[2021-11-26T10:43:54.371+0200][gc,init] Version: 17.0.1+0 (release)
[2021-11-26T10:43:54.372+0200][gc,init] CPUs: 16 total, 16 available
[2021-11-26T10:43:54.372+0200][gc,init] Memory: 16384M
[2021-11-26T10:43:54.372+0200][gc,init] Large Page Support: Disabled
[2021-11-26T10:43:54.372+0200][gc,init] NUMA Support: Disabled
[2021-11-26T10:43:54.372+0200][gc,init] Compressed Oops: Enabled (Zero based)
[2021-11-26T10:43:54.372+0200][gc,init] Heap Region Size: 1M
[2021-11-26T10:43:54.372+0200][gc,init] Heap Min Capacity: 512M
[2021-11-26T10:43:54.372+0200][gc,init] Heap Initial Capacity: 512M
[2021-11-26T10:43:54.372+0200][gc,init] Heap Max Capacity: 512M
[2021-11-26T10:43:54.372+0200][gc,init] Pre-touch: Disabled
[2021-11-26T10:43:54.372+0200][gc,init] Parallel Workers: 13
[2021-11-26T10:43:54.372+0200][gc,init] Concurrent Workers: 3
[2021-11-26T10:43:54.372+0200][gc,init] Concurrent Refinement Workers: 13
[2021-11-26T10:43:54.372+0200][gc,init] Periodic GC: Disabled
[2021-11-26T10:43:54.375+0200][gc,metaspace] CDS archive(s) mapped at: [0x0000000800000000-0x0000000800bd0000-0x0000000800bd0000), size 12386304, SharedBaseAddress: 0x0000000800000000, ArchiveRelocationMode: 0.
[2021-11-26T10:43:54.375+0200][gc,metaspace] Compressed class space mapped at: 0x0000000800c00000-0x0000000840c00000, reserved size: 1073741824
[2021-11-26T10:43:54.375+0200][gc,metaspace] Narrow klass base: 0x0000000800000000, Narrow klass shift: 0, Narrow klass range: 0x100000000
[2021-11-26T10:49:18.048+0200][gc,start    ] GC(0) Pause Young (Normal) (G1 Evacuation Pause)
[2021-11-26T10:49:18.049+0200][gc,task     ] GC(0) Using 12 workers of 13 for evacuation
[2021-11-26T10:49:18.054+0200][gc,phases   ] GC(0)   Pre Evacuate Collection Set: 0.1ms
[2021-11-26T10:49:18.054+0200][gc,phases   ] GC(0)   Merge Heap Roots: 0.1ms
[2021-11-26T10:49:18.054+0200][gc,phases   ] GC(0)   Evacuate Collection Set: 4.6ms
[2021-11-26T10:49:18.054+0200][gc,phases   ] GC(0)   Post Evacuate Collection Set: 0.6ms
[2021-11-26T10:49:18.055+0200][gc,phases   ] GC(0)   Other: 1.4ms
[2021-11-26T10:49:18.055+0200][gc,heap     ] GC(0) Eden regions: 25->0(21)
[2021-11-26T10:49:18.055+0200][gc,heap     ] GC(0) Survivor regions: 0->4(4)
[2021-11-26T10:49:18.055+0200][gc,heap     ] GC(0) Old regions: 0->2
[2021-11-26T10:49:18.055+0200][gc,heap     ] GC(0) Archive regions: 2->2
[2021-11-26T10:49:18.055+0200][gc,heap     ] GC(0) Humongous regions: 0->0
[2021-11-26T10:49:18.055+0200][gc,metaspace] GC(0) Metaspace: 7399K(7552K)->7399K(7552K) NonClass: 6569K(6656K)->6569K(6656K) Class: 829K(896K)->829K(896K)
[2021-11-26T10:49:18.055+0200][gc          ] GC(0) Pause Young (Normal) (G1 Evacuation Pause) 25M->6M(512M) 6.982ms
[2021-11-26T10:49:18.055+0200][gc,cpu      ] GC(0) User=0.03s Sys=0.02s Real=0.01s
[2021-11-26T18:00:07.896+0200][gc,start    ] GC(1) Pause Young (Normal) (G1 Evacuation Pause)
[2021-11-26T18:00:07.902+0200][gc,task     ] GC(1) Using 12 workers of 13 for evacuation
[2021-11-26T18:00:08.069+0200][gc,mmu      ] GC(1) MMU target violated: 21.0ms (20.0ms/21.0ms)
[2021-11-26T18:00:08.069+0200][gc,phases   ] GC(1)   Pre Evacuate Collection Set: 6.4ms
[2021-11-26T18:00:08.069+0200][gc,phases   ] GC(1)   Merge Heap Roots: 5.4ms
[2021-11-26T18:00:08.069+0200][gc,phases   ] GC(1)   Evacuate Collection Set: 146.6ms
[2021-11-26T18:00:08.069+0200][gc,phases   ] GC(1)   Post Evacuate Collection Set: 6.3ms
[2021-11-26T18:00:08.069+0200][gc,phases   ] GC(1)   Other: 12.6ms
[2021-11-26T18:00:08.069+0200][gc,heap     ] GC(1) Eden regions: 21->0(24)
[2021-11-26T18:00:08.069+0200][gc,heap     ] GC(1) Survivor regions: 4->1(4)
[2021-11-26T18:00:08.069+0200][gc,heap     ] GC(1) Old regions: 2->6
[2021-11-26T18:00:08.069+0200][gc,heap     ] GC(1) Archive regions: 2->2
[2021-11-26T18:00:08.069+0200][gc,heap     ] GC(1) Humongous regions: 0->0
[2021-11-26T18:00:08.069+0200][gc,metaspace] GC(1) Metaspace: 8031K(8192K)->8031K(8192K) NonClass: 7184K(7232K)->7184K(7232K) Class: 847K(960K)->847K(960K)
[2021-11-26T18:00:08.069+0200][gc          ] GC(1) Pause Young (Normal) (G1 Evacuation Pause) 27M->7M(512M) 173.218ms
[2021-11-26T18:00:08.069+0200][gc,cpu      ] GC(1) User=0.09s Sys=0.29s Real=0.17s
[2021-11-29T10:50:45.322+0200][gc,start    ] GC(2) Pause Young (Normal) (G1 Evacuation Pause)
[2021-11-29T10:50:45.323+0200][gc,task     ] GC(2) Using 12 workers of 13 for evacuation
[2021-11-29T10:50:45.359+0200][gc,mmu      ] GC(2) MMU target violated: 21.0ms (20.0ms/21.0ms)
[2021-11-29T10:50:45.359+0200][gc,phases   ] GC(2)   Pre Evacuate Collection Set: 3.8ms
[2021-11-29T10:50:45.359+0200][gc,phases   ] GC(2)   Merge Heap Roots: 1.6ms
[2021-11-29T10:50:45.359+0200][gc,phases   ] GC(2)   Evacuate Collection Set: 23.7ms
[2021-11-29T10:50:45.359+0200][gc,phases   ] GC(2)   Post Evacuate Collection Set: 4.6ms
[2021-11-29T10:50:45.359+0200][gc,phases   ] GC(2)   Other: 5.1ms
[2021-11-29T10:50:45.359+0200][gc,heap     ] GC(2) Eden regions: 24->0(24)
[2021-11-29T10:50:45.359+0200][gc,heap     ] GC(2) Survivor regions: 1->1(4)
[2021-11-29T10:50:45.359+0200][gc,heap     ] GC(2) Old regions: 6->6
[2021-11-29T10:50:45.359+0200][gc,heap     ] GC(2) Archive regions: 2->2
[2021-11-29T10:50:45.359+0200][gc,heap     ] GC(2) Humongous regions: 0->0
[2021-11-29T10:50:45.359+0200][gc,metaspace] GC(2) Metaspace: 8031K(8192K)->8031K(8192K) NonClass: 7184K(7232K)->7184K(7232K) Class: 847K(960K)->847K(960K)
[2021-11-29T10:50:45.360+0200][gc          ] GC(2) Pause Young (Normal) (G1 Evacuation Pause) 31M->7M(512M) 38.726ms
[2021-11-29T10:50:45.360+0200][gc,cpu      ] GC(2) User=0.02s Sys=0.05s Real=0.04s
[2021-11-29T15:14:58.193+0200][gc,heap,exit] Heap
[2021-11-29T15:14:58.193+0200][gc,heap,exit]  garbage-first heap   total 524288K, used 24372K [0x00000007e0000000, 0x0000000800000000)
[2021-11-29T15:14:58.193+0200][gc,heap,exit]   region size 1024K, 18 young (18432K), 1 survivors (1024K)
[2021-11-29T15:14:58.194+0200][gc,heap,exit]  Metaspace       used 8061K, committed 8256K, reserved 1056768K
[2021-11-29T15:14:58.194+0200][gc,heap,exit]   class space    used 850K, committed 960K, reserved 1048576K
