[2021-12-06T13:00:57.001+0200][gc] Using G1
[2021-12-06T13:00:57.005+0200][gc,init] Version: 17.0.1+0 (release)
[2021-12-06T13:00:57.005+0200][gc,init] CPUs: 16 total, 16 available
[2021-12-06T13:00:57.005+0200][gc,init] Memory: 16384M
[2021-12-06T13:00:57.005+0200][gc,init] Large Page Support: Disabled
[2021-12-06T13:00:57.005+0200][gc,init] NUMA Support: Disabled
[2021-12-06T13:00:57.005+0200][gc,init] Compressed Oops: Enabled (Zero based)
[2021-12-06T13:00:57.005+0200][gc,init] Heap Region Size: 1M
[2021-12-06T13:00:57.005+0200][gc,init] Heap Min Capacity: 512M
[2021-12-06T13:00:57.005+0200][gc,init] Heap Initial Capacity: 512M
[2021-12-06T13:00:57.005+0200][gc,init] Heap Max Capacity: 512M
[2021-12-06T13:00:57.005+0200][gc,init] Pre-touch: Disabled
[2021-12-06T13:00:57.005+0200][gc,init] Parallel Workers: 13
[2021-12-06T13:00:57.005+0200][gc,init] Concurrent Workers: 3
[2021-12-06T13:00:57.005+0200][gc,init] Concurrent Refinement Workers: 13
[2021-12-06T13:00:57.005+0200][gc,init] Periodic GC: Disabled
[2021-12-06T13:00:57.005+0200][gc,metaspace] CDS archive(s) mapped at: [0x0000000800000000-0x0000000800bd0000-0x0000000800bd0000), size 12386304, SharedBaseAddress: 0x0000000800000000, ArchiveRelocationMode: 0.
[2021-12-06T13:00:57.005+0200][gc,metaspace] Compressed class space mapped at: 0x0000000800c00000-0x0000000840c00000, reserved size: 1073741824
[2021-12-06T13:00:57.005+0200][gc,metaspace] Narrow klass base: 0x0000000800000000, Narrow klass shift: 0, Narrow klass range: 0x100000000
[2021-12-06T13:02:01.827+0200][gc,start    ] GC(0) Pause Young (Normal) (G1 Evacuation Pause)
[2021-12-06T13:02:01.828+0200][gc,task     ] GC(0) Using 12 workers of 13 for evacuation
[2021-12-06T13:02:01.831+0200][gc,phases   ] GC(0)   Pre Evacuate Collection Set: 0.1ms
[2021-12-06T13:02:01.831+0200][gc,phases   ] GC(0)   Merge Heap Roots: 0.0ms
[2021-12-06T13:02:01.832+0200][gc,phases   ] GC(0)   Evacuate Collection Set: 3.1ms
[2021-12-06T13:02:01.832+0200][gc,phases   ] GC(0)   Post Evacuate Collection Set: 0.4ms
[2021-12-06T13:02:01.832+0200][gc,phases   ] GC(0)   Other: 0.8ms
[2021-12-06T13:02:01.832+0200][gc,heap     ] GC(0) Eden regions: 25->0(21)
[2021-12-06T13:02:01.832+0200][gc,heap     ] GC(0) Survivor regions: 0->4(4)
[2021-12-06T13:02:01.832+0200][gc,heap     ] GC(0) Old regions: 0->2
[2021-12-06T13:02:01.832+0200][gc,heap     ] GC(0) Archive regions: 2->2
[2021-12-06T13:02:01.832+0200][gc,heap     ] GC(0) Humongous regions: 0->0
[2021-12-06T13:02:01.832+0200][gc,metaspace] GC(0) Metaspace: 7419K(7552K)->7419K(7552K) NonClass: 6589K(6656K)->6589K(6656K) Class: 829K(896K)->829K(896K)
[2021-12-06T13:02:01.832+0200][gc          ] GC(0) Pause Young (Normal) (G1 Evacuation Pause) 25M->6M(512M) 4.582ms
[2021-12-06T13:02:01.832+0200][gc,cpu      ] GC(0) User=0.02s Sys=0.02s Real=0.01s
[2021-12-06T15:12:35.486+0200][gc,start    ] GC(1) Pause Young (Normal) (G1 Evacuation Pause)
[2021-12-06T15:12:35.490+0200][gc,task     ] GC(1) Using 12 workers of 13 for evacuation
[2021-12-06T15:12:35.580+0200][gc,mmu      ] GC(1) MMU target violated: 21.0ms (20.0ms/21.0ms)
[2021-12-06T15:12:35.580+0200][gc,phases   ] GC(1)   Pre Evacuate Collection Set: 5.9ms
[2021-12-06T15:12:35.580+0200][gc,phases   ] GC(1)   Merge Heap Roots: 6.2ms
[2021-12-06T15:12:35.580+0200][gc,phases   ] GC(1)   Evacuate Collection Set: 72.7ms
[2021-12-06T15:12:35.580+0200][gc,phases   ] GC(1)   Post Evacuate Collection Set: 2.8ms
[2021-12-06T15:12:35.581+0200][gc,phases   ] GC(1)   Other: 9.9ms
[2021-12-06T15:12:35.581+0200][gc,heap     ] GC(1) Eden regions: 21->0(24)
[2021-12-06T15:12:35.581+0200][gc,heap     ] GC(1) Survivor regions: 4->1(4)
[2021-12-06T15:12:35.581+0200][gc,heap     ] GC(1) Old regions: 2->6
[2021-12-06T15:12:35.581+0200][gc,heap     ] GC(1) Archive regions: 2->2
[2021-12-06T15:12:35.581+0200][gc,heap     ] GC(1) Humongous regions: 0->0
[2021-12-06T15:12:35.581+0200][gc,metaspace] GC(1) Metaspace: 8079K(8256K)->8079K(8256K) NonClass: 7231K(7296K)->7231K(7296K) Class: 847K(960K)->847K(960K)
[2021-12-06T15:12:35.581+0200][gc          ] GC(1) Pause Young (Normal) (G1 Evacuation Pause) 27M->7M(512M) 94.623ms
[2021-12-06T15:12:35.581+0200][gc,cpu      ] GC(1) User=0.05s Sys=0.21s Real=0.10s
[2021-12-07T11:31:19.288+0200][gc,heap,exit] Heap
[2021-12-07T11:31:19.292+0200][gc,heap,exit]  garbage-first heap   total 524288K, used 30946K [0x00000007e0000000, 0x0000000800000000)
[2021-12-07T11:31:19.292+0200][gc,heap,exit]   region size 1024K, 24 young (24576K), 1 survivors (1024K)
[2021-12-07T11:31:19.293+0200][gc,heap,exit]  Metaspace       used 8163K, committed 8384K, reserved 1056768K
[2021-12-07T11:31:19.293+0200][gc,heap,exit]   class space    used 848K, committed 960K, reserved 1048576K
