[2021-11-17T12:15:30.399+0200][gc] Using G1
[2021-11-17T12:15:30.402+0200][gc,init] Version: 17.0.1+0 (release)
[2021-11-17T12:15:30.402+0200][gc,init] CPUs: 16 total, 16 available
[2021-11-17T12:15:30.402+0200][gc,init] Memory: 16384M
[2021-11-17T12:15:30.402+0200][gc,init] Large Page Support: Disabled
[2021-11-17T12:15:30.402+0200][gc,init] NUMA Support: Disabled
[2021-11-17T12:15:30.402+0200][gc,init] Compressed Oops: Enabled (Zero based)
[2021-11-17T12:15:30.402+0200][gc,init] Heap Region Size: 1M
[2021-11-17T12:15:30.402+0200][gc,init] Heap Min Capacity: 512M
[2021-11-17T12:15:30.402+0200][gc,init] Heap Initial Capacity: 512M
[2021-11-17T12:15:30.402+0200][gc,init] Heap Max Capacity: 512M
[2021-11-17T12:15:30.402+0200][gc,init] Pre-touch: Disabled
[2021-11-17T12:15:30.402+0200][gc,init] Parallel Workers: 13
[2021-11-17T12:15:30.402+0200][gc,init] Concurrent Workers: 3
[2021-11-17T12:15:30.402+0200][gc,init] Concurrent Refinement Workers: 13
[2021-11-17T12:15:30.402+0200][gc,init] Periodic GC: Disabled
[2021-11-17T12:15:30.402+0200][gc,metaspace] CDS archive(s) mapped at: [0x0000000800000000-0x0000000800bd0000-0x0000000800bd0000), size 12386304, SharedBaseAddress: 0x0000000800000000, ArchiveRelocationMode: 0.
[2021-11-17T12:15:30.402+0200][gc,metaspace] Compressed class space mapped at: 0x0000000800c00000-0x0000000840c00000, reserved size: 1073741824
[2021-11-17T12:15:30.402+0200][gc,metaspace] Narrow klass base: 0x0000000800000000, Narrow klass shift: 0, Narrow klass range: 0x100000000
[2021-11-17T12:22:45.445+0200][gc,start    ] GC(0) Pause Young (Normal) (G1 Evacuation Pause)
[2021-11-17T12:22:45.447+0200][gc,task     ] GC(0) Using 12 workers of 13 for evacuation
[2021-11-17T12:22:45.451+0200][gc,phases   ] GC(0)   Pre Evacuate Collection Set: 0.1ms
[2021-11-17T12:22:45.451+0200][gc,phases   ] GC(0)   Merge Heap Roots: 0.0ms
[2021-11-17T12:22:45.451+0200][gc,phases   ] GC(0)   Evacuate Collection Set: 4.1ms
[2021-11-17T12:22:45.451+0200][gc,phases   ] GC(0)   Post Evacuate Collection Set: 0.4ms
[2021-11-17T12:22:45.451+0200][gc,phases   ] GC(0)   Other: 1.3ms
[2021-11-17T12:22:45.451+0200][gc,heap     ] GC(0) Eden regions: 25->0(21)
[2021-11-17T12:22:45.451+0200][gc,heap     ] GC(0) Survivor regions: 0->4(4)
[2021-11-17T12:22:45.451+0200][gc,heap     ] GC(0) Old regions: 0->2
[2021-11-17T12:22:45.451+0200][gc,heap     ] GC(0) Archive regions: 2->2
[2021-11-17T12:22:45.451+0200][gc,heap     ] GC(0) Humongous regions: 0->0
[2021-11-17T12:22:45.451+0200][gc,metaspace] GC(0) Metaspace: 7407K(7552K)->7407K(7552K) NonClass: 6578K(6656K)->6578K(6656K) Class: 829K(896K)->829K(896K)
[2021-11-17T12:22:45.451+0200][gc          ] GC(0) Pause Young (Normal) (G1 Evacuation Pause) 25M->6M(512M) 6.061ms
[2021-11-17T12:22:45.451+0200][gc,cpu      ] GC(0) User=0.03s Sys=0.02s Real=0.01s
[2021-11-17T12:30:41.420+0200][gc,heap,exit] Heap
[2021-11-17T12:30:41.420+0200][gc,heap,exit]  garbage-first heap   total 524288K, used 12857K [0x00000007e0000000, 0x0000000800000000)
[2021-11-17T12:30:41.421+0200][gc,heap,exit]   region size 1024K, 10 young (10240K), 4 survivors (4096K)
[2021-11-17T12:30:41.421+0200][gc,heap,exit]  Metaspace       used 7763K, committed 7936K, reserved 1056768K
[2021-11-17T12:30:41.421+0200][gc,heap,exit]   class space    used 845K, committed 960K, reserved 1048576K
